104m.pdb
106m.pdb
109m.pdb
110m.pdb
111m.pdb
11bg.pdb
13gs.pdb
16gs.pdb
19gs.pdb
19hc.pdb
1a09.pdb
1a0j.pdb
1a2p.pdb
1a2q.pdb
1a3d.pdb
1a3o.pdb
1a4q.pdb
1a54.pdb
1a5p.pdb
1a6g.pdb
1a6k.pdb
1a6m.pdb
1a6n.pdb
1a78.pdb
1a7x.pdb
1a8d.pdb
1a9o.pdb
1a9q.pdb
1a9r.pdb
1abf.pdb
1abs.pdb
1ad2.pdb
1adl.pdb
1ado.pdb
1ae8.pdb
1afe.pdb
1agy.pdb
1ah4.pdb
1ah7.pdb
1aho.pdb
1ai2.pdb
1ai3.pdb
1aii.pdb
1aik.pdb
1ajg.pdb
1ajh.pdb
1ak9.pdb
1aky.pdb
1al4.pdb
1alq.pdb
1alx.pdb
1alz.pdb
1aof.pdb
1aph.pdb
1apt.pdb
1apu.pdb
1apv.pdb
1apw.pdb
1aqn.pdb
1aqz.pdb
1arx.pdb
1ary.pdb
1atg.pdb
1atl.pdb
1au9.pdb
1av2.pdb
1avn.pdb
1axa.pdb
1axn.pdb
1ay6.pdb
1ayf.pdb
1azc.pdb
1azm.pdb
1b0h.pdb
1b0x.pdb
1b18.pdb
1b19.pdb
1b1h.pdb
1b20.pdb
1b2a.pdb
1b2b.pdb
1b2c.pdb
1b2d.pdb
1b2e.pdb
1b2h.pdb
1b2k.pdb
1b2l.pdb
1b2x.pdb
1b32.pdb
1b38.pdb
1b3f.pdb
1b3g.pdb
1b3h.pdb
1b3l.pdb
1b46.pdb
1b4e.pdb
1b4h.pdb
1b4p.pdb
1b4z.pdb
1b51.pdb
1b5h.pdb
1b5j.pdb
1b6g.pdb
1b6h.pdb
1b6z.pdb
1b71.pdb
1b7h.pdb
1b8d.pdb
1b8y.pdb
1b9j.pdb
1bck.pdb
1bcx.pdb
1ben.pdb
1bft.pdb
1bg4.pdb
1bgv.pdb
1bhp.pdb
1bic.pdb
1bif.pdb
1bit.pdb
1bje.pdb
1bjv.pdb
1bkv.pdb
1bn7.pdb
1bnf.pdb
1bph.pdb
1brh.pdb
1bri.pdb
1brj.pdb
1brk.pdb
1bs3.pdb
1bt5.pdb
1btk.pdb
1btl.pdb
1btx.pdb
1bty.pdb
1btz.pdb
1bul.pdb
1bvc.pdb
1bvt.pdb
1bxo.pdb
1bxq.pdb
1byz.pdb
1bz6.pdb
1bzm.pdb
1bzp.pdb
1bzr.pdb
1c0p.pdb
1c1k.pdb
1c1n.pdb
1c1o.pdb
1c1p.pdb
1c1q.pdb
1c1r.pdb
1c1s.pdb
1c1t.pdb
1c1u.pdb
1c1v.pdb
1c1w.pdb
1c2d.pdb
1c2e.pdb
1c2f.pdb
1c2g.pdb
1c2h.pdb
1c2i.pdb
1c2j.pdb
1c2k.pdb
1c2l.pdb
1c2m.pdb
1c52.pdb
1c53.pdb
1c5l.pdb
1c5m.pdb
1c5n.pdb
1c5o.pdb
1c5p.pdb
1c5q.pdb
1c5r.pdb
1c5s.pdb
1c5t.pdb
1c5u.pdb
1c5v.pdb
1c5w.pdb
1c5x.pdb
1c5y.pdb
1c5z.pdb
1c6r.pdb
1c75.pdb
1c9j.pdb
1c9n.pdb
1ca1.pdb
1caj.pdb
1can.pdb
1cao.pdb
1caq.pdb
1cca.pdb
1ccc.pdb
1ccl.pdb
1ce1.pdb
1cex.pdb
1cfb.pdb
1chm.pdb
1chw.pdb
1ciz.pdb
1cle.pdb
1cm3.pdb
1cml.pdb
1cmp.pdb
1coj.pdb
1cp4.pdb
1cph.pdb
1cpx.pdb
1cqq.pdb
1cqw.pdb
1cra.pdb
1crm.pdb
1cs1.pdb
1cse.pdb
1cwn.pdb
1cwo.pdb
1cxp.pdb
1cyj.pdb
1czm.pdb
1czq.pdb
1czs.pdb
1d2v.pdb
1d4k.pdb
1d4x.pdb
1d5l.pdb
1d6f.pdb
1d6o.pdb
1d7h.pdb
1d7i.pdb
1d7j.pdb
1d7w.pdb
1dak.pdb
1dbo.pdb
1dbs.pdb
1dci.pdb
1ded.pdb
1dfx.pdb
1dg6.pdb
1dgm.pdb
1dhk.pdb
1dif.pdb
1dil.pdb
1dj9.pdb
1dje.pdb
1dk8.pdb
1dl2.pdb
1dlg.pdb
1dlj.pdb
1dlm.pdb
1dlt.pdb
1dm5.pdb
1dmh.pdb
1dmw.pdb
1dnu.pdb
1do1.pdb
1do3.pdb
1do4.pdb
1do7.pdb
1doc.pdb
1doj.pdb
1dp4.pdb
1dph.pdb
1dpj.pdb
1dpo.pdb
1dqk.pdb
1dss.pdb
1dth.pdb
1dvf.pdb
1dw0.pdb
1dw1.pdb
1dwa.pdb
1dwf.pdb
1dwg.pdb
1dwh.pdb
1dwi.pdb
1dxd.pdb
1dxr.pdb
1dy4.pdb
1dy5.pdb
1dyt.pdb
1dz9.pdb
1dzj.pdb
1dzk.pdb
1dzp.pdb
1e1k.pdb
1e1m.pdb
1e29.pdb
1e2d.pdb
1e2e.pdb
1e2f.pdb
1e2g.pdb
1e2q.pdb
1e2r.pdb
1e34.pdb
1e35.pdb
1e3d.pdb
1e42.pdb
1e4m.pdb
1e4v.pdb
1e5h.pdb
1e6p.pdb
1e6q.pdb
1e6s.pdb
1e6x.pdb
1e6z.pdb
1e70.pdb
1e71.pdb
1e72.pdb
1e73.pdb
1e7l.pdb
1e98.pdb
1e99.pdb
1e9b.pdb
1e9c.pdb
1e9e.pdb
1e9f.pdb
1e9g.pdb
1e9v.pdb
1ea7.pdb
1eca.pdb
1ecd.pdb
1ecn.pdb
1eco.pdb
1ed4.pdb
1ed8.pdb
1ed9.pdb
1eei.pdb
1ef1.pdb
1egn.pdb
1egp.pdb
1ej0.pdb
1ejd.pdb
1ejm.pdb
1ekj.pdb
1ekx.pdb
1elf.pdb
1elw.pdb
1emd.pdb
1enr.pdb
1ent.pdb
1eo5.pdb
1epl.pdb
1epm.pdb
1eqd.pdb
1erb.pdb
1erx.pdb
1etl.pdb
1etm.pdb
1etn.pdb
1eu1.pdb
1eua.pdb
1euw.pdb
1ewc.pdb
1exp.pdb
1ezj.pdb
1f07.pdb
1f08.pdb
1f0i.pdb
1f0n.pdb
1f1r.pdb
1f1u.pdb
1f28.pdb
1f2w.pdb
1f3d.pdb
1f3v.pdb
1f5c.pdb
1f5s.pdb
1f8b.pdb
1f8c.pdb
1f8d.pdb
1f8e.pdb
1f94.pdb
1fe4.pdb
1fee.pdb
1ff4.pdb
1fgr.pdb
1fgt.pdb
1fit.pdb
1flj.pdb
1fn8.pdb
1fof.pdb
1fr3.pdb
1fs7.pdb
1fs8.pdb
1fs9.pdb
1fwa.pdb
1fwb.pdb
1fwc.pdb
1fwd.pdb
1fwf.pdb
1fwg.pdb
1fwh.pdb
1fwx.pdb
1fy4.pdb
1fy5.pdb
1g0v.pdb
1g1i.pdb
1g1j.pdb
1g29.pdb
1g2b.pdb
1g2w.pdb
1g30.pdb
1g42.pdb
1g4h.pdb
1g4i.pdb
1g5f.pdb
1g66.pdb
1g6h.pdb
1g6i.pdb
1g6u.pdb
1g6x.pdb
1g7a.pdb
1g7b.pdb
1g8f.pdb
1g8k.pdb
1g8t.pdb
1g9b.pdb
1gbt.pdb
1gbu.pdb
1gbv.pdb
1gci.pdb
1gdn.pdb
1gdq.pdb
1gdu.pdb
1gg6.pdb
1ghv.pdb
1ghw.pdb
1ghx.pdb
1ghy.pdb
1ghz.pdb
1gi0.pdb
1gi1.pdb
1gi2.pdb
1gi3.pdb
1gi4.pdb
1gi5.pdb
1gi6.pdb
1gi7.pdb
1gi8.pdb
1gi9.pdb
1gj4.pdb
1gj5.pdb
1gj6.pdb
1gj7.pdb
1gj8.pdb
1gj9.pdb
1gja.pdb
1gjb.pdb
1gjc.pdb
1gjd.pdb
1gk7.pdb
1gk8.pdb
1gkk.pdb
1gkl.pdb
1gkm.pdb
1gmb.pdb
1gmp.pdb
1gmr.pdb
1gn8.pdb
1gny.pdb
1goy.pdb
1gqk.pdb
1gqv.pdb
1gr0.pdb
1gr3.pdb
1gre.pdb
1grf.pdb
1grg.pdb
1gs4.pdb
1gsj.pdb
1gt1.pdb
1gt3.pdb
1gu7.pdb
1gug.pdb
1gun.pdb
1gvd.pdb
1gvk.pdb
1gvr.pdb
1gvs.pdb
1gvx.pdb
1gwa.pdb
1gwd.pdb
1gwe.pdb
1gwf.pdb
1gwh.pdb
1gx4.pdb
1gx6.pdb
1gxr.pdb
1gxy.pdb
1gzl.pdb
1gzr.pdb
1h0d.pdb
1h1a.pdb
1h1i.pdb
1h1t.pdb
1h2b.pdb
1h2f.pdb
1h41.pdb
1h5b.pdb
1h66.pdb
1h6m.pdb
1h7m.pdb
1h7z.pdb
1h87.pdb
1h8d.pdb
1h8z.pdb
1h9h.pdb
1h9j.pdb
1h9p.pdb
1hbg.pdb
1hc0.pdb
1hc9.pdb
1hcb.pdb
1hck.pdb
1hd3.pdb
1hdk.pdb
1hdo.pdb
1he2.pdb
1he3.pdb
1he4.pdb
1he5.pdb
1heu.pdb
1hf4.pdb
1hg1.pdb
1hhu.pdb
1hj8.pdb
1hj9.pdb
1hjg.pdb
1hkk.pdb
1hl4.pdb
1hl5.pdb
1hle.pdb
1hlq.pdb
1hm9.pdb
1hmd.pdb
1hmo.pdb
1hnj.pdb
1hq2.pdb
1hqs.pdb
1htg.pdb
1hug.pdb
1hvb.pdb
1hvc.pdb
1hx0.pdb
1hxn.pdb
1i1j.pdb
1i1w.pdb
1i1x.pdb
1i2b.pdb
1i2c.pdb
1i36.pdb
1i3d.pdb
1i3e.pdb
1i3k.pdb
1i3l.pdb
1i3m.pdb
1i3n.pdb
1i6t.pdb
1i8j.pdb
1ia1.pdb
1ia2.pdb
1ia3.pdb
1ia4.pdb
1iag.pdb
1ian.pdb
1ic6.pdb
1icp.pdb
1ie7.pdb
1iee.pdb
1ig3.pdb
1iiq.pdb
1ijv.pdb
1ikt.pdb
1ilt.pdb
1iq9.pdb
1iqz.pdb
1ir0.pdb
1is9.pdb
1isc.pdb
1ivn.pdb
1iw1.pdb
1iwd.pdb
1iwt.pdb
1iwu.pdb
1iwv.pdb
1iww.pdb
1iwx.pdb
1iwy.pdb
1iwz.pdb
1ixg.pdb
1ixh.pdb
1iz7.pdb
1iz8.pdb
1izb.pdb
1j00.pdb
1j15.pdb
1j16.pdb
1j52.pdb
1j73.pdb
1j8a.pdb
1j8f.pdb
1j99.pdb
1ja9.pdb
1jay.pdb
1jbu.pdb
1jc1.pdb
1jdo.pdb
1jea.pdb
1jef.pdb
1jet.pdb
1jeu.pdb
1jev.pdb
1jfb.pdb
1jfc.pdb
1jhd.pdb
1jhg.pdb
1jke.pdb
1jkv.pdb
1jlt.pdb
1jm1.pdb
1jni.pdb
1jqx.pdb
1jrb.pdb
1jrs.pdb
1jrt.pdb
1js4.pdb
1jsf.pdb
1jt1.pdb
1juv.pdb
1jv0.pdb
1jvj.pdb
1jw6.pdb
1jw8.pdb
1jwp.pdb
1jwv.pdb
1jxm.pdb
1jxt.pdb
1jyq.pdb
1jze.pdb
1jzf.pdb
1jzg.pdb
1jzh.pdb
1jzj.pdb
1k07.pdb
1k0i.pdb
1k0l.pdb
1k0n.pdb
1k0y.pdb
1k20.pdb
1k2o.pdb
1k4c.pdb
1k6a.pdb
1k6w.pdb
1k70.pdb
1k7c.pdb
1k7h.pdb
1k9d.pdb
1k9e.pdb
1k9f.pdb
1kbr.pdb
1kcd.pdb
1kdg.pdb
1kdy.pdb
1ke4.pdb
1kea.pdb
1keq.pdb
1kfb.pdb
1kfr.pdb
1kgc.pdb
1kh8.pdb
1ki0.pdb
1kic.pdb
1kie.pdb
1kk1.pdb
1kli.pdb
1kll.pdb
1kms.pdb
1kmt.pdb
1ko3.pdb
1kop.pdb
1kp6.pdb
1kpe.pdb
1kqp.pdb
1kqr.pdb
1kt8.pdb
1kta.pdb
1kth.pdb
1ktw.pdb
1kug.pdb
1kvd.pdb
1kvl.pdb
1kvr.pdb
1kwu.pdb
1kwx.pdb
1kyf.pdb
1kzk.pdb
1l0i.pdb
1l0z.pdb
1l11.pdb
1l1g.pdb
1l26.pdb
1l3p.pdb
1l53.pdb
1l6w.pdb
1l7f.pdb
1l7g.pdb
1l7h.pdb
1l7m.pdb
1l7p.pdb
1l8s.pdb
1l9l.pdb
1lbk.pdb
1lec.pdb
1led.pdb
1lf0.pdb
1lh1.pdb
1lh2.pdb
1lh5.pdb
1lh6.pdb
1lh7.pdb
1lhn.pdb
1lht.pdb
1lhv.pdb
1li0.pdb
1li9.pdb
1lic.pdb
1lie.pdb
1lin.pdb
1lk7.pdb
1lkb.pdb
1lkk.pdb
1lkr.pdb
1lks.pdb
1llf.pdb
1llr.pdb
1lls.pdb
1lnb.pdb
1lnc.pdb
1lnd.pdb
1loj.pdb
1lop.pdb
1lqk.pdb
1lqt.pdb
1lqu.pdb
1lqv.pdb
1lqw.pdb
1lri.pdb
1lrl.pdb
1ls1.pdb
1lsh.pdb
1lsz.pdb
1ltw.pdb
1lu0.pdb
1lug.pdb
1luz.pdb
1lw9.pdb
1lwb.pdb
1lyk.pdb
1lzr.pdb
1m03.pdb
1m04.pdb
1m0k.pdb
1m0m.pdb
1m1n.pdb
1m1p.pdb
1m1q.pdb
1m1r.pdb
1m21.pdb
1m24.pdb
1m2t.pdb
1m40.pdb
1m44.pdb
1m5a.pdb
1m65.pdb
1m79.pdb
1m7g.pdb
1m7h.pdb
1m7v.pdb
1m8r.pdb
1m8s.pdb
1mar.pdb
1max.pdb
1may.pdb
1mbi.pdb
1mbq.pdb
1mcv.pdb
1mcy.pdb
1md2.pdb
1me8.pdb
1meh.pdb
1mfm.pdb
1mgo.pdb
1mj5.pdb
1mju.pdb
1mkq.pdb
1mkz.pdb
1ml7.pdb
1ml9.pdb
1mlf.pdb
1mlj.pdb
1mlm.pdb
1mlq.pdb
1mlu.pdb
1moc.pdb
1mof.pdb
1mog.pdb
1moq.pdb
1mqe.pdb
1mqp.pdb
1msk.pdb
1mso.pdb
1mtu.pdb
1muw.pdb
1mw3.pdb
1mwe.pdb
1mwq.pdb
1mxd.pdb
1mxt.pdb
1mym.pdb
1myr.pdb
1myz.pdb
1mzb.pdb
1n0i.pdb
1n0q.pdb
1n13.pdb
1n1b.pdb
1n1f.pdb
1n1p.pdb
1n2m.pdb
1n2z.pdb
1n40.pdb
1n4f.pdb
1n4o.pdb
1n4u.pdb
1n4v.pdb
1n4w.pdb
1n55.pdb
1n5q.pdb
1n68.pdb
1n6x.pdb
1n6y.pdb
1n82.pdb
1n9b.pdb
1n9g.pdb
1na0.pdb
1nb9.pdb
1nco.pdb
1ndq.pdb
1ndu.pdb
1ney.pdb
1nf0.pdb
1nfp.pdb
1nh0.pdb
1nh8.pdb
1nhp.pdb
1nic.pdb
1nie.pdb
1nif.pdb
1nkd.pdb
1nkg.pdb
1nki.pdb
1nlv.pdb
1nm1.pdb
1nme.pdb
1nmx.pdb
1nmy.pdb
1nmz.pdb
1nn0.pdb
1nn1.pdb
1nn3.pdb
1nn5.pdb
1nnw.pdb
1npl.pdb
1nqb.pdb
1nqj.pdb
1nrg.pdb
1nsc.pdb
1nsd.pdb
1nsr.pdb
1nte.pdb
1nu4.pdb
1nxq.pdb
1ny0.pdb
1nym.pdb
1nyy.pdb
1nz4.pdb
1nza.pdb
1o06.pdb
1o0a.pdb
1o1x.pdb
1o2g.pdb
1o2h.pdb
1o2i.pdb
1o2j.pdb
1o2k.pdb
1o2l.pdb
1o2m.pdb
1o2n.pdb
1o2o.pdb
1o2p.pdb
1o2q.pdb
1o2r.pdb
1o2s.pdb
1o2t.pdb
1o2u.pdb
1o2v.pdb
1o2w.pdb
1o2x.pdb
1o2y.pdb
1o2z.pdb
1o30.pdb
1o31.pdb
1o32.pdb
1o33.pdb
1o34.pdb
1o35.pdb
1o36.pdb
1o37.pdb
1o38.pdb
1o39.pdb
1o3a.pdb
1o3b.pdb
1o3c.pdb
1o3d.pdb
1o3e.pdb
1o3f.pdb
1o3g.pdb
1o3h.pdb
1o3i.pdb
1o3j.pdb
1o3k.pdb
1o3l.pdb
1o3m.pdb
1o3n.pdb
1o3o.pdb
1o3p.pdb
1o5a.pdb
1o5b.pdb
1o5c.pdb
1o5e.pdb
1o5f.pdb
1o5g.pdb
1o5k.pdb
1o7e.pdb
1o7j.pdb
1o7n.pdb
1o7q.pdb
1o9i.pdb
1o9r.pdb
1oa1.pdb
1oaa.pdb
1oad.pdb
1oao.pdb
1obm.pdb
1obx.pdb
1oby.pdb
1oc6.pdb
1oc7.pdb
1ocb.pdb
1ocy.pdb
1oe2.pdb
1oew.pdb
1oex.pdb
1ofj.pdb
1ofk.pdb
1og1.pdb
1ogt.pdb
1oh4.pdb
1ohb.pdb
1oj7.pdb
1ojr.pdb
1ok0.pdb
1ok8.pdb
1olr.pdb
1omd.pdb
1one.pdb
1ong.pdb
1onh.pdb
1onj.pdb
1oo0.pdb
1oqu.pdb
1org.pdb
1orv.pdb
1os8.pdb
1oss.pdb
1ot6.pdb
1ot9.pdb
1ova.pdb
1ovs.pdb
1owe.pdb
1owh.pdb
1owq.pdb
1oxv.pdb
1oyq.pdb
1p01.pdb
1p02.pdb
1p0i.pdb
1p11.pdb
1p12.pdb
1p2l.pdb
1p2r.pdb
1p36.pdb
1p37.pdb
1p3n.pdb
1p46.pdb
1p4k.pdb
1p4m.pdb
1p57.pdb
1p64.pdb
1p6y.pdb
1p7k.pdb
1p7v.pdb
1p7w.pdb
1p8h.pdb
1p8u.pdb
1p9g.pdb
1pca.pdb
1pe7.pdb
1pfb.pdb
1pg2.pdb
1pha.pdb
1phb.pdb
1phe.pdb
1pi4.pdb
1pi5.pdb
1pii.pdb
1piq.pdb
1pjx.pdb
1plc.pdb
1pm2.pdb
1pnc.pdb
1poa.pdb
1ppf.pdb
1ppk.pdb
1ppl.pdb
1ppm.pdb
1ppo.pdb
1ppz.pdb
1pq5.pdb
1pq7.pdb
1pq8.pdb
1pqa.pdb
1pqd.pdb
1pqi.pdb
1pqj.pdb
1pqm.pdb
1pqo.pdb
1ps5.pdb
1psj.pdb
1psr.pdb
1pt5.pdb
1pt7.pdb
1pts.pdb
1ptz.pdb
1pu7.pdb
1pwl.pdb
1pxv.pdb
1py3.pdb
1pye.pdb
1pyl.pdb
1pyz.pdb
1pzs.pdb
1q0n.pdb
1q2e.pdb
1q2p.pdb
1q2q.pdb
1q4v.pdb
1q5t.pdb
1q7a.pdb
1q7l.pdb
1q7r.pdb
1q8c.pdb
1q8u.pdb
1q9u.pdb
1qb1.pdb
1qb6.pdb
1qb9.pdb
1qba.pdb
1qbb.pdb
1qbn.pdb
1qbo.pdb
1qcc.pdb
1qga.pdb
1qgf.pdb
1qgi.pdb
1qgw.pdb
1qh7.pdb
1qhd.pdb
1qhp.pdb
1qhq.pdb
1qj1.pdb
1qj8.pdb
1qjp.pdb
1qka.pdb
1qkb.pdb
1qke.pdb
1qkq.pdb
1qkw.pdb
1qlq.pdb
1qnj.pdb
1qns.pdb
1qoq.pdb
1qq4.pdb
1qrf.pdb
1qrl.pdb
1qrm.pdb
1qrw.pdb
1qrx.pdb
1qt3.pdb
1qt5.pdb
1qt6.pdb
1qt7.pdb
1qt8.pdb
1qtw.pdb
1que.pdb
1qv0.pdb
1qv1.pdb
1qwz.pdb
1qxe.pdb
1qyb.pdb
1qz4.pdb
1qz9.pdb
1r0q.pdb
1r3j.pdb
1r45.pdb
1r4v.pdb
1r5m.pdb
1r7u.pdb
1r7x.pdb
1r7y.pdb
1r80.pdb
1r85.pdb
1r86.pdb
1r87.pdb
1ra0.pdb
1rcf.pdb
1re9.pdb
1ree.pdb
1rf7.pdb
1rge.pdb
1rgf.pdb
1rgg.pdb
1rgh.pdb
1rgz.pdb
1rh4.pdb
1rhc.pdb
1rhf.pdb
1rkd.pdb
1rm6.pdb
1rmq.pdb
1rnc.pdb
1rnd.pdb
1rny.pdb
1rp0.pdb
1rpg.pdb
1rsn.pdb
1rtq.pdb
1rtz.pdb
1ruv.pdb
1ruw.pdb
1rvg.pdb
1rw1.pdb
1rwa.pdb
1rwe.pdb
1rwf.pdb
1rwg.pdb
1rwh.pdb
1rxe.pdb
1rxy.pdb
1ry0.pdb
1ryq.pdb
1rzb.pdb
1rzc.pdb
1rzd.pdb
1rze.pdb
1s02.pdb
1s22.pdb
1s2z.pdb
1s36.pdb
1s3d.pdb
1s5d.pdb
1s5m.pdb
1s5n.pdb
1s5s.pdb
1s6f.pdb
1s6h.pdb
1s6v.pdb
1s81.pdb
1s82.pdb
1s83.pdb
1s84.pdb
1s9u.pdb
1sat.pdb
1sb1.pdb
1sby.pdb
1sc3.pdb
1sck.pdb
1sde.pdb
1sdw.pdb
1se4.pdb
1sep.pdb
1sff.pdb
1sgc.pdb
1sgd.pdb
1sge.pdb
1sgn.pdb
1sgp.pdb
1sgq.pdb
1sgr.pdb
1sgy.pdb
1sh5.pdb
1sh6.pdb
1shd.pdb
1si1.pdb
1sih.pdb
1sii.pdb
1sjz.pdb
1sk1.pdb
1sk2.pdb
1sl9.pdb
1sle.pdb
1slt.pdb
1sn8.pdb
1sog.pdb
1sp5.pdb
1spb.pdb
1spe.pdb
1sqa.pdb
1sqo.pdb
1sqt.pdb
1ssa.pdb
1ssx.pdb
1stq.pdb
1str.pdb
1sub.pdb
1suc.pdb
1sud.pdb
1sup.pdb
1sv3.pdb
1svf.pdb
1svn.pdb
1swf.pdb
1swg.pdb
1swm.pdb
1swy.pdb
1swz.pdb
1sx7.pdb
1sxk.pdb
1sxn.pdb
1sxs.pdb
1sxu.pdb
1sy1.pdb
1sy2.pdb
1sy3.pdb
1szj.pdb
1t18.pdb
1t19.pdb
1t1a.pdb
1t1b.pdb
1t1c.pdb
1t2q.pdb
1t31.pdb
1t41.pdb
1t7b.pdb
1t7e.pdb
1t85.pdb
1t87.pdb
1t8k.pdb
1t8u.pdb
1t9m.pdb
1tal.pdb
1tdg.pdb
1tdl.pdb
1tem.pdb
1ten.pdb
1tes.pdb
1tf8.pdb
1tg7.pdb
1tgb.pdb
1tgg.pdb
1tgl.pdb
1tgs.pdb
1tgx.pdb
1thb.pdb
1tif.pdb
1tj1.pdb
1tj9.pdb
1tjm.pdb
1tjx.pdb
1tjy.pdb
1tm3.pdb
1tm4.pdb
1tm5.pdb
1tmx.pdb
1tn3.pdb
1to1.pdb
1to2.pdb
1ton.pdb
1tov.pdb
1tpo.pdb
1tpp.pdb
1tqg.pdb
1trz.pdb
1ts0.pdb
1ts6.pdb
1ts7.pdb
1ts8.pdb
1tt8.pdb
1tud.pdb
1tuk.pdb
1tv4.pdb
1tyj.pdb
1tyl.pdb
1tz8.pdb
1tzc.pdb
1u7p.pdb
1u8y.pdb
1ubh.pdb
1ubj.pdb
1ubk.pdb
1ubl.pdb
1ubo.pdb
1ubr.pdb
1ucn.pdb
1udb.pdb
1ugs.pdb
1ugw.pdb
1uku.pdb
1um4.pdb
1um5.pdb
1un3.pdb
1uo6.pdb
1uoe.pdb
1uoz.pdb
1up3.pdb
1up9.pdb
1ur9.pdb
1urd.pdb
1urq.pdb
1usn.pdb
1utk.pdb
1utn.pdb
1uto.pdb
1utp.pdb
1utq.pdb
1utx.pdb
1uvo.pdb
1uvp.pdb
1uwc.pdb
1uxa.pdb
1uxb.pdb
1uxj.pdb
1uxl.pdb
1uxs.pdb
1uxw.pdb
1uzi.pdb
1uzl.pdb
1uzn.pdb
1uzw.pdb
1v00.pdb
1v2u.pdb
1v3w.pdb
1v4a.pdb
1v4b.pdb
1v5v.pdb
1v6p.pdb
1vat.pdb
1vau.pdb
1vb0.pdb
1vbw.pdb
1ve0.pdb
1vkc.pdb
1vki.pdb
1vl4.pdb
1vl9.pdb
1vla.pdb
1vlg.pdb
1vma.pdb
1vmh.pdb
1vmj.pdb
1vrz.pdb
1vsn.pdb
1vwe.pdb
1vwg.pdb
1vwh.pdb
1vwi.pdb
1vwj.pdb
1vwk.pdb
1vwl.pdb
1vwm.pdb
1vwn.pdb
1vwo.pdb
1vwq.pdb
1vwr.pdb
1vyr.pdb
1vys.pdb
1vzg.pdb
1vzh.pdb
1vzi.pdb
1vzm.pdb
1vzu.pdb
1vzx.pdb
1w0d.pdb
1w0n.pdb
1w15.pdb
1w19.pdb
1w1x.pdb
1w23.pdb
1w2u.pdb
1w3i.pdb
1w3k.pdb
1w3l.pdb
1w3u.pdb
1w3w.pdb
1w4n.pdb
1w5p.pdb
1w5z.pdb
1w6g.pdb
1w6o.pdb
1w6p.pdb
1w6z.pdb
1w70.pdb
1w7c.pdb
1w7r.pdb
1w7x.pdb
1w80.pdb
1w8f.pdb
1w8h.pdb
1w8o.pdb
1w99.pdb
1w9b.pdb
1w9d.pdb
1w9p.pdb
1w9u.pdb
1w9v.pdb
1wb4.pdb
1wb5.pdb
1wb6.pdb
1we4.pdb
1wma.pdb
1wmd.pdb
1wmf.pdb
1wpv.pdb
1wra.pdb
1ws4.pdb
1wua.pdb
1wui.pdb
1wvm.pdb
1wy3.pdb
1wyk.pdb
1x0a.pdb
1x3k.pdb
1x46.pdb
1x6q.pdb
1x6x.pdb
1x6z.pdb
1x7q.pdb
1x7t.pdb
1xan.pdb
1xcr.pdb
1xda.pdb
1xdf.pdb
1xet.pdb
1xf6.pdb
1xg0.pdb
1xh6.pdb
1xh8.pdb
1xhk.pdb
1xi3.pdb
1xj0.pdb
1xjb.pdb
1xoc.pdb
1xr9.pdb
1xt5.pdb
1xug.pdb
1xui.pdb
1xuj.pdb
1xuk.pdb
1xvm.pdb
1xvo.pdb
1xy1.pdb
1xyb.pdb
1y1j.pdb
1y3b.pdb
1y3f.pdb
1y48.pdb
1y4h.pdb
1y4k.pdb
1y4l.pdb
1y6v.pdb
1y79.pdb
1y7a.pdb
1y88.pdb
1y93.pdb
1y9a.pdb
1yag.pdb
1yb5.pdb
1yb6.pdb
1yb7.pdb
1yby.pdb
1yi9.pdb
1yiy.pdb
1yiz.pdb
1ykj.pdb
1ylj.pdb
1ylp.pdb
1ylt.pdb
1yly.pdb
1ylz.pdb
1ym1.pdb
1ynr.pdb
1yoh.pdb
1yoi.pdb
1ype.pdb
1yph.pdb
1ypl.pdb
1yq2.pdb
1yqw.pdb
1yrb.pdb
1yrf.pdb
1yri.pdb
1ysl.pdb
1yt3.pdb
1yu2.pdb
1z05.pdb
1z0u.pdb
1z2u.pdb
1z6o.pdb
1z7g.pdb
1z89.pdb
1z8o.pdb
1z8p.pdb
1z8q.pdb
1z9z.pdb
1zao.pdb
1zc0.pdb
1zeg.pdb
1zeh.pdb
1zej.pdb
1zhs.pdb
1zj7.pdb
1zjc.pdb
1zjy.pdb
1zjz.pdb
1zk0.pdb
1zk1.pdb
1zk2.pdb
1zk4.pdb
1zl0.pdb
1zl7.pdb
1zle.pdb
1zlz.pdb
1zmk.pdb
1zni.pdb
1znj.pdb
1zod.pdb
1zr0.pdb
1zua.pdb
1zur.pdb
1zuu.pdb
1zvc.pdb
1zvh.pdb
1zvy.pdb
1zwn.pdb
1zwp.pdb
1zx8.pdb
1zxi.pdb
1zzz.pdb
242l.pdb
253l.pdb
254l.pdb
255l.pdb
2a1e.pdb
2a1n.pdb
2a1o.pdb
2a2r.pdb
2a2s.pdb
2a31.pdb
2a32.pdb
2a3f.pdb
2a4t.pdb
2a5i.pdb
2a5l.pdb
2a7a.pdb
2a7b.pdb
2a7c.pdb
2a7g.pdb
2a7j.pdb
2a7m.pdb
2a8y.pdb
2a9w.pdb
2aa6.pdb
2aax.pdb
2ab2.pdb
2acy.pdb
2ae7.pdb
2aeb.pdb
2aeo.pdb
2aes.pdb
2afq.pdb
2ag2.pdb
2ag4.pdb
2ah1.pdb
2aip.pdb
2aiq.pdb
2ajc.pdb
2ak1.pdb
2aky.pdb
2al0.pdb
2am9.pdb
2ama.pdb
2amb.pdb
2anv.pdb
2anx.pdb
2aoc.pdb
2aod.pdb
2aoe.pdb
2aof.pdb
2aog.pdb
2aoh.pdb
2aoi.pdb
2aoj.pdb
2apo.pdb
2apr.pdb
2aps.pdb
2apv.pdb
2aq8.pdb
2aqn.pdb
2aqp.pdb
2aqq.pdb
2aqr.pdb
2aqt.pdb
2ar6.pdb
2arb.pdb
2arl.pdb
2arx.pdb
2asc.pdb
2asp.pdb
2at8.pdb
2au6.pdb
2au7.pdb
2au8.pdb
2au9.pdb
2auu.pdb
2avm.pdb
2avo.pdb
2avq.pdb
2avs.pdb
2awk.pdb
2awl.pdb
2axq.pdb
2axw.pdb
2ayv.pdb
2aza.pdb
2b00.pdb
2b3h.pdb
2b4g.pdb
2b5z.pdb
2b6h.pdb
2b8u.pdb
2b8y.pdb
2b97.pdb
2b9w.pdb
2bab.pdb
2bat.pdb
2bax.pdb
2bch.pdb
2beq.pdb
2bf9.pdb
2bfn.pdb
2bgi.pdb
2bhu.pdb
2bhx.pdb
2bi1.pdb
2bi2.pdb
2bi3.pdb
2bi5.pdb
2bi9.pdb
2bia.pdb
2bie.pdb
2big.pdb
2biv.pdb
2bjd.pdb
2bjk.pdb
2bk9.pdb
2blf.pdb
2blm.pdb
2blo.pdb
2blq.pdb
2blv.pdb
2blw.pdb
2bm3.pdb
2bmo.pdb
2bmr.pdb
2bni.pdb
2bnm.pdb
2bno.pdb
2bou.pdb
2boy.pdb
2bp6.pdb
2bpu.pdb
2bt3.pdb
2bt6.pdb
2bu9.pdb
2bup.pdb
2bvw.pdb
2bw1.pdb
2bwa.pdb
2bwh.pdb
2bwi.pdb
2bwr.pdb
2bws.pdb
2bwx.pdb
2by5.pdb
2by6.pdb
2by7.pdb
2by8.pdb
2by9.pdb
2bya.pdb
2bz6.pdb
2bzv.pdb
2c03.pdb
2c04.pdb
2c1p.pdb
2c21.pdb
2c2f.pdb
2c2n.pdb
2c2u.pdb
2c3q.pdb
2c3y.pdb
2c4b.pdb
2c53.pdb
2c6k.pdb
2c77.pdb
2c81.pdb
2c8g.pdb
2c92.pdb
2c94.pdb
2c97.pdb
2c9h.pdb
2c9q.pdb
2c9s.pdb
2c9v.pdb
2c9w.pdb
2c9x.pdb
2ca3.pdb
2cal.pdb
2cb8.pdb
2cbp.pdb
2cce.pdb
2ccn.pdb
2cdn.pdb
2cel.pdb
2ceu.pdb
2cey.pdb
2cf7.pdb
2cf8.pdb
2cfd.pdb
2cfg.pdb
2cfk.pdb
2cfl.pdb
2cfw.pdb
2cg0.pdb
2cg1.pdb
2cg6.pdb
2chb.pdb
2chh.pdb
2chp.pdb
2ci9.pdb
2civ.pdb
2ciw.pdb
2cix.pdb
2ciy.pdb
2cj2.pdb
2cj3.pdb
2ckk.pdb
2ckr.pdb
2cks.pdb
2cl0.pdb
2cmt.pdb
2cn0.pdb
2cnu.pdb
2cnv.pdb
2cth.pdb
2cts.pdb
2cuu.pdb
2cve.pdb
2cy7.pdb
2cyp.pdb
2cyy.pdb
2cz8.pdb
2czc.pdb
2d02.pdb
2d05.pdb
2d16.pdb
2d4i.pdb
2d4j.pdb
2d6b.pdb
2d73.pdb
2dct.pdb
2df3.pdb
2dfb.pdb
2dgk.pdb
2dho.pdb
2dqa.pdb
2dql.pdb
2dry.pdb
2ds0.pdb
2dsn.pdb
2dtr.pdb
2duy.pdb
2dws.pdb
2dyx.pdb
2e0l.pdb
2e0m.pdb
2e27.pdb
2e2r.pdb
2e39.pdb
2e3a.pdb
2e3b.pdb
2e7w.pdb
2e7z.pdb
2e80.pdb
2e81.pdb
2eae.pdb
2eak.pdb
2ef0.pdb
2eff.pdb
2eft.pdb
2eg1.pdb
2eg2.pdb
2eg4.pdb
2ehz.pdb
2eij.pdb
2f0a.pdb
2f1w.pdb
2f1y.pdb
2f2h.pdb
2f2w.pdb
2f46.pdb
2f4k.pdb
2f56.pdb
2f6q.pdb
2f80.pdb
2f81.pdb
2f8g.pdb
2f91.pdb
2f9r.pdb
2fac.pdb
2fad.pdb
2fae.pdb
2fal.pdb
2fam.pdb
2fbb.pdb
2fbd.pdb
2fe5.pdb
2ffx.pdb
2ffy.pdb
2fgq.pdb
2fgr.pdb
2fi3.pdb
2fi4.pdb
2fi5.pdb
2fit.pdb
2fj9.pdb
2fja.pdb
2fjb.pdb
2fjd.pdb
2fje.pdb
2fk1.pdb
2fk2.pdb
2fka.pdb
2fkk.pdb
2fkz.pdb
2fla.pdb
2flw.pdb
2fmb.pdb
2fmf.pdb
2fmh.pdb
2foy.pdb
2fp1.pdb
2fq9.pdb
2fqe.pdb
2fqf.pdb
2fqp.pdb
2fr5.pdb
2fra.pdb
2fsu.pdb
2ft2.pdb
2ft6.pdb
2ft8.pdb
2ftl.pdb
2ftm.pdb
2fud.pdb
2fvy.pdb
2fx5.pdb
2fyb.pdb
2fyf.pdb
2fzn.pdb
2g1u.pdb
2g2n.pdb
2g3h.pdb
2g4k.pdb
2g4o.pdb
2g4q.pdb
2g4u.pdb
2g4w.pdb
2g4x.pdb
2g4z.pdb
2g51.pdb
2g52.pdb
2g55.pdb
2g5r.pdb
2g64.pdb
2g6f.pdb
2g7b.pdb
2g81.pdb
2g9h.pdb
2g9y.pdb
2gao.pdb
2gbt.pdb
2gbv.pdb
2gd8.pdb
2gew.pdb
2gf6.pdb
2gf9.pdb
2gfc.pdb
2gg9.pdb
2ggc.pdb
2ghs.pdb
2ghz.pdb
2gi0.pdb
2git.pdb
2gjp.pdb
2gl9.pdb
2glk.pdb
2go3.pdb
2gpt.pdb
2gqp.pdb
2gqv.pdb
2gsp.pdb
2gtw.pdb
2gtx.pdb
2gty.pdb
2gtz.pdb
2gu3.pdb
2gu4.pdb
2gu5.pdb
2gu6.pdb
2gu7.pdb
2gud.pdb
2gw2.pdb
2gwh.pdb
2gyo.pdb
2h03.pdb
2h16.pdb
2h1v.pdb
2h2b.pdb
2h5c.pdb
2h5d.pdb
2h5u.pdb
2h88.pdb
2h8i.pdb
2hbg.pdb
2hc1.pdb
2hc2.pdb
2hdj.pdb
2hds.pdb
2hdu.pdb
2he8.pdb
2hff.pdb
2hhn.pdb
2hi8.pdb
2hib.pdb
2hjp.pdb
2hk6.pdb
2hlz.pdb
2hmq.pdb
2hmz.pdb
2hoh.pdb
2hrd.pdb
2hsh.pdb
2hte.pdb
2htx.pdb
2hu1.pdb
2hu3.pdb
2hu6.pdb
2hvk.pdb
2hxc.pdb
2hyr.pdb
2hz1.pdb
2i0o.pdb
2i5n.pdb
2i6m.pdb
2i6z.pdb
2i7a.pdb
2i7c.pdb
2i8a.pdb
2ia1.pdb
2ib8.pdb
2ibw.pdb
2iby.pdb
2icy.pdb
2id8.pdb
2idw.pdb
2ie6.pdb
2ie7.pdb
2ien.pdb
2ih3.pdb
2iht.pdb
2ija.pdb
2ilk.pdb
2ime.pdb
2imf.pdb
2imm.pdb
2imn.pdb
2iot.pdb
2ipg.pdb
2ipj.pdb
2iqj.pdb
2iu7.pdb
2iuo.pdb
2iuz.pdb
2ivg.pdb
2ix9.pdb
2ixt.pdb
2iyj.pdb
2iza.pdb
2izb.pdb
2izc.pdb
2izd.pdb
2ize.pdb
2izg.pdb
2izh.pdb
2izi.pdb
2izj.pdb
2izk.pdb
2izl.pdb
2izq.pdb
2j18.pdb
2j19.pdb
2j1g.pdb
2j45.pdb
2j46.pdb
2j5g.pdb
2j5z.pdb
2j60.pdb
2j6l.pdb
2j8t.pdb
2j97.pdb
2j9b.pdb
2jaw.pdb
2jb4.pdb
2jbz.pdb
2jc5.pdb
2jcq.pdb
2jdd.pdb
2jdm.pdb
2jdn.pdb
2jdp.pdb
2jdu.pdb
2jec.pdb
2jek.pdb
2jen.pdb
2jep.pdb
2jfr.pdb
2jfs.pdb
2jft.pdb
2jg1.pdb
2jg6.pdb
2jhf.pdb
2jhm.pdb
2jil.pdb
2jjj.pdb
2jjn.pdb
2jkb.pdb
2jli.pdb
2kmb.pdb
2lh1.pdb
2lh2.pdb
2lh5.pdb
2lh6.pdb
2lh7.pdb
2lhb.pdb
2mbw.pdb
2mcm.pdb
2mgf.pdb
2mgk.pdb
2mgm.pdb
2mhb.pdb
2mhr.pdb
2msb.pdb
2mya.pdb
2myb.pdb
2myc.pdb
2myd.pdb
2mye.pdb
2nlr.pdb
2nmo.pdb
2nmy.pdb
2nmz.pdb
2nn5.pdb
2nn7.pdb
2nnk.pdb
2nnp.pdb
2nqd.pdb
2nql.pdb
2nrm.pdb
2nu5.pdb
2nuk.pdb
2nuo.pdb
2nwd.pdb
2nwf.pdb
2nx0.pdb
2nxf.pdb
2nze.pdb
2o02.pdb
2o2p.pdb
2o2q.pdb
2o4v.pdb
2o6n.pdb
2o7f.pdb
2o7o.pdb
2o7s.pdb
2o8m.pdb
2o9q.pdb
2o9u.pdb
2oa9.pdb
2ob3.pdb
2obl.pdb
2ocg.pdb
2oci.pdb
2ock.pdb
2ocl.pdb
2oct.pdb
2ofr.pdb
2ofx.pdb
2og1.pdb
2og2.pdb
2ogf.pdb
2ogx.pdb
2ohb.pdb
2ok6.pdb
2olb.pdb
2olq.pdb
2oml.pdb
2on5.pdb
2one.pdb
2ons.pdb
2op3.pdb
2opl.pdb
2opo.pdb
2oqe.pdb
2oqu.pdb
2oqx.pdb
2ork.pdb
2os5.pdb
2osx.pdb
2ot4.pdb
2otb.pdb
2ou9.pdb
2ox5.pdb
2oxg.pdb
2oxj.pdb
2oxk.pdb
2oya.pdb
2oyf.pdb
2p0e.pdb
2p1h.pdb
2p3i.pdb
2p3j.pdb
2p3k.pdb
2p4t.pdb
2p5e.pdb
2p5k.pdb
2p6z.pdb
2p74.pdb
2p9w.pdb
2pal.pdb
2pc0.pdb
2pc2.pdb
2pe7.pdb
2pes.pdb
2pfe.pdb
2pfg.pdb
2pfr.pdb
2pgf.pdb
2pkt.pdb
2pl1.pdb
2plx.pdb
2pmh.pdb
2pn6.pdb
2pnu.pdb
2pok.pdb
2por.pdb
2pqt.pdb
2prs.pdb
2psp.pdb
2pt1.pdb
2pt6.pdb
2ptc.pdb
2ptx.pdb
2ptz.pdb
2pu0.pdb
2pu1.pdb
2pu2.pdb
2pvq.pdb
2pvx.pdb
2pw0.pdb
2py4.pdb
2pya.pdb
2pzn.pdb
2q0m.pdb
2q1p.pdb
2q2j.pdb
2q2n.pdb
2q3i.pdb
2q3m.pdb
2q3o.pdb
2q3p.pdb
2q3r.pdb
2q3t.pdb
2q3u.pdb
2q3v.pdb
2q3w.pdb
2q40.pdb
2q42.pdb
2q43.pdb
2q44.pdb
2q46.pdb
2q48.pdb
2q4f.pdb
2q4g.pdb
2q4h.pdb
2q4i.pdb
2q4j.pdb
2q4m.pdb
2q4n.pdb
2q4o.pdb
2q4s.pdb
2q4v.pdb
2q4w.pdb
2q4z.pdb
2q52.pdb
2q7d.pdb
2q7g.pdb
2q7w.pdb
2q88.pdb
2q8x.pdb
2qa3.pdb
2qa9.pdb
2qaa.pdb
2qb2.pdb
2qb3.pdb
2qb5.pdb
2qbt.pdb
2qci.pdb
2qcp.pdb
2qcu.pdb
2qd6.pdb
2qd7.pdb
2qd8.pdb
2qey.pdb
2qf1.pdb
2qf2.pdb
2qfe.pdb
2qfk.pdb
2qiu.pdb
2qnp.pdb
2qo0.pdb
2qpm.pdb
2qqc.pdb
2qqd.pdb
2qqr.pdb
2qr9.pdb
2qrw.pdb
2qsk.pdb
2qsy.pdb
2qsz.pdb
2qt1.pdb
2qt6.pdb
2qtt.pdb
2qvu.pdb
2qwa.pdb
2qwb.pdb
2qwc.pdb
2qwd.pdb
2qwe.pdb
2qwf.pdb
2qwg.pdb
2qwh.pdb
2qwj.pdb
2qwk.pdb
2qz0.pdb
2qzl.pdb
2r23.pdb
2r2d.pdb
2r2q.pdb
2r36.pdb
2r4i.pdb
2r5e.pdb
2r80.pdb
2r9w.pdb
2ran.pdb
2rbt.pdb
2rbv.pdb
2rbw.pdb
2rbx.pdb
2rby.pdb
2rc0.pdb
2rcx.pdb
2rdg.pdb
2rfm.pdb
2rfq.pdb
2rg2.pdb
2rg9.pdb
2rga.pdb
2rgb.pdb
2rgc.pdb
2rge.pdb
2rh2.pdb
2ri9.pdb
2rj8.pdb
2rk1.pdb
2rk7.pdb
2rka.pdb
2rkd.pdb
2rkm.pdb
2rkn.pdb
2rkv.pdb
2rmc.pdb
2rox.pdb
2rta.pdb
2rtb.pdb
2rtc.pdb
2rtd.pdb
2rte.pdb
2rtf.pdb
2rtg.pdb
2rth.pdb
2rti.pdb
2rtj.pdb
2rtk.pdb
2rtl.pdb
2rtm.pdb
2rto.pdb
2rtp.pdb
2rtq.pdb
2sec.pdb
2sgd.pdb
2sge.pdb
2sgf.pdb
2sgp.pdb
2sgq.pdb
2sim.pdb
2sn3.pdb
2st1.pdb
2tbs.pdb
2tci.pdb
2tga.pdb
2tps.pdb
2trx.pdb
2udp.pdb
2ull.pdb
2uwj.pdb
2ux1.pdb
2uyx.pdb
2uzj.pdb
2v06.pdb
2v0a.pdb
2v0y.pdb
2v1p.pdb
2v1q.pdb
2v25.pdb
2v2a.pdb
2v2e.pdb
2v2f.pdb
2v3h.pdb
2v3i.pdb
2v3q.pdb
2v3r.pdb
2v3v.pdb
2v3z.pdb
2v4n.pdb
2v52.pdb
2v63.pdb
2v67.pdb
2v6n.pdb
2v89.pdb
2v8b.pdb
2v9b.pdb
2v9l.pdb
2v9n.pdb
2v9v.pdb
2vac.pdb
2vb1.pdb
2vb8.pdb
2vbb.pdb
2vbe.pdb
2vbk.pdb
2vbm.pdb
2vcn.pdb
2vcs.pdb
2vd6.pdb
2veb.pdb
2vfd.pdb
2vfh.pdb
2vfm.pdb
2vfx.pdb
2vi1.pdb
2vj8.pdb
2vji.pdb
2vjj.pdb
2vjq.pdb
2vke.pdb
2vlf.pdb
2vm9.pdb
2vmc.pdb
2vmd.pdb
2vn4.pdb
2vng.pdb
2vno.pdb
2vnv.pdb
2vov.pdb
2vox.pdb
2vp7.pdb
2vpb.pdb
2vph.pdb
2vpk.pdb
2vqr.pdb
2vr6.pdb
2vr7.pdb
2vr8.pdb
2vs5.pdb
2vu7.pdb
2vua.pdb
2vuc.pdb
2vud.pdb
2vuw.pdb
2vvb.pdb
2vwg.pdb
2vxn.pdb
2vxy.pdb
2vz3.pdb
2vz5.pdb
2vzc.pdb
2w0i.pdb
2w18.pdb
2w2j.pdb
2w2v.pdb
2w3g.pdb
2w3m.pdb
2w43.pdb
2w4j.pdb
2w5e.pdb
2w5g.pdb
2w5m.pdb
2w6v.pdb
2w6w.pdb
2w6x.pdb
2w6y.pdb
2w72.pdb
2w86.pdb
2w95.pdb
2w9d.pdb
2wan.pdb
2wb9.pdb
2wbf.pdb
2wbm.pdb
2wbp.pdb
2wbv.pdb
2wdc.pdb
2wdd.pdb
2wdo.pdb
2wdu.pdb
2wdy.pdb
2wdz.pdb
2wf9.pdb
2wfi.pdb
2wfj.pdb
2wgt.pdb
2wgu.pdb
2whh.pdb
2wjm.pdb
2wjn.pdb
2wjr.pdb
2wkk.pdb
2wko.pdb
2wkt.pdb
2wn3.pdb
2wnv.pdb
2wpu.pdb
2wpz.pdb
2wq5.pdb
2wqf.pdb
2wqp.pdb
2wra.pdb
2wsi.pdb
2wt8.pdb
2wta.pdb
2wtp.pdb
2wuf.pdb
2wug.pdb
2wur.pdb
2ww7.pdb
2wxd.pdb
2wxt.pdb
2wxu.pdb
2wyt.pdb
2wyz.pdb
2wz0.pdb
2wz5.pdb
2wz6.pdb
2wzv.pdb
2wzw.pdb
2x0k.pdb
2x1z.pdb
2x20.pdb
2x21.pdb
2x2t.pdb
2x2u.pdb
2x2w.pdb
2x4k.pdb
2x4y.pdb
2x5c.pdb
2x5n.pdb
2x6w.pdb
2x6y.pdb
2x7k.pdb
2x7m.pdb
2x7s.pdb
2x7t.pdb
2x7z.pdb
2x85.pdb
2x8w.pdb
2x9g.pdb
2x9n.pdb
2xb0.pdb
2xb1.pdb
2xbr.pdb
2xc1.pdb
2xch.pdb
2xej.pdb
2xet.pdb
2xfg.pdb
2xg5.pdb
2xhf.pdb
2xhh.pdb
2xhn.pdb
2xi8.pdb
2xih.pdb
2xil.pdb
2xiw.pdb
2xj3.pdb
2xj5.pdb
2xji.pdb
2xjk.pdb
2xjl.pdb
2xjp.pdb
2xjq.pdb
2xjr.pdb
2xjs.pdb
2xjt.pdb
2xju.pdb
2xjv.pdb
2xkg.pdb
2xmf.pdb
2xmj.pdb
2xmk.pdb
2xmm.pdb
2xmu.pdb
2xn2.pdb
2xnj.pdb
2xpu.pdb
2xpw.pdb
2xt0.pdb
2xth.pdb
2xtk.pdb
2xts.pdb
2xtt.pdb
2xu3.pdb
2xu4.pdb
2xu8.pdb
2xu9.pdb
2xuw.pdb
2xv0.pdb
2xv2.pdb
2xvb.pdb
2xvp.pdb
2xvs.pdb
2xvx.pdb
2xvy.pdb
2xx0.pdb
2xx2.pdb
2xx3.pdb
2xxg.pdb
2xyb.pdb
2xyq.pdb
2xza.pdb
2y1p.pdb
2y1q.pdb
2y39.pdb
2y3c.pdb
2y3q.pdb
2y4d.pdb
2y4y.pdb
2y5f.pdb
2y5g.pdb
2y5h.pdb
2y5p.pdb
2y61.pdb
2y62.pdb
2y64.pdb
2y78.pdb
2y79.pdb
2yab.pdb
2yae.pdb
2yaf.pdb
2yah.pdb
2yaj.pdb
2yam.pdb
2yao.pdb
2yap.pdb
2yaq.pdb
2yar.pdb
2yby.pdb
2yci.pdb
2ycj.pdb
2yeo.pdb
2yeu.pdb
2yf3.pdb
2yf4.pdb
2yf9.pdb
2yfd.pdb
2yfn.pdb
2yg9.pdb
2yge.pdb
2ygf.pdb
2yha.pdb
2yiv.pdb
2yj2.pdb
2yj8.pdb
2yj9.pdb
2yjb.pdb
2yjc.pdb
2yjw.pdb
2ykz.pdb
2yl0.pdb
2yl1.pdb
2yl3.pdb
2yl7.pdb
2ylb.pdb
2ylc.pdb
2yld.pdb
2ylg.pdb
2yll.pdb
2yln.pdb
2ymy.pdb
2yn0.pdb
2yn1.pdb
2yn4.pdb
2ynb.pdb
2yne.pdb
2ynw.pdb
2yof.pdb
2yog.pdb
2yoi.pdb
2ypc.pdb
2ype.pdb
2ypo.pdb
2yq9.pdb
2yx4.pdb
2z08.pdb
2z09.pdb
2z3c.pdb
2z4o.pdb
2z5w.pdb
2z66.pdb
2z8a.pdb
2z8q.pdb
2z98.pdb
2z9b.pdb
2zaw.pdb
2zax.pdb
2zbs.pdb
2zc1.pdb
2zd8.pdb
2zga.pdb
2zjm.pdb
2zkc.pdb
2znr.pdb
2zo5.pdb
2zqo.pdb
2zs0.pdb
2zs1.pdb
2zsg.pdb
2zui.pdb
2zyp.pdb
3a0w.pdb
3a1f.pdb
3a2o.pdb
3a34.pdb
3a38.pdb
3a39.pdb
3a3q.pdb
3a4r.pdb
3a5b.pdb
3a5g.pdb
3a91.pdb
3a92.pdb
3a93.pdb
3a94.pdb
3a95.pdb
3a96.pdb
3a9f.pdb
3a9m.pdb
3aa6.pdb
3aal.pdb
3aar.pdb
3ad5.pdb
3agg.pdb
3agh.pdb
3agi.pdb
3agn.pdb
3ago.pdb
3ahs.pdb
3ahw.pdb
3aj4.pdb
3ajn.pdb
3al1.pdb
3al2.pdb
3anu.pdb
3ase.pdb
3atn.pdb
3ato.pdb
3atr.pdb
3au2.pdb
3avr.pdb
3avs.pdb
3ayx.pdb
3ayz.pdb
3az3.pdb
3b0x.pdb
3b0y.pdb
3b1c.pdb
3b1d.pdb
3b1e.pdb
3b2h.pdb
3b2i.pdb
3b2j.pdb
3b2p.pdb
3b2s.pdb
3b2x.pdb
3b30.pdb
3b34.pdb
3b37.pdb
3b3r.pdb
3b6d.pdb
3b7e.pdb
3b7i.pdb
3b7u.pdb
3b9f.pdb
3b9q.pdb
3bc4.pdb
3beq.pdb
3ber.pdb
3bfq.pdb
3bfw.pdb
3bg8.pdb
3bhj.pdb
3bhm.pdb
3bjh.pdb
3bjk.pdb
3bld.pdb
3bll.pdb
3bnb.pdb
3bnc.pdb
3bnd.pdb
3bne.pdb
3bnf.pdb
3bng.pdb
3bnh.pdb
3bnj.pdb
3bpu.pdb
3bri.pdb
3btd.pdb
3bte.pdb
3btf.pdb
3btg.pdb
3bth.pdb
3btk.pdb
3btm.pdb
3btq.pdb
3btt.pdb
3bur.pdb
3buv.pdb
3bv6.pdb
3bv9.pdb
3bva.pdb
3bvb.pdb
3bve.pdb
3bvi.pdb
3bvl.pdb
3bvv.pdb
3bvw.pdb
3bw7.pdb
3bxd.pdb
3bxq.pdb
3bxs.pdb
3bzo.pdb
3bzx.pdb
3bzy.pdb
3c05.pdb
3c0f.pdb
3c0p.pdb
3c2x.pdb
3c3f.pdb
3c5h.pdb
3c5n.pdb
3c5r.pdb
3c61.pdb
3c6x.pdb
3c6y.pdb
3c6z.pdb
3c70.pdb
3c77.pdb
3c78.pdb
3c7o.pdb
3c7w.pdb
3c7z.pdb
3c81.pdb
3c82.pdb
3c83.pdb
3c8q.pdb
3c8r.pdb
3c8s.pdb
3c9e.pdb
3cao.pdb
3car.pdb
3cav.pdb
3cbh.pdb
3cdo.pdb
3cdq.pdb
3cdr.pdb
3cdt.pdb
3cdv.pdb
3cfx.pdb
3cg1.pdb
3chb.pdb
3chc.pdb
3chd.pdb
3chf.pdb
3ci3.pdb
3ci5.pdb
3cip.pdb
3cla.pdb
3cmc.pdb
3cnj.pdb
3cpp.pdb
3cqp.pdb
3cqq.pdb
3csh.pdb
3csi.pdb
3csj.pdb
3css.pdb
3ct6.pdb
3cuz.pdb
3cv1.pdb
3cxi.pdb
3cxv.pdb
3cxx.pdb
3cxy.pdb
3cxz.pdb
3cy0.pdb
3cy1.pdb
3cyn.pdb
3cyu.pdb
3cyw.pdb
3cyz.pdb
3cz0.pdb
3cz1.pdb
3cz4.pdb
3czf.pdb
3d03.pdb
3d05.pdb
3d0s.pdb
3d18.pdb
3d1i.pdb
3d1m.pdb
3d1x.pdb
3d1z.pdb
3d3b.pdb
3d43.pdb
3d4u.pdb
3d65.pdb
3d77.pdb
3d78.pdb
3d7f.pdb
3d7h.pdb
3d7o.pdb
3d8n.pdb
3d97.pdb
3dab.pdb
3dbo.pdb
3dgq.pdb
3dh8.pdb
3dha.pdb
3dhb.pdb
3dhc.pdb
3die.pdb
3djh.pdb
3djj.pdb
3djk.pdb
3dk8.pdb
3dn4.pdb
3dni.pdb
3dnj.pdb
3dpk.pdb
3dq0.pdb
3dr0.pdb
3dr9.pdb
3dt7.pdb
3dtb.pdb
3du0.pdb
3dwr.pdb
3dx0.pdb
3dxs.pdb
3dy0.pdb
3dyb.pdb
3dzw.pdb
3e04.pdb
3e0q.pdb
3e3t.pdb
3e60.pdb
3e6z.pdb
3e79.pdb
3e81.pdb
3e86.pdb
3e89.pdb
3e8b.pdb
3e8f.pdb
3e8g.pdb
3e8h.pdb
3e8m.pdb
3e8y.pdb
3e9v.pdb
3eak.pdb
3eb9.pdb
3ebl.pdb
3ebx.pdb
3ebz.pdb
3ec0.pdb
3ecg.pdb
3edg.pdb
3edh.pdb
3ee2.pdb
3ef4.pdb
3eig.pdb
3eim.pdb
3ej0.pdb
3eja.pdb
3ejw.pdb
3eki.pdb
3el0.pdb
3elo.pdb
3elq.pdb
3els.pdb
3ems.pdb
3enj.pdb
3eoj.pdb
3epv.pdb
3eqy.pdb
3erp.pdb
3erx.pdb
3exx.pdb
3ezr.pdb
3f0y.pdb
3f1l.pdb
3f1n.pdb
3f1o.pdb
3f1p.pdb
3f3r.pdb
3f4m.pdb
3f4y.pdb
3f5h.pdb
3f6q.pdb
3f7j.pdb
3f7q.pdb
3f86.pdb
3f8a.pdb
3f8v.pdb
3f91.pdb
3fa6.pdb
3fa7.pdb
3fad.pdb
3fai.pdb
3fat.pdb
3fbo.pdb
3fck.pdb
3fd5.pdb
3fdr.pdb
3fel.pdb
3fev.pdb
3ff8.pdb
3fgd.pdb
3fgv.pdb
3fh8.pdb
3fhd.pdb
3fhg.pdb
3fid.pdb
3fil.pdb
3fiq.pdb
3fju.pdb
3fkw.pdb
3fm6.pdb
3fmu.pdb
3fo3.pdb
3fo7.pdb
3fp0.pdb
3fpl.pdb
3fpu.pdb
3fpx.pdb
3fq4.pdb
3fq9.pdb
3fqn.pdb
3fqr.pdb
3fqt.pdb
3fqu.pdb
3fqw.pdb
3fqx.pdb
3fs9.pdb
3fsa.pdb
3fso.pdb
3ftc.pdb
3fu0.pdb
3fu1.pdb
3fuc.pdb
3fuz.pdb
3fv3.pdb
3fvh.pdb
3fvp.pdb
3fvq.pdb
3fw1.pdb
3fwp.pdb
3fx5.pdb
3fxs.pdb
3fyh.pdb
3fyo.pdb
3g03.pdb
3g0s.pdb
3g15.pdb
3g1b.pdb
3g25.pdb
3g2g.pdb
3g30.pdb
3g31.pdb
3g32.pdb
3g34.pdb
3g3f.pdb
3g3g.pdb
3g3h.pdb
3g3i.pdb
3g3j.pdb
3g3k.pdb
3g3p.pdb
3g46.pdb
3g4z.pdb
3g5t.pdb
3g8f.pdb
3gct.pdb
3ggh.pdb
3ghr.pdb
3ghs.pdb
3ght.pdb
3ghu.pdb
3ghw.pdb
3gkv.pdb
3gky.pdb
3gm6.pdb
3gn2.pdb
3gn9.pdb
3goe.pdb
3gp6.pdb
3gq1.pdb
3gqy.pdb
3gr4.pdb
3grs.pdb
3gs2.pdb
3gsp.pdb
3gv9.pdb
3gvf.pdb
3gwk.pdb
3gwm.pdb
3gxk.pdb
3gxr.pdb
3gy2.pdb
3gy4.pdb
3gy5.pdb
3gy6.pdb
3gy7.pdb
3gy8.pdb
3gzg.pdb
3gzq.pdb
3gzx.pdb
3h0p.pdb
3h1w.pdb
3h1x.pdb
3h2p.pdb
3h2q.pdb
3h5b.pdb
3h6a.pdb
3h6c.pdb
3h6o.pdb
3h7b.pdb
3h7c.pdb
3h7p.pdb
3h8h.pdb
3hb2.pdb
3hbg.pdb
3hbu.pdb
3hbv.pdb
3hc9.pdb
3hen.pdb
3heo.pdb
3hep.pdb
3heu.pdb
3hey.pdb
3hez.pdb
3hfk.pdb
3hfy.pdb
3hgp.pdb
3hjb.pdb
3hkn.pdb
3hko.pdb
3hl8.pdb
3hmq.pdb
3ho6.pdb
3hqn.pdb
3hre.pdb
3hs4.pdb
3hsg.pdb
3hsh.pdb
3hsj.pdb
3hsv.pdb
3huo.pdb
3hup.pdb
3hvf.pdb
3hxc.pdb
3hxe.pdb
3hyw.pdb
3hza.pdb
3hzd.pdb
3i07.pdb
3i11.pdb
3i13.pdb
3i14.pdb
3i39.pdb
3i3f.pdb
3i44.pdb
3i5w.pdb
3i6o.pdb
3i7q.pdb
3i8w.pdb
3i94.pdb
3i98.pdb
3iah.pdb
3ib4.pdb
3ic0.pdb
3ics.pdb
3idb.pdb
3ids.pdb
3ife.pdb
3ifs.pdb
3iij.pdb
3iik.pdb
3iil.pdb
3iim.pdb
3iis.pdb
3iiu.pdb
3iix.pdb
3ij3.pdb
3ij5.pdb
3ik8.pdb
3ikd.pdb
3ikw.pdb
3ilg.pdb
3ill.pdb
3ilr.pdb
3inc.pdb
3iof.pdb
3iog.pdb
3ioh.pdb
3ioq.pdb
3ip0.pdb
3iq3.pdb
3iq7.pdb
3iqe.pdb
3iqu.pdb
3ir4.pdb
3itb.pdb
3ite.pdb
3iti.pdb
3ivz.pdb
3iwo.pdb
3iwq.pdb
3iwt.pdb
3iwy.pdb
3ixb.pdb
3ixf.pdb
3ixq.pdb
3jpz.pdb
3jqf.pdb
3js1.pdb
3jtm.pdb
3jum.pdb
3jw1.pdb
3jyz.pdb
3jze.pdb
3k03.pdb
3k04.pdb
3k06.pdb
3k08.pdb
3k0d.pdb
3k0g.pdb
3k0m.pdb
3k0n.pdb
3k0o.pdb
3k0p.pdb
3k1e.pdb
3k21.pdb
3k34.pdb
3k3i.pdb
3k3u.pdb
3k45.pdb
3k6d.pdb
3k6o.pdb
3k79.pdb
3k7z.pdb
3k8y.pdb
3k91.pdb
3k9n.pdb
3k9s.pdb
3kal.pdb
3kam.pdb
3kbb.pdb
3kgd.pdb
3kgf.pdb
3kjm.pdb
3kjr.pdb
3klc.pdb
3klr.pdb
3kmb.pdb
3kmn.pdb
3kne.pdb
3knr.pdb
3kns.pdb
3kq6.pdb
3kqf.pdb
3kqr.pdb
3kr4.pdb
3kuo.pdb
3kup.pdb
3kwz.pdb
3kyu.pdb
3kyv.pdb
3kyw.pdb
3l07.pdb
3l15.pdb
3l27.pdb
3l2m.pdb
3l2x.pdb
3l3r.pdb
3l4e.pdb
3l4p.pdb
3l50.pdb
3l5l.pdb
3l5m.pdb
3l65.pdb
3l66.pdb
3l77.pdb
3l7t.pdb
3l8d.pdb
3l8h.pdb
3l8w.pdb
3l8z.pdb
3l9g.pdb
3lae.pdb
3lat.pdb
3lb1.pdb
3lb3.pdb
3lb4.pdb
3lbh.pdb
3lbn.pdb
3lbo.pdb
3lcn.pdb
3ldc.pdb
3ldd.pdb
3let.pdb
3lex.pdb
3lgb.pdb
3lgi.pdb
3lgl.pdb
3lgr.pdb
3lil.pdb
3lim.pdb
3liz.pdb
3lkt.pdb
3lky.pdb
3ll1.pdb
3ll2.pdb
3llp.pdb
3llu.pdb
3ln8.pdb
3lnl.pdb
3lny.pdb
3lo1.pdb
3lo8.pdb
3loj.pdb
3lq2.pdb
3lq4.pdb
3lqb.pdb
3lqf.pdb
3ls7.pdb
3lv0.pdb
3lva.pdb
3lvd.pdb
3lw0.pdb
3lwk.pdb
3lxo.pdb
3lxv.pdb
3lzy.pdb
3m0u.pdb
3m1v.pdb
3m23.pdb
3m25.pdb
3m26.pdb
3m27.pdb
3m28.pdb
3m29.pdb
3m2a.pdb
3m2b.pdb
3m2c.pdb
3m2d.pdb
3m2e.pdb
3m2f.pdb
3m2g.pdb
3m2h.pdb
3m2i.pdb
3m2j.pdb
3m2v.pdb
3m3h.pdb
3m4h.pdb
3m4z.pdb
3m6y.pdb
3m7q.pdb
3m7t.pdb
3m7u.pdb
3m86.pdb
3m88.pdb
3m8u.pdb
3m9k.pdb
3mbx.pdb
3mcw.pdb
3mds.pdb
3me3.pdb
3mfj.pdb
3mfl.pdb
3mgn.pdb
3mhr.pdb
3mhu.pdb
3mhy.pdb
3mi1.pdb
3mi4.pdb
3mi5.pdb
3ml2.pdb
3mm5.pdb
3mm6.pdb
3mm7.pdb
3mmf.pdb
3mmh.pdb
3mmo.pdb
3mna.pdb
3mnb.pdb
3mnc.pdb
3mng.pdb
3mnm.pdb
3mns.pdb
3mnu.pdb
3mnx.pdb
3mo3.pdb
3mo6.pdb
3mo9.pdb
3moc.pdb
3moe.pdb
3mof.pdb
3mou.pdb
3moy.pdb
3moz.pdb
3mqw.pdb
3ms3.pdb
3msa.pdb
3msn.pdb
3mth.pdb
3mty.pdb
3mu0.pdb
3mu1.pdb
3mu4.pdb
3mu5.pdb
3mu8.pdb
3mui.pdb
3mv4.pdb
3mv6.pdb
3mwo.pdb
3mwq.pdb
3mxf.pdb
3myq.pdb
3myt.pdb
3mzc.pdb
3n08.pdb
3n0h.pdb
3n0i.pdb
3n0n.pdb
3n0u.pdb
3n0y.pdb
3n0z.pdb
3n10.pdb
3n12.pdb
3n19.pdb
3n1f.pdb
3n1m.pdb
3n21.pdb
3n2j.pdb
3n2p.pdb
3n2v.pdb
3n2w.pdb
3n32.pdb
3n3g.pdb
3n3j.pdb
3n4b.pdb
3n4c.pdb
3n5a.pdb
3n61.pdb
3n7u.pdb
3n9a.pdb
3n9i.pdb
3n9j.pdb
3n9r.pdb
3n9s.pdb
3na5.pdb
3na9.pdb
3naq.pdb
3nbc.pdb
3nbr.pdb
3ncj.pdb
3ncl.pdb
3nds.pdb
3ndx.pdb
3neq.pdb
3nf0.pdb
3ng4.pdb
3ngj.pdb
3ngs.pdb
3nhx.pdb
3ni0.pdb
3nir.pdb
3njx.pdb
3nk4.pdb
3nk8.pdb
3nkk.pdb
3nl7.pdb
3nm2.pdb
3nml.pdb
3nmm.pdb
3no0.pdb
3noi.pdb
3nq3.pdb
3nq9.pdb
3nr6.pdb
3nrs.pdb
3nsd.pdb
3nsk.pdb
3nso.pdb
3ntc.pdb
3ntz.pdb
3nu0.pdb
3nu3.pdb
3nu5.pdb
3nu6.pdb
3nu9.pdb
3nuj.pdb
3nuo.pdb
3nuv.pdb
3nv0.pdb
3nv1.pdb
3nv3.pdb
3nv4.pdb
3nvd.pdb
3nvs.pdb
3nwb.pdb
3nwe.pdb
3nwn.pdb
3nx9.pdb
3nxo.pdb
3nxr.pdb
3nzc.pdb
3nzl.pdb
3nzt.pdb
3o08.pdb
3o1f.pdb
3o1g.pdb
3o1n.pdb
3o1w.pdb
3o1x.pdb
3o1y.pdb
3o2h.pdb
3o35.pdb
3o36.pdb
3o3m.pdb
3o3r.pdb
3o3x.pdb
3o3y.pdb
3o4p.pdb
3o4w.pdb
3o5b.pdb
3o6g.pdb
3o6i.pdb
3o6w.pdb
3o76.pdb
3o79.pdb
3o7n.pdb
3o85.pdb
3o86.pdb
3o8m.pdb
3o8q.pdb
3oaf.pdb
3od3.pdb
3od9.pdb
3odd.pdb
3odf.pdb
3odv.pdb
3oep.pdb
3oex.pdb
3of7.pdb
3off.pdb
3ofg.pdb
3oga.pdb
3ogb.pdb
3oii.pdb
3oik.pdb
3oim.pdb
3oiu.pdb
3oiv.pdb
3oiw.pdb
3ok0.pdb
3ok5.pdb
3ok9.pdb
3olv.pdb
3om0.pdb
3om1.pdb
3omy.pdb
3ond.pdb
3one.pdb
3oni.pdb
3onr.pdb
3onu.pdb
3ony.pdb
3oo4.pdb
3oob.pdb
3oom.pdb
3op8.pdb
3oq2.pdb
3oq6.pdb
3osh.pdb
3ot3.pdb
3ot8.pdb
3otm.pdb
3oty.pdb
3otz.pdb
3ou1.pdb
3ou3.pdb
3ou4.pdb
3ou9.pdb
3oua.pdb
3oub.pdb
3ouc.pdb
3oud.pdb
3ouf.pdb
3oup.pdb
3ous.pdb
3ov4.pdb
3ov5.pdb
3ovl.pdb
3ovx.pdb
3ow5.pdb
3oxp.pdb
3oy0.pdb
3oy1.pdb
3oyq.pdb
3oyv.pdb
3p0t.pdb
3p1o.pdb
3p1p.pdb
3p1q.pdb
3p1r.pdb
3p1s.pdb
3p2v.pdb
3p2x.pdb
3p3c.pdb
3p3e.pdb
3p3g.pdb
3p3h.pdb
3p3o.pdb
3p42.pdb
3p4h.pdb
3p4t.pdb
3p58.pdb
3p5u.pdb
3p5v.pdb
3p64.pdb
3p81.pdb
3p8g.pdb
3p92.pdb
3p95.pdb
3p9c.pdb
3p9i.pdb
3pa3.pdb
3pa6.pdb
3pa9.pdb
3paa.pdb
3pb2.pdb
3pbf.pdb
3pbz.pdb
3pc6.pdb
3pcw.pdb
3pd7.pdb
3pe6.pdb
3pf7.pdb
3pfj.pdb
3pfx.pdb
3pfz.pdb
3phl.pdb
3phn.pdb
3pib.pdb
3pid.pdb
3pjb.pdb
3pjl.pdb
3pjn.pdb
3pl3.pdb
3pln.pdb
3plr.pdb
3plv.pdb
3pm3.pdb
3pm4.pdb
3pmj.pdb
3pmv.pdb
3pmx.pdb
3po6.pdb
3pof.pdb
3poi.pdb
3poj.pdb
3pq2.pdb
3pq3.pdb
3pq4.pdb
3pq5.pdb
3pq6.pdb
3pq7.pdb
3pq8.pdb
3prs.pdb
3ps1.pdb
3psy.pdb
3ptn.pdb
3pu7.pdb
3puc.pdb
3pvj.pdb
3pwc.pdb
3pwm.pdb
3pwr.pdb
3pxl.pdb
3pyp.pdb
3pza.pdb
3pzg.pdb
3pzo.pdb
3pzw.pdb
3q07.pdb
3q18.pdb
3q19.pdb
3q1e.pdb
3q1f.pdb
3q25.pdb
3q26.pdb
3q4p.pdb
3q4s.pdb
3q4u.pdb
3q6d.pdb
3q6x.pdb
3q85.pdb
3q8i.pdb
3q8j.pdb
3q93.pdb
3qaa.pdb
3qd5.pdb
3qda.pdb
3qe8.pdb
3qfd.pdb
3qgj.pdb
3qgo.pdb
3qgz.pdb
3qjd.pdb
3qje.pdb
3qjx.pdb
3qkz.pdb
3qm1.pdb
3qm3.pdb
3qm7.pdb
3qm9.pdb
3qma.pdb
3qmp.pdb
3qn6.pdb
3qng.pdb
3qp0.pdb
3qpa.pdb
3qpc.pdb
3qpg.pdb
3qpk.pdb
3qpq.pdb
3qpx.pdb
3qq9.pdb
3qqd.pdb
3qr7.pdb
3qrm.pdb
3qro.pdb
3qs2.pdb
3qsd.pdb
3qtp.pdb
3qu1.pdb
3quc.pdb
3qut.pdb
3qvd.pdb
3qvs.pdb
3qvt.pdb
3qvw.pdb
3qvx.pdb
3qwo.pdb
3qxc.pdb
3qxg.pdb
3qxj.pdb
3qy0.pdb
3qy9.pdb
3qyk.pdb
3qyp.pdb
3qzb.pdb
3qzm.pdb
3qzn.pdb
3qzq.pdb
3qzr.pdb
3qzu.pdb
3r0f.pdb
3r1i.pdb
3r2h.pdb
3r2k.pdb
3r2l.pdb
3r2m.pdb
3r2o.pdb
3r2r.pdb
3r49.pdb
3r4g.pdb
3r56.pdb
3r57.pdb
3r65.pdb
3r72.pdb
3r7b.pdb
3rab.pdb
3rc5.pdb
3rcg.pdb
3rci.pdb
3rck.pdb
3rcl.pdb
3rd5.pdb
3rd9.pdb
3rda.pdb
3rdb.pdb
3rdc.pdb
3rde.pdb
3reu.pdb
3rex.pdb
3rf3.pdb
3rf4.pdb
3rg3.pdb
3rg4.pdb
3rhj.pdb
3rhl.pdb
3rj7.pdb
3rk8.pdb
3rl6.pdb
3rmv.pdb
3rmw.pdb
3rmz.pdb
3rn0.pdb
3rn3.pdb
3rnd.pdb
3rof.pdb
3rpt.pdb
3rq7.pdb
3rro.pdb
3rrs.pdb
3rry.pdb
3rs0.pdb
3rs2.pdb
3rs3.pdb
3rs4.pdb
3rs5.pdb
3rs7.pdb
3rsh.pdb
3rsi.pdb
3rso.pdb
3rsy.pdb
3rt5.pdb
3rto.pdb
3ru4.pdb
3rvk.pdb
3rvl.pdb
3rvo.pdb
3rw8.pdb
3rwb.pdb
3rwp.pdb
3rwv.pdb
3rx4.pdb
3rxj.pdb
3rxw.pdb
3rzi.pdb
3rzs.pdb
3s0c.pdb
3s0k.pdb
3s1u.pdb
3s1v.pdb
3s1w.pdb
3s1x.pdb
3s21.pdb
3s23.pdb
3s3v.pdb
3s42.pdb
3s43.pdb
3s45.pdb
3s4a.pdb
3s4k.pdb
3s53.pdb
3s54.pdb
3s5h.pdb
3s5i.pdb
3s5m.pdb
3s5v.pdb
3s5x.pdb
3s68.pdb
3s75.pdb
3s7k.pdb
3s7o.pdb
3s7p.pdb
3s7q.pdb
3s83.pdb
3s8o.pdb
3s92.pdb
3s95.pdb
3s9e.pdb
3sa0.pdb
3sbn.pdb
3sbq.pdb
3sc0.pdb
3sd4.pdb
3sd6.pdb
3sd7.pdb
3sdw.pdb
3se5.pdb
3se8.pdb
3se9.pdb
3sf6.pdb
3sgq.pdb
3sgw.pdb
3sig.pdb
3sj6.pdb
3sje.pdb
3sk3.pdb
3sk7.pdb
3sk9.pdb
3skd.pdb
3slh.pdb
3sm1.pdb
3sml.pdb
3smm.pdb
3smn.pdb
3smo.pdb
3smr.pdb
3snf.pdb
3so2.pdb
3sol.pdb
3sp3.pdb
3sp4.pdb
3sp8.pdb
3sqr.pdb
3sr0.pdb
3srb.pdb
3src.pdb
3sre.pdb
3sry.pdb
3ss0.pdb
3ss6.pdb
3ss7.pdb
3ss9.pdb
3ssh.pdb
3ssk.pdb
3ssl.pdb
3ssp.pdb
3sst.pdb
3ssv.pdb
3ssy.pdb
3st0.pdb
3st1.pdb
3st5.pdb
3sv5.pdb
3svb.pdb
3svc.pdb
3svd.pdb
3sve.pdb
3swb.pdb
3sxk.pdb
3sxm.pdb
3sxy.pdb
3syu.pdb
3szn.pdb
3szs.pdb
3t08.pdb
3t09.pdb
3t0a.pdb
3t0h.pdb
3t0l.pdb
3t0m.pdb
3t10.pdb
3t1c.pdb
3t1l.pdb
3t1m.pdb
3t2m.pdb
3t2o.pdb
3t2t.pdb
3t42.pdb
3t46.pdb
3t47.pdb
3t48.pdb
3t49.pdb
3t4d.pdb
3t4z.pdb
3t52.pdb
3t63.pdb
3t67.pdb
3t6c.pdb
3t6d.pdb
3t6e.pdb
3t6i.pdb
3t6v.pdb
3t7o.pdb
3t7q.pdb
3t7x.pdb
3t89.pdb
3t8b.pdb
3t94.pdb
3t9g.pdb
3ta5.pdb
3ta7.pdb
3tb4.pdb
3tbn.pdb
3tcu.pdb
3tem.pdb
3tet.pdb
3teu.pdb
3tew.pdb
3tez.pdb
3tf0.pdb
3tfd.pdb
3tfe.pdb
3tff.pdb
3tfg.pdb
3tfi.pdb
3tg2.pdb
3tgp.pdb
3tgw.pdb
3thu.pdb
3tiv.pdb
3tj4.pdb
3tje.pdb
3tkd.pdb
3tkf.pdb
3tkg.pdb
3tkw.pdb
3tl9.pdb
3tld.pdb
3tm3.pdb
3tm9.pdb
3tno.pdb
3tof.pdb
3toh.pdb
3tow.pdb
3toy.pdb
3tpx.pdb
3tq0.pdb
3tq2.pdb
3tqd.pdb
3tqw.pdb
3tr0.pdb
3trd.pdb
3trg.pdb
3trv.pdb
3tut.pdb
3tv3.pdb
3tw1.pdb
3tw9.pdb
3twc.pdb
3tx9.pdb
3txb.pdb
3txi.pdb
3tyi.pdb
3tyt.pdb
3tzk.pdb
3u00.pdb
3u01.pdb
3u09.pdb
3u1u.pdb
3u2s.pdb
3u2u.pdb
3u2v.pdb
3u2w.pdb
3u3e.pdb
3u3h.pdb
3u3z.pdb
3u65.pdb
3u69.pdb
3u6t.pdb
3u6u.pdb
3u79.pdb
3u7a.pdb
3u7e.pdb
3u7q.pdb
3u7z.pdb
3u81.pdb
3u8d.pdb
3u8e.pdb
3u8f.pdb
3u8g.pdb
3u8i.pdb
3u8o.pdb
3u8r.pdb
3u92.pdb
3u93.pdb
3u94.pdb
3u97.pdb
3u99.pdb
3uam.pdb
3uan.pdb
3ubd.pdb
3ucb.pdb
3uce.pdb
3ucj.pdb
3uev.pdb
3uf0.pdb
3uf3.pdb
3ufa.pdb
3ufl.pdb
3uh0.pdb
3ui4.pdb
3ui5.pdb
3ui6.pdb
3uko.pdb
3ul4.pdb
3ult.pdb
3unq.pdb
3unr.pdb
3unx.pdb
3uo8.pdb
3uoa.pdb
3uop.pdb
3upb.pdb
3uq8.pdb
3uqy.pdb
3ur4.pdb
3urc.pdb
3urd.pdb
3ure.pdb
3usc.pdb
3use.pdb
3uvt.pdb
3uw1.pdb
3uwd.pdb
3uwi.pdb
3ux0.pdb
3ux2.pdb
3ux3.pdb
3uyr.pdb
3uzr.pdb
3uzu.pdb
3v0s.pdb
3v12.pdb
3v13.pdb
3v14.pdb
3v19.pdb
3v1a.pdb
3v1b.pdb
3v1c.pdb
3v1d.pdb
3v1e.pdb
3v1f.pdb
3v1m.pdb
3v1n.pdb
3v1v.pdb
3v1x.pdb
3v2j.pdb
3v2m.pdb
3v3b.pdb
3v3f.pdb
3v3g.pdb
3v3h.pdb
3v3i.pdb
3v3j.pdb
3v3w.pdb
3v46.pdb
3v4b.pdb
3v4f.pdb
3v4x.pdb
3v5x.pdb
3v9c.pdb
3v9e.pdb
3v9l.pdb
3vaa.pdb
3vay.pdb
3vbd.pdb
3vcl.pdb
3vd4.pdb
3ven.pdb
3vf5.pdb
3vf7.pdb
3vfa.pdb
3vfb.pdb
3vfl.pdb
3vg5.pdb
3vgx.pdb
3vhs.pdb
3vie.pdb
3vln.pdb
3vmy.pdb
3vpq.pdb
3vrc.pdb
3vsn.pdb
3vtp.pdb
3vtq.pdb
3vu9.pdb
3vur.pdb
3vux.pdb
3vwd.pdb
3vzl.pdb
3vzm.pdb
3vzo.pdb
3w07.pdb
3w19.pdb
3w21.pdb
3w42.pdb
3w43.pdb
3w45.pdb
3w4s.pdb
3w5h.pdb
3w6a.pdb
3w6s.pdb
3w7y.pdb
3w7z.pdb
3w80.pdb
3w8d.pdb
3w8e.pdb
3w8f.pdb
3w95.pdb
3wa2.pdb
3wa3.pdb
3wae.pdb
3wc8.pdb
3wcq.pdb
3wcz.pdb
3weo.pdb
3wft.pdb
3wge.pdb
3wh0.pdb
3wjc.pdb
3wjr.pdb
3wjt.pdb
3wl3.pdb
3wl4.pdb
3wlv.pdb
3wmz.pdb
3wou.pdb
3wpk.pdb
3wpl.pdb
3wqc.pdb
3wqd.pdb
3wqe.pdb
3wqg.pdb
3wrh.pdb
3wrj.pdb
3wrl.pdb
3wrm.pdb
3wsf.pdb
3wu7.pdb
3wu8.pdb
3wu9.pdb
3wua.pdb
3wui.pdb
3wux.pdb
3wvc.pdb
3wvm.pdb
3ww2.pdb
3wwx.pdb
3wx8.pdb
3wz6.pdb
3x0e.pdb
3x0f.pdb
3x0g.pdb
3x2g.pdb
3x2h.pdb
3x2j.pdb
3x2k.pdb
3x2l.pdb
3x2m.pdb
3x2n.pdb
3x32.pdb
3x33.pdb
3x34.pdb
3x35.pdb
3x3z.pdb
3zcc.pdb
3zds.pdb
3ze6.pdb
3ze9.pdb
3zea.pdb
3zfk.pdb
3zfp.pdb
3zfr.pdb
3zg1.pdb
3zgd.pdb
3zgo.pdb
3zh5.pdb
3zhi.pdb
3zhn.pdb
3zi8.pdb
3ziw.pdb
3zix.pdb
3ziy.pdb
3zjg.pdb
3zjp.pdb
3zk4.pdb
3zk7.pdb
3zk8.pdb
3zk9.pdb
3zka.pdb
3zky.pdb
3zl2.pdb
3zlb.pdb
3zmo.pdb
3zn6.pdb
3znu.pdb
3zoj.pdb
3zoo.pdb
3zp9.pdb
3zqk.pdb
3zqr.pdb
3zqv.pdb
3zqw.pdb
3zqy.pdb
3zr8.pdb
3zsk.pdb
3zt9.pdb
3zto.pdb
3ztp.pdb
3zu1.pdb
3zu8.pdb
3zuc.pdb
3zvs.pdb
3zw1.pdb
3zw2.pdb
3zw5.pdb
3zws.pdb
3zwt.pdb
3zxh.pdb
3zxl.pdb
3zy0.pdb
3zy7.pdb
3zzk.pdb
3zzq.pdb
3zzr.pdb
4a07.pdb
4a1i.pdb
4a1u.pdb
4a22.pdb
4a2e.pdb
4a2o.pdb
4a2r.pdb
4a2y.pdb
4a30.pdb
4a47.pdb
4a61.pdb
4a6r.pdb
4a7d.pdb
4a7e.pdb
4a7g.pdb
4a7q.pdb
4a7s.pdb
4a7t.pdb
4a7u.pdb
4a7v.pdb
4a84.pdb
4a88.pdb
4a8t.pdb
4a8x.pdb
4a8z.pdb
4a90.pdb
4a94.pdb
4a9v.pdb
4a9x.pdb
4aa8.pdb
4ab0.pdb
4ab8.pdb
4ab9.pdb
4aba.pdb
4abb.pdb
4abd.pdb
4abe.pdb
4abf.pdb
4abg.pdb
4abh.pdb
4abi.pdb
4abq.pdb
4abu.pdb
4abv.pdb
4abw.pdb
4ac2.pdb
4ac7.pdb
4acj.pdb
4acu.pdb
4acx.pdb
4adi.pdb
4adz.pdb
4afq.pdb
4afs.pdb
4ag1.pdb
4ag2.pdb
4ag3.pdb
4aga.pdb
4ahw.pdb
4ahx.pdb
4ahy.pdb
4ahz.pdb
4ai0.pdb
4ai1.pdb
4ai2.pdb
4ai3.pdb
4ai4.pdb
4ai7.pdb
4aiw.pdb
4aj1.pdb
4aj3.pdb
4aj4.pdb
4aja.pdb
4ajb.pdb
4ajh.pdb
4aji.pdb
4ajj.pdb
4ajl.pdb
4ajo.pdb
4ajs.pdb
4ajx.pdb
4ajz.pdb
4akb.pdb
4akn.pdb
4al4.pdb
4alc.pdb
4ale.pdb
4alf.pdb
4alq.pdb
4als.pdb
4alt.pdb
4alz.pdb
4am2.pdb
4am4.pdb
4amf.pdb
4ao1.pdb
4ao7.pdb
4aop.pdb
4aq6.pdb
4ar5.pdb
4ar6.pdb
4aro.pdb
4ars.pdb
4aru.pdb
4arv.pdb
4as4.pdb
4ask.pdb
4atf.pdb
4au1.pdb
4auc.pdb
4aul.pdb
4aum.pdb
4aun.pdb
4auu.pdb
4auv.pdb
4av4.pdb
4av5.pdb
4avo.pdb
4avv.pdb
4aw0.pdb
4aw1.pdb
4aws.pdb
4awt.pdb
4ax2.pdb
4ax7.pdb
4axa.pdb
4axi.pdb
4axj.pdb
4axl.pdb
4axo.pdb
4axq.pdb
4azy.pdb
4b00.pdb
4b05.pdb
4b0z.pdb
4b10.pdb
4b11.pdb
4b14.pdb
4b1a.pdb
4b1c.pdb
4b1d.pdb
4b1e.pdb
4b1r.pdb
4b1u.pdb
4b1x.pdb
4b2y.pdb
4b3b.pdb
4b3d.pdb
4b40.pdb
4b43.pdb
4b49.pdb
4b4i.pdb
4b5k.pdb
4b5o.pdb
4b5p.pdb
4b5s.pdb
4b5t.pdb
4b5u.pdb
4b5w.pdb
4b5x.pdb
4b6g.pdb
4b70.pdb
4b72.pdb
4b77.pdb
4b7a.pdb
4b8j.pdb
4b8y.pdb
4b98.pdb
4b9a.pdb
4b9b.pdb
4b9e.pdb
4b9g.pdb
4b9p.pdb
4ba4.pdb
4ba5.pdb
4bag.pdb
4bal.pdb
4bap.pdb
4bar.pdb
4bau.pdb
4baz.pdb
4bb0.pdb
4bc2.pdb
4bc3.pdb
4bc4.pdb
4bc5.pdb
4bd0.pdb
4beq.pdb
4beu.pdb
4bf5.pdb
4bf7.pdb
4bfa.pdb
4bg9.pdb
4bgb.pdb
4bgu.pdb
4bgv.pdb
4bja.pdb
4bji.pdb
4bjs.pdb
4bjt.pdb
4bk0.pdb
4bk7.pdb
4blk.pdb
4bll.pdb
4bln.pdb
4blx.pdb
4bm1.pdb
4bm2.pdb
4bm3.pdb
4bmn.pdb
4bmw.pdb
4bn4.pdb
4bn6.pdb
4bn7.pdb
4bn8.pdb
4bnb.pdb
4bnd.pdb
4bnr.pdb
4bol.pdb
4bow.pdb
4bpf.pdb
4bph.pdb
4bps.pdb
4bpz.pdb
4bq0.pdb
4bq1.pdb
4bqk.pdb
4bqy.pdb
4br4.pdb
4br7.pdb
4bs0.pdb
4bs5.pdb
4bs6.pdb
4bs7.pdb
4bsp.pdb
4bvm.pdb
4bvo.pdb
4bvp.pdb
4bw7.pdb
4bw8.pdb
4bww.pdb
4bx0.pdb
4bx6.pdb
4by3.pdb
4by8.pdb
4byz.pdb
4bz0.pdb
4bz6.pdb
4bza.pdb
4bzx.pdb
4c03.pdb
4c04.pdb
4c06.pdb
4c07.pdb
4c08.pdb
4c09.pdb
4c0r.pdb
4c0w.pdb
4c1c.pdb
4c1h.pdb
4c1l.pdb
4c1m.pdb
4c1o.pdb
4c1u.pdb
4c37.pdb
4c3s.pdb
4c3t.pdb
4c3w.pdb
4c41.pdb
4c4c.pdb
4c4d.pdb
4c4p.pdb
4c5j.pdb
4c5k.pdb
4c5l.pdb
4c5m.pdb
4c5n.pdb
4c5p.pdb
4c68.pdb
4c6b.pdb
4c6c.pdb
4c6d.pdb
4c6e.pdb
4c6f.pdb
4c6h.pdb
4c6i.pdb
4c6j.pdb
4c6k.pdb
4c6l.pdb
4c6m.pdb
4c6o.pdb
4c6p.pdb
4c6q.pdb
4c6w.pdb
4c6x.pdb
4c6y.pdb
4c7d.pdb
4c7f.pdb
4c7g.pdb
4c7h.pdb
4c7y.pdb
4c7z.pdb
4c80.pdb
4c97.pdb
4c98.pdb
4c9l.pdb
4c9m.pdb
4c9o.pdb
4c9w.pdb
4c9x.pdb
4ca1.pdb
4cbb.pdb
4cbo.pdb
4cbu.pdb
4cc2.pdb
4cc7.pdb
4cdj.pdb
4ce0.pdb
4ce8.pdb
4ceu.pdb
4cex.pdb
4cfq.pdb
4cfr.pdb
4cg1.pdb
4cg2.pdb
4cg3.pdb
4ci9.pdb
4cia.pdb
4cib.pdb
4cjn.pdb
4ck4.pdb
4cl3.pdb
4cla.pdb
4cn9.pdb
4cnb.pdb
4cnp.pdb
4cnv.pdb
4cnx.pdb
4co9.pdb
4coc.pdb
4com.pdb
4cop.pdb
4coq.pdb
4cot.pdb
4cq0.pdb
4cq6.pdb
4cq7.pdb
4cqk.pdb
4cr5.pdb
4cr6.pdb
4cr9.pdb
4crb.pdb
4cre.pdb
4crh.pdb
4cru.pdb
4crw.pdb
4cs3.pdb
4cs4.pdb
4csh.pdb
4csp.pdb
4css.pdb
4cst.pdb
4csz.pdb
4ct1.pdb
4ct2.pdb
4ct3.pdb
4cv1.pdb
4cv4.pdb
4cvu.pdb
4cw2.pdb
4cw3.pdb
4cw4.pdb
4cw6.pdb
4cx9.pdb
4cz5.pdb
4czf.pdb
4czg.pdb
4czh.pdb
4czi.pdb
4czj.pdb
4czn.pdb
4czo.pdb
4czq.pdb
4czx.pdb
4d03.pdb
4d04.pdb
4d05.pdb
4d06.pdb
4d0p.pdb
4d0q.pdb
4d0y.pdb
4d12.pdb
4d1l.pdb
4d1o.pdb
4d1p.pdb
4d1t.pdb
4d1u.pdb
4d1v.pdb
4d1z.pdb
4d2h.pdb
4d40.pdb
4d4y.pdb
4d52.pdb
4d5b.pdb
4d5d.pdb
4d5i.pdb
4d5j.pdb
4d5m.pdb
4d5o.pdb
4d5p.pdb
4d5q.pdb
4d5v.pdb
4d77.pdb
4d79.pdb
4d7a.pdb
4d7c.pdb
4d7n.pdb
4d8b.pdb
4d91.pdb
4d9w.pdb
4d9z.pdb
4db3.pdb
4dbb.pdb
4ddp.pdb
4de8.pdb
4de9.pdb
4den.pdb
4df0.pdb
4df1.pdb
4dfg.pdb
4dfw.pdb
4dg4.pdb
4dgr.pdb
4dh2.pdb
4dhg.pdb
4dhm.pdb
4dhn.pdb
4dho.pdb
4dhp.pdb
4dhq.pdb
4dhr.pdb
4dhs.pdb
4dht.pdb
4dhu.pdb
4di0.pdb
4dik.pdb
4dkk.pdb
4dl9.pdb
4dlq.pdb
4dlr.pdb
4dls.pdb
4dlt.pdb
4dlu.pdb
4dlv.pdb
4dlw.pdb
4dlx.pdb
4dly.pdb
4dlz.pdb
4dmd.pdb
4dmi.pdb
4dod.pdb
4doe.pdb
4dor.pdb
4dp1.pdb
4dp4.pdb
4dp7.pdb
4dp8.pdb
4dpe.pdb
4dq5.pdb
4dq7.pdb
4drm.pdb
4drq.pdb
4dui.pdb
4dvc.pdb
4dwm.pdb
4dwn.pdb
4dwu.pdb
4dxk.pdb
4dxz.pdb
4dyq.pdb
4dz4.pdb
4dz7.pdb
4dz9.pdb
4dzo.pdb
4e0c.pdb
4e0k.pdb
4e1l.pdb
4e2x.pdb
4e3g.pdb
4e3i.pdb
4e3j.pdb
4e3k.pdb
4e3l.pdb
4e3m.pdb
4e3n.pdb
4e3o.pdb
4e3y.pdb
4e45.pdb
4e4a.pdb
4e4t.pdb
4e5q.pdb
4e6k.pdb
4e6m.pdb
4e7n.pdb
4e7t.pdb
4e7u.pdb
4e83.pdb
4e91.pdb
4e97.pdb
4e9c.pdb
4ead.pdb
4eaf.pdb
4eb2.pdb
4eb4.pdb
4edi.pdb
4edp.pdb
4edq.pdb
4ee8.pdb
4ee9.pdb
4efi.pdb
4egi.pdb
4egu.pdb
4ehk.pdb
4eht.pdb
4ehu.pdb
4eic.pdb
4eid.pdb
4eie.pdb
4eis.pdb
4eiy.pdb
4ej1.pdb
4ejd.pdb
4ekf.pdb
4ekp.pdb
4ekq.pdb
4ekr.pdb
4eks.pdb
4el6.pdb
4el9.pdb
4em3.pdb
4em4.pdb
4emf.pdb
4emi.pdb
4eo3.pdb
4eof.pdb
4eqb.pdb
4eqe.pdb
4eqg.pdb
4eqh.pdb
4equ.pdb
4eqw.pdb
4erc.pdb
4es1.pdb
4es2.pdb
4esp.pdb
4esq.pdb
4esr.pdb
4etn.pdb
4eun.pdb
4evy.pdb
4evz.pdb
4ew9.pdb
4exh.pdb
4exl.pdb
4eyn.pdb
4eyr.pdb
4eyv.pdb
4ez8.pdb
4f0b.pdb
4f0c.pdb
4f0z.pdb
4f18.pdb
4f19.pdb
4f1a.pdb
4f1d.pdb
4f1u.pdb
4f1v.pdb
4f2e.pdb
4f2f.pdb
4f2i.pdb
4f2k.pdb
4f33.pdb
4f4r.pdb
4f4t.pdb
4f55.pdb
4f5l.pdb
4f68.pdb
4f69.pdb
4f6f.pdb
4f6h.pdb
4f6j.pdb
4f6t.pdb
4f75.pdb
4f76.pdb
4f7i.pdb
4f8d.pdb
4f8l.pdb
4f8o.pdb
4f8x.pdb
4f9t.pdb
4fa5.pdb
4fat.pdb
4fb2.pdb
4fbv.pdb
4fcf.pdb
4fdz.pdb
4fe6.pdb
4fev.pdb
4fgj.pdb
4fgk.pdb
4fgl.pdb
4fgx.pdb
4fgz.pdb
4fh0.pdb
4fh2.pdb
4fh4.pdb
4fh6.pdb
4fh7.pdb
4fhd.pdb
4fhe.pdb
4fhg.pdb
4fi4.pdb
4fik.pdb
4fiz.pdb
4fk7.pdb
4fk9.pdb
4fka.pdb
4fkb.pdb
4fkg.pdb
4fkl.pdb
4fks.pdb
4fkt.pdb
4fku.pdb
4fkv.pdb
4fl5.pdb
4fl7.pdb
4fl8.pdb
4fl9.pdb
4flg.pdb
4fm6.pdb
4fmh.pdb
4fmi.pdb
4fml.pdb
4fmx.pdb
4fok.pdb
4fon.pdb
4fp1.pdb
4fqo.pdb
4fr3.pdb
4fra.pdb
4frb.pdb
4frc.pdb
4frd.pdb
4fre.pdb
4frh.pdb
4frl.pdb
4frm.pdb
4fro.pdb
4frp.pdb
4fru.pdb
4frv.pdb
4fs3.pdb
4fu3.pdb
4fu9.pdb
4fuc.pdb
4fuh.pdb
4fvx.pdb
4fw5.pdb
4fw6.pdb
4fxl.pdb
4fz9.pdb
4g0y.pdb
4g10.pdb
4g13.pdb
4g14.pdb
4g1q.pdb
4g1x.pdb
4g27.pdb
4g28.pdb
4g2e.pdb
4g3v.pdb
4g44.pdb
4g45.pdb
4g46.pdb
4g47.pdb
4g48.pdb
4g4c.pdb
4g4h.pdb
4g4p.pdb
4g9f.pdb
4g9p.pdb
4g9s.pdb
4ga0.pdb
4ga2.pdb
4gac.pdb
4gbc.pdb
4gbn.pdb
4gbo.pdb
4gbu.pdb
4gcb.pdb
4gcc.pdb
4gd9.pdb
4gda.pdb
4gdi.pdb
4gdj.pdb
4gdo.pdb
4gdx.pdb
4ge8.pdb
4ged.pdb
4gev.pdb
4ggc.pdb
4ggh.pdb
4ggq.pdb
4gh0.pdb
4ghi.pdb
4gje.pdb
4gjf.pdb
4gjg.pdb
4gjy.pdb
4gjz.pdb
4gkb.pdb
4gl4.pdb
4glj.pdb
4glo.pdb
4gmi.pdb
4gmu.pdb
4gmw.pdb
4gn5.pdb
4gn7.pdb
4gn8.pdb
4gn9.pdb
4gna.pdb
4gnc.pdb
4gnl.pdb
4gnm.pdb
4gnp.pdb
4gnq.pdb
4gnr.pdb
4gnw.pdb
4goe.pdb
4gof.pdb
4gph.pdb
4gql.pdb
4gqq.pdb
4gqr.pdb
4gr7.pdb
4gr8.pdb
4grj.pdb
4grq.pdb
4gs9.pdb
4gsp.pdb
4gu2.pdb
4gue.pdb
4gui.pdb
4guj.pdb
4guw.pdb
4gvu.pdb
4gxm.pdb
4gyx.pdb
4gzg.pdb
4h07.pdb
4h11.pdb
4h15.pdb
4h16.pdb
4h19.pdb
4h1t.pdb
4h1y.pdb
4h2c.pdb
4h2h.pdb
4h30.pdb
4h35.pdb
4h3l.pdb
4h3n.pdb
4h41.pdb
4h4i.pdb
4h4n.pdb
4h69.pdb
4h6b.pdb
4h6c.pdb
4h76.pdb
4h7p.pdb
4h87.pdb
4h8x.pdb
4h9g.pdb
4ha3.pdb
4ha4.pdb
4hba.pdb
4hbq.pdb
4hbu.pdb
4hc4.pdb
4hc6.pdb
4hd9.pdb
4hdb.pdb
4hdf.pdb
4hdp.pdb
4he6.pdb
4he7.pdb
4hew.pdb
4hey.pdb
4hez.pdb
4hf3.pdb
4hg7.pdb
4hg9.pdb
4hgc.pdb
4hgu.pdb
4hgw.pdb
4hi1.pdb
4hi8.pdb
4hi9.pdb
4hjb.pdb
4hjd.pdb
4hjm.pdb
4hk8.pdb
4hkl.pdb
4hko.pdb
4hky.pdb
4hl2.pdb
4hls.pdb
4hms.pdb
4hmt.pdb
4hmu.pdb
4hmv.pdb
4hmw.pdb
4hmx.pdb
4hnc.pdb
4hnl.pdb
4hno.pdb
4hoa.pdb
4hp2.pdb
4hpc.pdb
4hqs.pdb
4hr0.pdb
4hr2.pdb
4hr4.pdb
4hrq.pdb
4hs1.pdb
4hsf.pdb
4hsw.pdb
4hsx.pdb
4ht3.pdb
4hta.pdb
4htk.pdb
4htn.pdb
4htq.pdb
4htr.pdb
4hu9.pdb
4hvf.pdb
4hvu.pdb
4hvv.pdb
4hvw.pdb
4hw4.pdb
4hxj.pdb
4hyi.pdb
4hzo.pdb
4hzv.pdb
4hzw.pdb
4hzz.pdb
4i00.pdb
4i03.pdb
4i07.pdb
4i0c.pdb
4i0x.pdb
4i13.pdb
4i1f.pdb
4i1h.pdb
4i1i.pdb
4i1n.pdb
4i2l.pdb
4i2t.pdb
4i2u.pdb
4i35.pdb
4i3b.pdb
4i3c.pdb
4i45.pdb
4i4t.pdb
4i4u.pdb
4i4v.pdb
4i4z.pdb
4i6s.pdb
4i71.pdb
4i74.pdb
4i75.pdb
4i7j.pdb
4i7k.pdb
4i7l.pdb
4i7m.pdb
4i7n.pdb
4i7o.pdb
4i7p.pdb
4i7q.pdb
4i7r.pdb
4i7s.pdb
4i7t.pdb
4i7v.pdb
4i8g.pdb
4i8h.pdb
4i8j.pdb
4i8k.pdb
4i8l.pdb
4i9y.pdb
4ia6.pdb
4ia9.pdb
4ibd.pdb
4ibl.pdb
4icl.pdb
4icv.pdb
4icz.pdb
4id4.pdb
4ida.pdb
4if7.pdb
4ifa.pdb
4ifu.pdb
4ifz.pdb
4ig1.pdb
4igh.pdb
4igi.pdb
4igs.pdb
4igv.pdb
4ihc.pdb
4ihj.pdb
4ihk.pdb
4ii8.pdb
4iil.pdb
4ije.pdb
4ijh.pdb
4ijq.pdb
4ikc.pdb
4ikw.pdb
4ilz.pdb
4ima.pdb
4imh.pdb
4ins.pdb
4io1.pdb
4io2.pdb
4io3.pdb
4io4.pdb
4io5.pdb
4io6.pdb
4io7.pdb
4ip0.pdb
4ipc.pdb
4ipd.pdb
4ipg.pdb
4ipm.pdb
4iq9.pdb
4iqg.pdb
4iqh.pdb
4irw.pdb
4is0.pdb
4isk.pdb
4ito.pdb
4iu6.pdb
4iub.pdb
4iuc.pdb
4ium.pdb
4ivn.pdb
4iwz.pdb
4iy6.pdb
4iyd.pdb
4iyf.pdb
4izg.pdb
4izs.pdb
4izt.pdb
4izu.pdb
4izw.pdb
4j0d.pdb
4j1a.pdb
4j1b.pdb
4j1o.pdb
4j2m.pdb
4j35.pdb
4j37.pdb
4j4z.pdb
4j54.pdb
4j55.pdb
4j58.pdb
4j5a.pdb
4j5c.pdb
4j5d.pdb
4j5e.pdb
4j5g.pdb
4j5j.pdb
4j5k.pdb
4j5q.pdb
4j5r.pdb
4j5s.pdb
4j6c.pdb
4j6r.pdb
4j6w.pdb
4j7v.pdb
4j8m.pdb
4j8s.pdb
4j9c.pdb
4j9d.pdb
4j9e.pdb
4j9f.pdb
4j9g.pdb
4j9h.pdb
4ja1.pdb
4jac.pdb
4jam.pdb
4jb7.pdb
4jbd.pdb
4jbe.pdb
4jc1.pdb
4jci.pdb
4jcp.pdb
4jd0.pdb
4jd7.pdb
4jed.pdb
4jej.pdb
4jf5.pdb
4jf8.pdb
4jfm.pdb
4jfp.pdb
4jfz.pdb
4jg0.pdb
4jg1.pdb
4jhc.pdb
4jhu.pdb
4jhv.pdb
4jik.pdb
4jiu.pdb
4jix.pdb
4jjb.pdb
4jjc.pdb
4jjd.pdb
4jji.pdb
4jjo.pdb
4jk5.pdb
4jk7.pdb
4jk8.pdb
4jka.pdb
4jkb.pdb
4jkc.pdb
4jkn.pdb
4jl5.pdb
4jm3.pdb
4jm5.pdb
4jm6.pdb
4jm8.pdb
4jm9.pdb
4jmc.pdb
4jmd.pdb
4jme.pdb
4jn7.pdb
4jn8.pdb
4jnk.pdb
4jnu.pdb
4jnv.pdb
4jo5.pdb
4jo7.pdb
4jpd.pdb
4jpl.pdb
4jpm.pdb
4jpr.pdb
4jpt.pdb
4jpu.pdb
4jqj.pdb
4jqk.pdb
4jqm.pdb
4jqn.pdb
4jqp.pdb
4jrm.pdb
4js0.pdb
4js3.pdb
4js6.pdb
4jsa.pdb
4jse.pdb
4jss.pdb
4jtu.pdb
4juu.pdb
4jvo.pdb
4jxg.pdb
4jxj.pdb
4jxr.pdb
4jy2.pdb
4jyq.pdb
4jyu.pdb
4jz3.pdb
4jz4.pdb
4jz5.pdb
4jze.pdb
4jzf.pdb
4jzw.pdb
4k0g.pdb
4k0s.pdb
4k0w.pdb
4k0z.pdb
4k13.pdb
4k1q.pdb
4k1t.pdb
4k1w.pdb
4k1x.pdb
4k21.pdb
4k2d.pdb
4k2f.pdb
4k2p.pdb
4k2s.pdb
4k35.pdb
4k3l.pdb
4k41.pdb
4k4b.pdb
4k4c.pdb
4k6g.pdb
4k6h.pdb
4k6k.pdb
4k6o.pdb
4k6t.pdb
4k6u.pdb
4k6v.pdb
4k6w.pdb
4k6x.pdb
4k7g.pdb
4k7l.pdb
4k7m.pdb
4k7o.pdb
4k7t.pdb
4k7v.pdb
4k7x.pdb
4k7y.pdb
4k8d.pdb
4k8e.pdb
4k8h.pdb
4k8l.pdb
4k8m.pdb
4k90.pdb
4k9g.pdb
4k9j.pdb
4ka2.pdb
4kae.pdb
4kaf.pdb
4kav.pdb
4kay.pdb
4kb9.pdb
4kbn.pdb
4kcc.pdb
4kcd.pdb
4kdu.pdb
4kdw.pdb
4kdx.pdb
4ke3.pdb
4ke8.pdb
4kem.pdb
4kep.pdb
4kf1.pdb
4kfr.pdb
4kg6.pdb
4kgi.pdb
4kh7.pdb
4kii.pdb
4kil.pdb
4kjj.pdb
4kjk.pdb
4kjl.pdb
4kl5.pdb
4kl8.pdb
4kl9.pdb
4kmb.pdb
4kmg.pdb
4kmn.pdb
4kmv.pdb
4kmw.pdb
4kmy.pdb
4kn3.pdb
4kn9.pdb
4knz.pdb
4ko1.pdb
4ko2.pdb
4ko3.pdb
4ko4.pdb
4koo.pdb
4kop.pdb
4koq.pdb
4kpi.pdb
4kpt.pdb
4kqp.pdb
4kt3.pdb
4ktf.pdb
4ktk.pdb
4ktl.pdb
4ku2.pdb
4ku3.pdb
4ku4.pdb
4kup.pdb
4kv0.pdb
4kvv.pdb
4kw4.pdb
4kw9.pdb
4kwp.pdb
4kws.pdb
4kxi.pdb
4kxo.pdb
4kxq.pdb
4kz4.pdb
4kz5.pdb
4kz6.pdb
4kz7.pdb
4kz9.pdb
4kza.pdb
4kzb.pdb
4l05.pdb
4l07.pdb
4l12.pdb
4l1l.pdb
4l1q.pdb
4l1x.pdb
4l3h.pdb
4l4h.pdb
4l55.pdb
4l58.pdb
4l5e.pdb
4l5v.pdb
4l5w.pdb
4l6b.pdb
4l6d.pdb
4l6g.pdb
4l77.pdb
4l7x.pdb
4l82.pdb
4l8e.pdb
4l8g.pdb
4l9b.pdb
4l9o.pdb
4l9s.pdb
4l9w.pdb
4la9.pdb
4lap.pdb
4lb0.pdb
4lb3.pdb
4lbm.pdb
4lbn.pdb
4lbs.pdb
4lbt.pdb
4lbw.pdb
4lc1.pdb
4lc8.pdb
4ld1.pdb
4ldc.pdb
4ldj.pdb
4ldm.pdb
4le9.pdb
4lef.pdb
4lfp.pdb
4lfq.pdb
4lfs.pdb
4lfy.pdb
4lgk.pdb
4lgy.pdb
4lgz.pdb
4lh2.pdb
4lhc.pdb
4lhd.pdb
4lhh.pdb
4lhm.pdb
4ljj.pdb
4lk8.pdb
4lls.pdb
4llt.pdb
4lm7.pdb
4lm9.pdb
4lmb.pdb
4lmc.pdb
4lmd.pdb
4lmx.pdb
4ln7.pdb
4lp1.pdb
4lp9.pdb
4lpk.pdb
4lpm.pdb
4lpn.pdb
4lps.pdb
4lsc.pdb
4lsf.pdb
4lt2.pdb
4lt3.pdb
4luc.pdb
4luo.pdb
4luv.pdb
4lv6.pdb
4lvc.pdb
4lx1.pdb
4lx4.pdb
4ly1.pdb
4ly7.pdb
4ly8.pdb
4lyf.pdb
4lyh.pdb
4lyi.pdb
4lzl.pdb
4lzw.pdb
4lzx.pdb
4m1g.pdb
4m1o.pdb
4m1s.pdb
4m1t.pdb
4m1w.pdb
4m1x.pdb
4m1y.pdb
4m21.pdb
4m2r.pdb
4m2u.pdb
4m2v.pdb
4m2w.pdb
4m32.pdb
4m3p.pdb
4m3s.pdb
4m43.pdb
4m4f.pdb
4m4h.pdb
4m4i.pdb
4m4j.pdb
4m4l.pdb
4m4m.pdb
4m4n.pdb
4m53.pdb
4m5q.pdb
4m5r.pdb
4m60.pdb
4m6l.pdb
4m6u.pdb
4m7g.pdb
4m7p.pdb
4m81.pdb
4m8d.pdb
4m9t.pdb
4ma6.pdb
4ma9.pdb
4mab.pdb
4max.pdb
4mb3.pdb
4mb4.pdb
4mb5.pdb
4mbf.pdb
4mbh.pdb
4mbk.pdb
4mbx.pdb
4mby.pdb
4mbz.pdb
4mco.pdb
4mcp.pdb
4mcq.pdb
4mcu.pdb
4mdl.pdb
4me3.pdb
4mes.pdb
4mev.pdb
4mf5.pdb
4mf6.pdb
4mfg.pdb
4mfh.pdb
4mh5.pdb
4mhb.pdb
4mhf.pdb
4mhz.pdb
4mi7.pdb
4mij.pdb
4mik.pdb
4miw.pdb
4mje.pdb
4mjr.pdb
4mk1.pdb
4mk2.pdb
4mk3.pdb
4mk5.pdb
4mkn.pdb
4mko.pdb
4ml1.pdb
4mlt.pdb
4mnc.pdb
4mni.pdb
4mns.pdb
4mnw.pdb
4mo7.pdb
4mpa.pdb
4mqj.pdb
4mrx.pdb
4mso.pdb
4mss.pdb
4msx.pdb
4mtl.pdb
4mtm.pdb
4mtw.pdb
4mu8.pdb
4mum.pdb
4mup.pdb
4muv.pdb
4mv1.pdb
4mv3.pdb
4mv4.pdb
4mv6.pdb
4mv7.pdb
4mv9.pdb
4mvf.pdb
4mwp.pdb
4mx1.pdb
4mx6.pdb
4mxd.pdb
4mxj.pdb
4mxk.pdb
4mxl.pdb
4my6.pdb
4myd.pdb
4myp.pdb
4mzb.pdb
4mzc.pdb
4mzn.pdb
4n0j.pdb
4n0s.pdb
4n0w.pdb
4n0z.pdb
4n11.pdb
4n13.pdb
4n15.pdb
4n16.pdb
4n17.pdb
4n19.pdb
4n1m.pdb
4n1t.pdb
4n1v.pdb
4n2p.pdb
4n4e.pdb
4n5p.pdb
4n5u.pdb
4n65.pdb
4n66.pdb
4n6d.pdb
4n6k.pdb
4n6x.pdb
4n73.pdb
4n7a.pdb
4n7f.pdb
4n7h.pdb
4n8g.pdb
4n8k.pdb
4n8t.pdb
4n8y.pdb
4n8z.pdb
4n91.pdb
4n96.pdb
4n9q.pdb
4n9r.pdb
4n9s.pdb
4n9v.pdb
4nae.pdb
4naf.pdb
4nag.pdb
4nbt.pdb
4nbu.pdb
4nbv.pdb
4nbw.pdb
4ncj.pdb
4nck.pdb
4ncy.pdb
4ndo.pdb
4ndp.pdb
4ndq.pdb
4ndr.pdb
4nds.pdb
4ndt.pdb
4neb.pdb
4nfl.pdb
4nfs.pdb
4nfv.pdb
4ng1.pdb
4ng3.pdb
4ng5.pdb
4ng8.pdb
4ngi.pdb
4ngj.pdb
4ngk.pdb
4ngl.pdb
4ngo.pdb
4ngv.pdb
4ngw.pdb
4ngy.pdb
4ngz.pdb
4nhb.pdb
4nhp.pdb
4nhq.pdb
4nhs.pdb
4nht.pdb
4ni2.pdb
4ni3.pdb
4nib.pdb
4nin.pdb
4nix.pdb
4njh.pdb
4njk.pdb
4nkc.pdb
4nkp.pdb
4nli.pdb
4nlj.pdb
4nmm.pdb
4nn3.pdb
4nn5.pdb
4nnr.pdb
4no4.pdb
4npd.pdb
4npe.pdb
4npf.pdb
4npo.pdb
4nq8.pdb
4nqm.pdb
4ns1.pdb
4ns2.pdb
4nsg.pdb
4nsj.pdb
4nsv.pdb
4nsy.pdb
4ntp.pdb
4ntr.pdb
4nu0.pdb
4nuu.pdb
4nvb.pdb
4nvg.pdb
4nvi.pdb
4nvj.pdb
4nvk.pdb
4nvl.pdb
4nvm.pdb
4nvn.pdb
4nw9.pdb
4nwe.pdb
4nwh.pdb
4nx1.pdb
4nx4.pdb
4nx6.pdb
4nx7.pdb
4nxa.pdb
4nxc.pdb
4ny2.pdb
4nyh.pdb
4nyo.pdb
4nz4.pdb
4nz5.pdb
4nzr.pdb
4nzu.pdb
4o0a.pdb
4o1r.pdb
4o36.pdb
4o37.pdb
4o45.pdb
4o4q.pdb
4o4v.pdb
4o50.pdb
4o57.pdb
4o59.pdb
4o5q.pdb
4o62.pdb
4o63.pdb
4o6i.pdb
4o6m.pdb
4o6r.pdb
4o70.pdb
4o71.pdb
4o72.pdb
4o74.pdb
4o75.pdb
4o76.pdb
4o78.pdb
4o7a.pdb
4o7b.pdb
4o7c.pdb
4o7f.pdb
4o7k.pdb
4o7m.pdb
4o87.pdb
4o8c.pdb
4o8m.pdb
4o8p.pdb
4o8x.pdb
4o8y.pdb
4o94.pdb
4oa3.pdb
4oa4.pdb
4oan.pdb
4oat.pdb
4oay.pdb
4obe.pdb
4oce.pdb
4ocf.pdb
4och.pdb
4ocr.pdb
4ocs.pdb
4od6.pdb
4od7.pdb
4od8.pdb
4oeh.pdb
4oem.pdb
4of9.pdb
4ogl.pdb
4ohu.pdb
4oi5.pdb
4oij.pdb
4oim.pdb
4oj0.pdb
4oj5.pdb
4oj6.pdb
4ojf.pdb
4ojg.pdb
4ok9.pdb
4okf.pdb
4okp.pdb
4ol9.pdb
4old.pdb
4olg.pdb
4omj.pdb
4omk.pdb
4oml.pdb
4omm.pdb
4omn.pdb
4omo.pdb
4omq.pdb
4onr.pdb
4ood.pdb
4oos.pdb
4oot.pdb
4oov.pdb
4oox.pdb
4op4.pdb
4op5.pdb
4op7.pdb
4op8.pdb
4opb.pdb
4opo.pdb
4opq.pdb
4opr.pdb
4ops.pdb
4opv.pdb
4opy.pdb
4opz.pdb
4oq0.pdb
4oqh.pdb
4oqi.pdb
4oqj.pdb
4os2.pdb
4os6.pdb
4ot4.pdb
4ots.pdb
4otv.pdb
4ou9.pdb
4ouj.pdb
4oul.pdb
4ovg.pdb
4ovp.pdb
4ovq.pdb
4ovr.pdb
4ovs.pdb
4ovt.pdb
4ow5.pdb
4owa.pdb
4owb.pdb
4owc.pdb
4owe.pdb
4owh.pdb
4owj.pdb
4owk.pdb
4owz.pdb
4ox2.pdb
4ox6.pdb
4oxb.pdb
4oxf.pdb
4oy6.pdb
4oy7.pdb
4oy8.pdb
4oyu.pdb
4oz1.pdb
4ozl.pdb
4ozu.pdb
4p04.pdb
4p0c.pdb
4p17.pdb
4p1e.pdb
4p1l.pdb
4p26.pdb
4p29.pdb
4p2e.pdb
4p36.pdb
4p3h.pdb
4p3i.pdb
4p3l.pdb
4p3m.pdb
4p3q.pdb
4p3r.pdb
4p3z.pdb
4p40.pdb
4p47.pdb
4p4u.pdb
4p4v.pdb
4p4w.pdb
4p4x.pdb
4p4y.pdb
4p4z.pdb
4p56.pdb
4p5p.pdb
4p5z.pdb
4p65.pdb
4p7b.pdb
4p7f.pdb
4p7k.pdb
4p8n.pdb
4p99.pdb
4p9i.pdb
4p9j.pdb
4p9k.pdb
4p9l.pdb
4p9v.pdb
4p9z.pdb
4pa8.pdb
4paf.pdb
4pag.pdb
4pai.pdb
4pb3.pdb
4pbc.pdb
4pbh.pdb
4pbq.pdb
4pc1.pdb
4pc3.pdb
4pc4.pdb
4pcg.pdb
4pch.pdb
4pd0.pdb
4pd1.pdb
4pdc.pdb
4pdd.pdb
4pdh.pdb
4pdl.pdb
4pdv.pdb
4pe0.pdb
4pe3.pdb
4ped.pdb
4peu.pdb
4pex.pdb
4pey.pdb
4pez.pdb
4pf4.pdb
4pf8.pdb
4pgn.pdb
4phi.pdb
4phl.pdb
4pi7.pdb
4pi8.pdb
4pi9.pdb
4pim.pdb
4pin.pdb
4pio.pdb
4pip.pdb
4pj2.pdb
4pk2.pdb
4pk3.pdb
4pkg.pdb
4pl9.pdb
4plc.pdb
4pld.pdb
4plf.pdb
4plg.pdb
4plp.pdb
4plu.pdb
4pne.pdb
4pnj.pdb
4pno.pdb
4po2.pdb
4poc.pdb
4pod.pdb
4pp4.pdb
4ppo.pdb
4pq9.pdb
4pqw.pdb
4pr8.pdb
4prd.pdb
4prq.pdb
4prw.pdb
4prx.pdb
4psc.pdb
4psp.pdb
4psr.pdb
4pss.pdb
4pst.pdb
4psy.pdb
4pth.pdb
4ptj.pdb
4pu5.pdb
4pu7.pdb
4puv.pdb
4puw.pdb
4pve.pdb
4pvh.pdb
4pvi.pdb
4pvj.pdb
4pvk.pdb
4pwb.pdb
4pxx.pdb
4pyi.pdb
4pym.pdb
4pyn.pdb
4pyq.pdb
4pzz.pdb
4q01.pdb
4q03.pdb
4q0h.pdb
4q18.pdb
4q1p.pdb
4q1r.pdb
4q26.pdb
4q27.pdb
4q29.pdb
4q2f.pdb
4q2l.pdb
4q38.pdb
4q3h.pdb
4q3k.pdb
4q3n.pdb
4q4e.pdb
4q4w.pdb
4q4y.pdb
4q6n.pdb
4q70.pdb
4q78.pdb
4q7b.pdb
4q7e.pdb
4q7p.pdb
4q7s.pdb
4q7w.pdb
4q81.pdb
4q83.pdb
4q87.pdb
4q8d.pdb
4q8p.pdb
4q8x.pdb
4q8y.pdb
4q90.pdb
4q94.pdb
4q99.pdb
4q9f.pdb
4qa5.pdb
4qa9.pdb
4qas.pdb
4qat.pdb
4qb0.pdb
4qbb.pdb
4qbh.pdb
4qbi.pdb
4qbo.pdb
4qbs.pdb
4qbv.pdb
4qbx.pdb
4qc1.pdb
4qd7.pdb
4qdn.pdb
4qef.pdb
4qew.pdb
4qgo.pdb
4qh0.pdb
4qh3.pdb
4qhc.pdb
4qhp.pdb
4qhv.pdb
4qi8.pdb
4qib.pdb
4qir.pdb
4qjk.pdb
4qjl.pdb
4qk1.pdb
4qk2.pdb
4qk3.pdb
4qk7.pdb
4qkc.pdb
4qkl.pdb
4qkm.pdb
4qkq.pdb
4qkr.pdb
4qkt.pdb
4ql3.pdb
4qlp.pdb
4qmc.pdb
4qme.pdb
4qnr.pdb
4qns.pdb
4qo8.pdb
4qos.pdb
4qp5.pdb
4qpn.pdb
4qpo.pdb
4qpt.pdb
4qqe.pdb
4qqm.pdb
4qqs.pdb
4qrl.pdb
4qrn.pdb
4qs4.pdb
4qsp.pdb
4qsq.pdb
4qss.pdb
4qsu.pdb
4qsx.pdb
4qt7.pdb
4qtl.pdb
4qu1.pdb
4qui.pdb
4qus.pdb
4qv2.pdb
4qwt.pdb
4qx4.pdb
4qxv.pdb
4qy6.pdb
4qy8.pdb
4qyo.pdb
4qyt.pdb
4qyy.pdb
4qzs.pdb
4r19.pdb
4r1b.pdb
4r1s.pdb
4r1t.pdb
4r2n.pdb
4r2w.pdb
4r2x.pdb
4r33.pdb
4r36.pdb
4r37.pdb
4r38.pdb
4r3b.pdb
4r3f.pdb
4r42.pdb
4r4c.pdb
4r4i.pdb
4r4m.pdb
4r4o.pdb
4r4q.pdb
4r4r.pdb
4r4s.pdb
4r4t.pdb
4r5b.pdb
4r5f.pdb
4r60.pdb
4r6c.pdb
4r7v.pdb
4r9p.pdb
4rad.pdb
4rao.pdb
4rci.pdb
4rd1.pdb
4rek.pdb
4rev.pdb
4rex.pdb
4rey.pdb
4rf3.pdb
4rfc.pdb
4rfd.pdb
4rgc.pdb
4rh4.pdb
4rh5.pdb
4rh9.pdb
4rhg.pdb
4ri4.pdb
4ri5.pdb
4ri6.pdb
4ri7.pdb
4riu.pdb
4riv.pdb
4rjz.pdb
4rke.pdb
4rkj.pdb
4rle.pdb
4rls.pdb
4rmq.pdb
4rms.pdb
4rmt.pdb
4rmu.pdb
4rmv.pdb
4rmw.pdb
4rn0.pdb
4rnl.pdb
4rom.pdb
4rot.pdb
4rp9.pdb
4rpb.pdb
4rpd.pdb
4rpe.pdb
4rqk.pdb
4rqv.pdb
4rrv.pdb
4rsp.pdb
4rte.pdb
4rtv.pdb
4rtw.pdb
4rtx.pdb
4rty.pdb
4rtz.pdb
4ru3.pdb
4ruy.pdb
4ruz.pdb
4rvq.pdb
4rwb.pdb
4rwc.pdb
4rxv.pdb
4ryv.pdb
4ryx.pdb
4rz9.pdb
4rzj.pdb
4s0g.pdb
4s0z.pdb
4s12.pdb
4s1l.pdb
4s2o.pdb
4s36.pdb
4s3j.pdb
4s3k.pdb
4sga.pdb
4tjv.pdb
4tjz.pdb
4tkb.pdb
4tkh.pdb
4tkj.pdb
4tku.pdb
4tkv.pdb
4tkx.pdb
4tl1.pdb
4tlv.pdb
4tm7.pdb
4tnl.pdb
4tnn.pdb
4tns.pdb
4to7.pdb
4toq.pdb
4tor.pdb
4toy.pdb
4tpo.pdb
4tpr.pdb
4tpw.pdb
4tpy.pdb
4tpz.pdb
4tq2.pdb
4tq9.pdb
4tqa.pdb
4tqb.pdb
4tqc.pdb
4tqx.pdb
4tr6.pdb
4tr8.pdb
4trj.pdb
4trk.pdb
4tro.pdb
4ts4.pdb
4tsh.pdb
4tsl.pdb
4tsq.pdb
4tte.pdb
4ttt.pdb
4ttw.pdb
4tu4.pdb
4tun.pdb
4tvb.pdb
4tvt.pdb
4tvv.pdb
4tws.pdb
4tx6.pdb
4txh.pdb
4txr.pdb
4tyl.pdb
4tyv.pdb
4tz1.pdb
4tz3.pdb
4tz5.pdb
4tza.pdb
4tzk.pdb
4tzt.pdb
4u06.pdb
4u0j.pdb
4u0k.pdb
4u0o.pdb
4u0p.pdb
4u17.pdb
4u1o.pdb
4u22.pdb
4u2j.pdb
4u2l.pdb
4u2s.pdb
4u2t.pdb
4u3s.pdb
4u4x.pdb
4u60.pdb
4u62.pdb
4u6o.pdb
4u7a.pdb
4u7h.pdb
4u7v.pdb
4u8w.pdb
4u90.pdb
4u91.pdb
4u98.pdb
4u99.pdb
4u9b.pdb
4u9c.pdb
4u9h.pdb
4u9i.pdb
4u9s.pdb
4u9v.pdb
4ua6.pdb
4ua7.pdb
4ua8.pdb
4ua9.pdb
4uaa.pdb
4uab.pdb
4uac.pdb
4uak.pdb
4ual.pdb
4uam.pdb
4ud9.pdb
4udk.pdb
4udw.pdb
4udx.pdb
4udy.pdb
4ue7.pdb
4ue8.pdb
4ued.pdb
4ueh.pdb
4ueq.pdb
4ufd.pdb
4ufq.pdb
4ufx.pdb
4uhh.pdb
4uhm.pdb
4uho.pdb
4uib.pdb
4uik.pdb
4uj0.pdb
4uj1.pdb
4uj9.pdb
4uja.pdb
4ulv.pdb
4unm.pdb
4unu.pdb
4uob.pdb
4uov.pdb
4up4.pdb
4upl.pdb
4upv.pdb
4uql.pdb
4uqp.pdb
4uqx.pdb
4ure.pdb
4urf.pdb
4urr.pdb
4us6.pdb
4us8.pdb
4us9.pdb
4usa.pdb
4usf.pdb
4usk.pdb
4uso.pdb
4ut4.pdb
4ut5.pdb
4utg.pdb
4uth.pdb
4uti.pdb
4utj.pdb
4utk.pdb
4utl.pdb
4utm.pdb
4uto.pdb
4uu3.pdb
4uu5.pdb
4uu6.pdb
4uuc.pdb
4uul.pdb
4uum.pdb
4uun.pdb
4uup.pdb
4uve.pdb
4uvp.pdb
4uvq.pdb
4uwc.pdb
4uwd.pdb
4uwn.pdb
4uwo.pdb
4uwp.pdb
4uwr.pdb
4uws.pdb
4uwt.pdb
4uwu.pdb
4uyb.pdb
4uyi.pdb
4uzg.pdb
4v0v.pdb
4v0w.pdb
4v0x.pdb
4v0z.pdb
4v12.pdb
4v1f.pdb
4v1h.pdb
4v1j.pdb
4v20.pdb
4v2i.pdb
4v2w.pdb
4v3l.pdb
4v4e.pdb
4v4m.pdb
4vub.pdb
4w5j.pdb
4w5k.pdb
4w5z.pdb
4w79.pdb
4w7k.pdb
4w7l.pdb
4w7m.pdb
4w7n.pdb
4w7o.pdb
4w7u.pdb
4w7v.pdb
4w8b.pdb
4w8g.pdb
4w8h.pdb
4w94.pdb
4w96.pdb
4w99.pdb
4w9n.pdb
4w9q.pdb
4w9s.pdb
4w9t.pdb
4w9y.pdb
4wa3.pdb
4wa7.pdb
4wb0.pdb
4wb5.pdb
4wb7.pdb
4wb8.pdb
4wbg.pdb
4wbi.pdb
4wbr.pdb
4wc8.pdb
4wc9.pdb
4wca.pdb
4wcb.pdb
4wcd.pdb
4wcf.pdb
4wck.pdb
4wcl.pdb
4wcm.pdb
4wcn.pdb
4wcx.pdb
4wda.pdb
4wdb.pdb
4wdf.pdb
4wdh.pdb
4wec.pdb
4wee.pdb
4weq.pdb
4wes.pdb
4wf0.pdb
4wf8.pdb
4wfo.pdb
4wfr.pdb
4wg0.pdb
4wha.pdb
4whi.pdb
4whs.pdb
4wi1.pdb
4wiq.pdb
4wjk.pdb
4wjn.pdb
4wjo.pdb
4wjp.pdb
4wjq.pdb
4wk0.pdb
4wk1.pdb
4wka.pdb
4wkf.pdb
4wl4.pdb
4wlh.pdb
4wlj.pdb
4wmr.pdb
4wmy.pdb
4wn5.pdb
4wn9.pdb
4wna.pdb
4wnc.pdb
4wne.pdb
4wns.pdb
4wol.pdb
4wor.pdb
4wp3.pdb
4wp6.pdb
4wp7.pdb
4wp9.pdb
4wpa.pdb
4wpg.pdb
4wpn.pdb
4wpy.pdb
4wqk.pdb
4wql.pdb
4wr2.pdb
4wrc.pdb
4wre.pdb
4wrf.pdb
4wsf.pdb
4wsh.pdb
4wsp.pdb
4wt3.pdb
4wt7.pdb
4wtv.pdb
4wtw.pdb
4wu0.pdb
4wua.pdb
4wui.pdb
4wut.pdb
4wuv.pdb
4wux.pdb
4wv4.pdb
4wv6.pdb
4wva.pdb
4wvb.pdb
4wvi.pdb
4wvj.pdb
4wvv.pdb
4wwb.pdb
4wwd.pdb
4wwf.pdb
4wwh.pdb
4wwr.pdb
4wws.pdb
4wx2.pdb
4wxe.pdb
4wxj.pdb
4wyn.pdb
4wyp.pdb
4wyz.pdb
4wza.pdb
4wzc.pdb
4wze.pdb
4wzk.pdb
4wzl.pdb
4wzt.pdb
4wzv.pdb
4wzx.pdb
4wzz.pdb
4x06.pdb
4x07.pdb
4x08.pdb
4x09.pdb
4x0c.pdb
4x10.pdb
4x12.pdb
4x13.pdb
4x16.pdb
4x17.pdb
4x1v.pdb
4x1x.pdb
4x1z.pdb
4x2h.pdb
4x2m.pdb
4x2o.pdb
4x2r.pdb
4x33.pdb
4x3l.pdb
4x3m.pdb
4x3z.pdb
4x4l.pdb
4x4w.pdb
4x50.pdb
4x55.pdb
4x5a.pdb
4x5p.pdb
4x5q.pdb
4x5r.pdb
4x6h.pdb
4x83.pdb
4x8b.pdb
4x8d.pdb
4x8e.pdb
4x8l.pdb
4x8r.pdb
4x9c.pdb
4x9d.pdb
4x9r.pdb
4x9s.pdb
4x9v.pdb
4x9w.pdb
4x9x.pdb
4x9y.pdb
4xad.pdb
4xb4.pdb
4xb6.pdb
4xb9.pdb
4xbc.pdb
4xbv.pdb
4xbw.pdb
4xc4.pdb
4xcz.pdb
4xdc.pdb
4xdd.pdb
4xdr.pdb
4xdt.pdb
4xdu.pdb
4xdx.pdb
4xen.pdb
4xep.pdb
4xeq.pdb
4xer.pdb
4xf5.pdb
4xf7.pdb
4xfe.pdb
4xfm.pdb
4xfp.pdb
4xfr.pdb
4xg0.pdb
4xgi.pdb
4xgj.pdb
4xgp.pdb
4xgv.pdb
4xgw.pdb
4xgx.pdb
4xgy.pdb
4xhf.pdb
4xhm.pdb
4xhv.pdb
4xij.pdb
4xj7.pdb
4xk2.pdb
4xkb.pdb
4xkc.pdb
4xkw.pdb
4xl8.pdb
4xla.pdb
4xlz.pdb
4xmp.pdb
4xn4.pdb
4xn6.pdb
4xo5.pdb
4xo6.pdb
4xo7.pdb
4xo8.pdb
4xo9.pdb
4xoc.pdb
4xod.pdb
4xof.pdb
4xoj.pdb
4xos.pdb
4xov.pdb
4xow.pdb
4xq4.pdb
4xq7.pdb
4xq9.pdb
4xqa.pdb
4xqb.pdb
4xqc.pdb
4xqd.pdb
4xqe.pdb
4xqg.pdb
4xqw.pdb
4xr4.pdb
4xra.pdb
4xrb.pdb
4xrg.pdb
4xrw.pdb
4xsj.pdb
4xt2.pdb
4xt4.pdb
4xtb.pdb
4xti.pdb
4xuw.pdb
4xuy.pdb
4xv0.pdb
4xw6.pdb
4xwr.pdb
4xwu.pdb
4xwx.pdb
4xwz.pdb
4xx9.pdb
4xxg.pdb
4xyl.pdb
4xym.pdb
4xyy.pdb
4xz0.pdb
4xz9.pdb
4xzl.pdb
4xzp.pdb
4y0a.pdb
4y0s.pdb
4y0y.pdb
4y0z.pdb
4y10.pdb
4y11.pdb
4y1w.pdb
4y2l.pdb
4y35.pdb
4y37.pdb
4y38.pdb
4y39.pdb
4y3a.pdb
4y3d.pdb
4y3e.pdb
4y3f.pdb
4y3g.pdb
4y3h.pdb
4y3j.pdb
4y3l.pdb
4y3m.pdb
4y3n.pdb
4y3p.pdb
4y3q.pdb
4y3r.pdb
4y3s.pdb
4y3t.pdb
4y3w.pdb
4y3x.pdb
4y3y.pdb
4y3z.pdb
4y41.pdb
4y43.pdb
4y44.pdb
4y45.pdb
4y47.pdb
4y48.pdb
4y4a.pdb
4y4b.pdb
4y4d.pdb
4y4e.pdb
4y4g.pdb
4y4j.pdb
4y4t.pdb
4y4u.pdb
4y4w.pdb
4y4x.pdb
4y4z.pdb
4y50.pdb
4y51.pdb
4y53.pdb
4y54.pdb
4y56.pdb
4y57.pdb
4y58.pdb
4y59.pdb
4y5a.pdb
4y5b.pdb
4y5c.pdb
4y5d.pdb
4y5e.pdb
4y5g.pdb
4y5k.pdb
4y5l.pdb
4y5m.pdb
4y5n.pdb
4y5p.pdb
4y6g.pdb
4y7s.pdb
4y8a.pdb
4y93.pdb
4y95.pdb
4y9h.pdb
4y9t.pdb
4ya6.pdb
4yaa.pdb
4yab.pdb
4yac.pdb
4yae.pdb
4yag.pdb
4yah.pdb
4yai.pdb
4yam.pdb
4yap.pdb
4yav.pdb
4yb8.pdb
4ybs.pdb
4ybt.pdb
4yc0.pdb
4yc1.pdb
4ycb.pdb
4yck.pdb
4yct.pdb
4ycy.pdb
4yd3.pdb
4yd4.pdb
4yd5.pdb
4yd6.pdb
4yd7.pdb
4ydd.pdb
4ydp.pdb
4ydx.pdb
4ydy.pdb
4ye1.pdb
4ye3.pdb
4ye7.pdb
4yem.pdb
4yen.pdb
4yep.pdb
4yet.pdb
4ygf.pdb
4ygm.pdb
4yhq.pdb
4yhs.pdb
4yi8.pdb
4yic.pdb
4yj6.pdb
4yjk.pdb
4yjm.pdb
4yjq.pdb
4yjr.pdb
4yki.pdb
4ykj.pdb
4ykk.pdb
4ykp.pdb
4yl1.pdb
4yl3.pdb
4yl8.pdb
4yle.pdb
4ylq.pdb
4ym9.pdb
4ymb.pdb
4ymy.pdb
4yn1.pdb
4yn3.pdb
4yn8.pdb
4ynb.pdb
4yo7.pdb
4yoa.pdb
4yp2.pdb
4ypo.pdb
4yq8.pdb
4yqe.pdb
4yqq.pdb
4yri.pdb
4ys1.pdb
4ysi.pdb
4yta.pdb
4ytg.pdb
4ytl.pdb
4yu1.pdb
4yug.pdb
4yuh.pdb
4yui.pdb
4yuj.pdb
4yuk.pdb
4yul.pdb
4yum.pdb
4yun.pdb
4yuo.pdb
4yup.pdb
4yw8.pdb
4yw9.pdb
4ywb.pdb
4ywj.pdb
4ywp.pdb
4ywq.pdb
4yxg.pdb
4yy8.pdb
4yz0.pdb
4yza.pdb
4yzq.pdb
4yzu.pdb
4yzx.pdb
4yzz.pdb
4z02.pdb
4z03.pdb
4z04.pdb
4z05.pdb
4z06.pdb
4z0g.pdb
4z0k.pdb
4z0p.pdb
4z0r.pdb
4z0t.pdb
4z0w.pdb
4z0x.pdb
4z0y.pdb
4z0z.pdb
4z10.pdb
4z12.pdb
4z13.pdb
4z1w.pdb
4z37.pdb
4z3g.pdb
4z3i.pdb
4z41.pdb
4z46.pdb
4z4z.pdb
4z50.pdb
4z6b.pdb
4z76.pdb
4z77.pdb
4z79.pdb
4z7a.pdb
4z7e.pdb
4z7p.pdb
4z83.pdb
4z84.pdb
4z85.pdb
4z8b.pdb
4z8j.pdb
4z93.pdb
4z98.pdb
4za9.pdb
4zae.pdb
4zam.pdb
4zar.pdb
4zbd.pdb
4zbm.pdb
4zbo.pdb
4zbq.pdb
4zbt.pdb
4zc9.pdb
4zcc.pdb
4zcd.pdb
4zce.pdb
4zd6.pdb
4zdm.pdb
4ze6.pdb
4zea.pdb
4zee.pdb
4zev.pdb
4zew.pdb
4zex.pdb
4zfj.pdb
4zfk.pdb
4zfl.pdb
4zfp.pdb
4zgm.pdb
4zhv.pdb
4zhw.pdb
4zi4.pdb
4zip.pdb
4zix.pdb
4ziz.pdb
4zji.pdb
4zk4.pdb
4zka.pdb
4zkq.pdb
4zky.pdb
4zl7.pdb
4zl8.pdb
4zl9.pdb
4zls.pdb
4zm7.pdb
4zmd.pdb
4zmh.pdb
4zml.pdb
4zmr.pdb
4zms.pdb
4zmy.pdb
4zn5.pdb
4zo2.pdb
4zo3.pdb
4zpe.pdb
4zpf.pdb
4zpg.pdb
4zqc.pdb
4zqx.pdb
4zrr.pdb
4zs9.pdb
4zsa.pdb
4zsd.pdb
4zty.pdb
4zun.pdb
4zuo.pdb
4zup.pdb
4zuq.pdb
4zur.pdb
4zv0.pdb
4zvj.pdb
4zvk.pdb
4zvl.pdb
4zvm.pdb
4zwi.pdb
4zwy.pdb
4zx1.pdb
4zxp.pdb
4zxt.pdb
4zze.pdb
4zzt.pdb
4zzu.pdb
5a0l.pdb
5a0p.pdb
5a0r.pdb
5a0x.pdb
5a0y.pdb
5a10.pdb
5a1g.pdb
5a1t.pdb
5a24.pdb
5a25.pdb
5a2d.pdb
5a2m.pdb
5a3y.pdb
5a6b.pdb
5a6h.pdb
5a6l.pdb
5a6y.pdb
5a6z.pdb
5a70.pdb
5a7r.pdb
5a89.pdb
5a8a.pdb
5a8i.pdb
5a8j.pdb
5a8s.pdb
5a91.pdb
5a92.pdb
5a99.pdb
5a9p.pdb
5a9u.pdb
5aa8.pdb
5aa9.pdb
5aac.pdb
5aan.pdb
5aap.pdb
5ab8.pdb
5abd.pdb
5abg.pdb
5abo.pdb
5abs.pdb
5abx.pdb
5aby.pdb
5ac5.pdb
5acf.pdb
5ach.pdb
5aci.pdb
5ack.pdb
5acl.pdb
5acm.pdb
5acp.pdb
5acq.pdb
5acs.pdb
5act.pdb
5acv.pdb
5acw.pdb
5acx.pdb
5adu.pdb
5ae0.pdb
5aec.pdb
5af2.pdb
5af9.pdb
5afy.pdb
5ag2.pdb
5agy.pdb
5ah1.pdb
5ahg.pdb
5ai3.pdb
5ajb.pdb
5ajj.pdb
5ajo.pdb
5akr.pdb
5al0.pdb
5al6.pdb
5al8.pdb
5al9.pdb
5amv.pdb
5an5.pdb
5an7.pdb
5anq.pdb
5aov.pdb
5apg.pdb
5aq6.pdb
5aq8.pdb
5aq9.pdb
5aqb.pdb
5aqe.pdb
5aqh.pdb
5arb.pdb
5arc.pdb
5ard.pdb
5aur.pdb
5avd.pdb
5avn.pdb
5awi.pdb
5axu.pdb
5azf.pdb
5azr.pdb
5b18.pdb
5b1b.pdb
5b28.pdb
5b2z.pdb
5b30.pdb
5b42.pdb
5b4t.pdb
5b4u.pdb
5b4v.pdb
5b5f.pdb
5b5q.pdb
5b66.pdb
5b75.pdb
5b76.pdb
5b7f.pdb
5b7m.pdb
5b7p.pdb
5b7q.pdb
5b8f.pdb
5bmw.pdb
5bn2.pdb
5bn6.pdb
5boj.pdb
5bow.pdb
5bp2.pdb
5bp3.pdb
5bpm.pdb
5bpv.pdb
5bqf.pdb
5bqg.pdb
5br1.pdb
5bru.pdb
5bry.pdb
5bs4.pdb
5bse.pdb
5bts.pdb
5btv.pdb
5bu3.pdb
5buq.pdb
5bv2.pdb
5bvg.pdb
5bvh.pdb
5bvl.pdb
5bvr.pdb
5bw6.pdb
5bwd.pdb
5bwl.pdb
5bwn.pdb
5bx6.pdb
5bxj.pdb
5bxx.pdb
5byq.pdb
5byr.pdb
5bys.pdb
5c02.pdb
5c0e.pdb
5c0f.pdb
5c0g.pdb
5c0m.pdb
5c0z.pdb
5c10.pdb
5c12.pdb
5c15.pdb
5c17.pdb
5c1c.pdb
5c1e.pdb
5c2u.pdb
5c30.pdb
5c33.pdb
5c3f.pdb
5c50.pdb
5c5a.pdb
5c5g.pdb
5c7g.pdb
5c7l.pdb
5c7o.pdb
5c8q.pdb
5c8w.pdb
5c9l.pdb
5c9m.pdb
5cad.pdb
5cbl.pdb
5cbt.pdb
5cbu.pdb
5cbv.pdb
5cbw.pdb
5cc9.pdb
5ccc.pdb
5ccj.pdb
5ccn.pdb
5ccq.pdb
5ccr.pdb
5cde.pdb
5cdv.pdb
5cdz.pdb
5ce9.pdb
5cf9.pdb
5cgb.pdb
5cgp.pdb
5cgq.pdb
5cgs.pdb
5cgw.pdb
5cgx.pdb
5ch5.pdb
5chb.pdb
5chj.pdb
5chm.pdb
5chq.pdb
5chu.pdb
5ci1.pdb
5ci5.pdb
5ci7.pdb
5ck9.pdb
5cka.pdb
5clf.pdb
5cls.pdb
5cm6.pdb
5cmb.pdb
5cmc.pdb
5cmk.pdb
5cml.pdb
5cmm.pdb
5cmo.pdb
5cof.pdb
5coy.pdb
5cpl.pdb
5cpn.pdb
5cpo.pdb
5cpz.pdb
5cq0.pdb
5cq2.pdb
5cqi.pdb
5cqk.pdb
5cqx.pdb
5cr1.pdb
5cr4.pdb
5cr5.pdb
5cri.pdb
5cst.pdb
5ct4.pdb
5ct5.pdb
5ct6.pdb
5ct8.pdb
5ct9.pdb
5cta.pdb
5ctd.pdb
5cti.pdb
5ctm.pdb
5ctn.pdb
5cum.pdb
5cuo.pdb
5cur.pdb
5cv0.pdb
5cvd.pdb
5cvp.pdb
5cvt.pdb
5cw1.pdb
5cw2.pdb
5cwh.pdb
5cwl.pdb
5cwn.pdb
5cxr.pdb
5cyv.pdb
5czg.pdb
5czu.pdb
5d0e.pdb
5d0g.pdb
5d14.pdb
5d15.pdb
5d1k.pdb
5d1r.pdb
5d1v.pdb
5d24.pdb
5d2r.pdb
5d3c.pdb
5d4h.pdb
5d51.pdb
5d52.pdb
5d53.pdb
5d54.pdb
5d55.pdb
5d5g.pdb
5d5k.pdb
5d62.pdb
5d6c.pdb
5d6e.pdb
5d6f.pdb
5d77.pdb
5d78.pdb
5d7e.pdb
5d7w.pdb
5d88.pdb
5d8g.pdb
5d8v.pdb
5d9e.pdb
5dal.pdb
5dbv.pdb
5dch.pdb
5dcw.pdb
5dd1.pdb
5ddl.pdb
5dei.pdb
5dem.pdb
5df1.pdb
5df5.pdb
5dfs.pdb
5dgc.pdb
5dgd.pdb
5dgt.pdb
5dgu.pdb
5dgw.pdb
5dhd.pdb
5dhm.pdb
5dii.pdb
5dj7.pdb
5djb.pdb
5dje.pdb
5djl.pdb
5djm.pdb
5dk1.pdb
5dk8.pdb
5dkf.pdb
5dkm.pdb
5dkv.pdb
5dl9.pdb
5dmh.pdb
5dn4.pdb
5dn9.pdb
5dna.pdb
5do6.pdb
5dpe.pdb
5dpf.pdb
5dpg.pdb
5dph.pdb
5dpz.pdb
5dq0.pdb
5dq1.pdb
5dq2.pdb
5dq4.pdb
5dq5.pdb
5dr0.pdb
5dr1.pdb
5dr3.pdb
5dr4.pdb
5dr7.pdb
5dr8.pdb
5drs.pdb
5ds2.pdb
5dsf.pdb
5dt1.pdb
5dt6.pdb
5dtb.pdb
5dtk.pdb
5dts.pdb
5du9.pdb
5dua.pdb
5dvi.pdb
5dw5.pdb
5dwn.pdb
5dws.pdb
5dxg.pdb
5dy5.pdb
5dy9.pdb
5dyf.pdb
5dze.pdb
5e0f.pdb
5e0l.pdb
5e0m.pdb
5e0q.pdb
5e0y.pdb
5e11.pdb
5e1d.pdb
5e1m.pdb
5e1n.pdb
5e1o.pdb
5e1p.pdb
5e1v.pdb
5e1y.pdb
5e21.pdb
5e22.pdb
5e29.pdb
5e2a.pdb
5e2b.pdb
5e2s.pdb
5e33.pdb
5e4m.pdb
5e50.pdb
5e5g.pdb
5e6e.pdb
5e75.pdb
5e7b.pdb
5e7h.pdb
5e7n.pdb
5e7w.pdb
5e89.pdb
5e8a.pdb
5e8b.pdb
5e8m.pdb
5e8x.pdb
5e98.pdb
5e9b.pdb
5e9c.pdb
5e9n.pdb
5e9q.pdb
5eal.pdb
5eap.pdb
5ear.pdb
5eb6.pdb
5eb7.pdb
5ebx.pdb
5ec7.pdb
5eca.pdb
5ed3.pdb
5ed6.pdb
5ee8.pdb
5eee.pdb
5eei.pdb
5eek.pdb
5ef7.pdb
5efj.pdb
5efk.pdb
5efm.pdb
5efn.pdb
5efo.pdb
5efr.pdb
5efs.pdb
5eg4.pdb
5egm.pdb
5eh7.pdb
5eh8.pdb
5eh9.pdb
5ehf.pdb
5ehm.pdb
5ehs.pdb
5eht.pdb
5ehu.pdb
5ehv.pdb
5ehw.pdb
5ei4.pdb
5eiu.pdb
5ej8.pdb
5eje.pdb
5ejt.pdb
5eju.pdb
5eka.pdb
5ekd.pdb
5ekz.pdb
5el9.pdb
5elb.pdb
5eld.pdb
5ele.pdb
5elf.pdb
5elq.pdb
5elw.pdb
5em0.pdb
5em9.pdb
5ema.pdb
5emi.pdb
5emt.pdb
5emx.pdb
5emy.pdb
5en3.pdb
5en4.pdb
5enm.pdb
5eo8.pdb
5eoe.pdb
5eoi.pdb
5eon.pdb
5eoo.pdb
5epc.pdb
5epu.pdb
5eq0.pdb
5eq7.pdb
5eq9.pdb
5eqq.pdb
5eqr.pdb
5eqs.pdb
5eqv.pdb
5er1.pdb
5er2.pdb
5er5.pdb
5erq.pdb
5err.pdb
5ers.pdb
5ert.pdb
5eru.pdb
5erv.pdb
5esr.pdb
5eu5.pdb
5eum.pdb
5eun.pdb
5eus.pdb
5euu.pdb
5euw.pdb
5ewi.pdb
5ewk.pdb
5ewo.pdb
5ewy.pdb
5ex2.pdb
5exj.pdb
5exu.pdb
5exy.pdb
5exz.pdb
5ey6.pdb
5eyn.pdb
5eyu.pdb
5f02.pdb
5f05.pdb
5f06.pdb
5f07.pdb
5f0e.pdb
5f0v.pdb
5f0z.pdb
5f1n.pdb
5f1s.pdb
5f1t.pdb
5f23.pdb
5f2f.pdb
5f2g.pdb
5f2i.pdb
5f2l.pdb
5f2m.pdb
5f30.pdb
5f38.pdb
5f3f.pdb
5f47.pdb
5f48.pdb
5f4j.pdb
5f4o.pdb
5f4q.pdb
5f4s.pdb
5f4w.pdb
5f4x.pdb
5f53.pdb
5f5z.pdb
5f60.pdb
5f61.pdb
5f62.pdb
5f63.pdb
5f75.pdb
5f7x.pdb
5f82.pdb
5f9s.pdb
5f9u.pdb
5f9x.pdb
5fa7.pdb
5fak.pdb
5fal.pdb
5fan.pdb
5faq.pdb
5fas.pdb
5fau.pdb
5fav.pdb
5faw.pdb
5fay.pdb
5fb9.pdb
5fbb.pdb
5fbc.pdb
5fc1.pdb
5fc5.pdb
5fc6.pdb
5fc7.pdb
5fc9.pdb
5fca.pdb
5fcb.pdb
5fcn.pdb
5fcp.pdb
5fd0.pdb
5feb.pdb
5ff1.pdb
5ff9.pdb
5fgw.pdb
5fh0.pdb
5fh1.pdb
5fh2.pdb
5fhm.pdb
5fhn.pdb
5fhq.pdb
5fhw.pdb
5fjg.pdb
5fji.pdb
5fjj.pdb
5fkk.pdb
5fkl.pdb
5fl0.pdb
5fl1.pdb
5flo.pdb
5flp.pdb
5flq.pdb
5flr.pdb
5fls.pdb
5flt.pdb
5fly.pdb
5fnh.pdb
5fni.pdb
5fnj.pdb
5fnk.pdb
5fnl.pdb
5fos.pdb
5fot.pdb
5fox.pdb
5fp8.pdb
5fpb.pdb
5fpk.pdb
5fpz.pdb
5fqb.pdb
5fs5.pdb
5fsb.pdb
5fsd.pdb
5fsi.pdb
5fsj.pdb
5fsk.pdb
5fsp.pdb
5fss.pdb
5fst.pdb
5fsx.pdb
5ftb.pdb
5ftd.pdb
5fuh.pdb
5fuj.pdb
5fv8.pdb
5fw5.pdb
5fwa.pdb
5fwd.pdb
5fx2.pdb
5fx3.pdb
5fxm.pdb
5fyo.pdb
5fyp.pdb
5fyr.pdb
5g01.pdb
5g03.pdb
5g0b.pdb
5g0c.pdb
5g0f.pdb
5g0h.pdb
5g0i.pdb
5g0r.pdb
5g0v.pdb
5g0w.pdb
5g0z.pdb
5g17.pdb
5g18.pdb
5g1a.pdb
5g1b.pdb
5g1c.pdb
5g1x.pdb
5g1z.pdb
5g2o.pdb
5g38.pdb
5g3a.pdb
5g3b.pdb
5g3c.pdb
5g3d.pdb
5g3e.pdb
5g3f.pdb
5g3g.pdb
5g3h.pdb
5g3q.pdb
5g3t.pdb
5g3w.pdb
5g3x.pdb
5g59.pdb
5g6u.pdb
5gge.pdb
5ghp.pdb
5ghq.pdb
5gj3.pdb
5gji.pdb
5gju.pdb
5gk3.pdb
5gk4.pdb
5gk5.pdb
5gk6.pdb
5gk7.pdb
5gk8.pdb
5gm3.pdb
5gme.pdb
5gog.pdb
5gqi.pdb
5grn.pdb
5grq.pdb
5grr.pdb
5gv7.pdb
5gv8.pdb
5gwb.pdb
5gz0.pdb
5gz2.pdb
5gzc.pdb
5gzd.pdb
5gze.pdb
5h0q.pdb
5h3j.pdb
5h4r.pdb
5h4y.pdb
5h6a.pdb
5h6c.pdb
5h6d.pdb
5h6e.pdb
5h8i.pdb
5h8t.pdb
5h9a.pdb
5h9c.pdb
5ha1.pdb
5ha5.pdb
5ha6.pdb
5ha7.pdb
5har.pdb
5hat.pdb
5hav.pdb
5hb5.pdb
5hb6.pdb
5hb7.pdb
5hb8.pdb
5hbn.pdb
5hbr.pdb
5hbs.pdb
5hc0.pdb
5hco.pdb
5hct.pdb
5hd4.pdb
5hd7.pdb
5hd9.pdb
5hde.pdb
5hdk.pdb
5hdm.pdb
5hdy.pdb
5he9.pdb
5heb.pdb
5hed.pdb
5hee.pdb
5het.pdb
5hey.pdb
5hf1.pdb
5hf3.pdb
5hf4.pdb
5hfb.pdb
5hfc.pdb
5hfd.pdb
5hfe.pdb
5hff.pdb
5hgr.pdb
5hgx.pdb
5hh9.pdb
5hha.pdb
5hhj.pdb
5hhy.pdb
5hi8.pdb
5hio.pdb
5hip.pdb
5his.pdb
5hj9.pdb
5hje.pdb
5hjf.pdb
5hjg.pdb
5hjx.pdb
5hll.pdb
5hmf.pdb
5hmj.pdb
5hmm.pdb
5hno.pdb
5hob.pdb
5hoc.pdb
5hoe.pdb
5hoq.pdb
5hox.pdb
5hpb.pdb
5hpj.pdb
5hqg.pdb
5hqj.pdb
5hqm.pdb
5hqy.pdb
5hr0.pdb
5hr2.pdb
5hr3.pdb
5hr5.pdb
5hrr.pdb
5hrs.pdb
5hsr.pdb
5ht2.pdb
5ht4.pdb
5htb.pdb
5htc.pdb
5hua.pdb
5hui.pdb
5hve.pdb
5hw1.pdb
5hw3.pdb
5hw5.pdb
5hwa.pdb
5hwj.pdb
5hwn.pdb
5hwo.pdb
5hwq.pdb
5hwr.pdb
5hwz.pdb
5hx4.pdb
5hxi.pdb
5hyv.pdb
5hz7.pdb
5hzx.pdb
5i05.pdb
5i0d.pdb
5i0r.pdb
5i0s.pdb
5i0t.pdb
5i0u.pdb
5i10.pdb
5i11.pdb
5i1n.pdb
5i1o.pdb
5i1p.pdb
5i1s.pdb
5i1y.pdb
5i2f.pdb
5i32.pdb
5i34.pdb
5i3l.pdb
5i4f.pdb
5i4h.pdb
5i4i.pdb
5i4n.pdb
5i4x.pdb
5i4y.pdb
5i4z.pdb
5i51.pdb
5i53.pdb
5i54.pdb
5i5e.pdb
5i5g.pdb
5i5p.pdb
5i63.pdb
5i66.pdb
5i76.pdb
5i7g.pdb
5i7i.pdb
5i7p.pdb
5i7q.pdb
5i7x.pdb
5i89.pdb
5i8b.pdb
5i8f.pdb
5i8g.pdb
5i98.pdb
5i9j.pdb
5iai.pdb
5ibd.pdb
5ibe.pdb
5ibq.pdb
5ibr.pdb
5ibz.pdb
5icc.pdb
5ice.pdb
5icf.pdb
5icm.pdb
5ics.pdb
5ict.pdb
5idb.pdb
5idu.pdb
5idy.pdb
5ied.pdb
5iee.pdb
5ieh.pdb
5iek.pdb
5ieo.pdb
5ig0.pdb
5iga.pdb
5igi.pdb
5igj.pdb
5igp.pdb
5igr.pdb
5igs.pdb
5igt.pdb
5igv.pdb
5igy.pdb
5igz.pdb
5ih0.pdb
5ih1.pdb
5ih3.pdb
5ihf.pdb
5ihg.pdb
5ihh.pdb
5ihk.pdb
5ihs.pdb
5ii3.pdb
5ii4.pdb
5ii5.pdb
5ii6.pdb
5ii7.pdb
5ii8.pdb
5iia.pdb
5iib.pdb
5iiz.pdb
5ik4.pdb
5ik5.pdb
5ik7.pdb
5ik8.pdb
5ikd.pdb
5il6.pdb
5ilc.pdb
5ile.pdb
5ilf.pdb
5ilm.pdb
5ilt.pdb
5ilz.pdb
5im2.pdb
5im9.pdb
5ima.pdb
5imc.pdb
5imd.pdb
5imf.pdb
5imk.pdb
5iml.pdb
5imm.pdb
5imv.pdb
5imz.pdb
5in2.pdb
5in3.pdb
5inj.pdb
5inr.pdb
5iny.pdb
5io0.pdb
5io2.pdb
5iow.pdb
5iox.pdb
5ipg.pdb
5ipp.pdb
5iqj.pdb
5iqm.pdb
5iqn.pdb
5iqo.pdb
5ir4.pdb
5ir5.pdb
5irs.pdb
5is4.pdb
5isb.pdb
5isj.pdb
5isk.pdb
5it3.pdb
5it6.pdb
5iu1.pdb
5iu4.pdb
5iu7.pdb
5iu8.pdb
5ivh.pdb
5ivk.pdb
5ivn.pdb
5iwe.pdb
5iwu.pdb
5iwy.pdb
5ixb.pdb
5ixh.pdb
5iyn.pdb
5iyp.pdb
5iyq.pdb
5iyr.pdb
5iyw.pdb
5izc.pdb
5izz.pdb
5j03.pdb
5j08.pdb
5j09.pdb
5j0k.pdb
5j1g.pdb
5j1q.pdb
5j20.pdb
5j25.pdb
5j2l.pdb
5j2o.pdb
5j35.pdb
5j3o.pdb
5j41.pdb
5j48.pdb
5j49.pdb
5j4h.pdb
5j4k.pdb
5j4l.pdb
5j4o.pdb
5j4r.pdb
5j53.pdb
5j54.pdb
5j55.pdb
5j5y.pdb
5j5z.pdb
5j60.pdb
5j71.pdb
5j72.pdb
5j7p.pdb
5j80.pdb
5j8d.pdb
5j8g.pdb
5j8p.pdb
5j9i.pdb
5j9x.pdb
5ja3.pdb
5jai.pdb
5jam.pdb
5jaq.pdb
5jax.pdb
5jb8.pdb
5jb9.pdb
5jba.pdb
5jbb.pdb
5jbc.pdb
5jbx.pdb
5jby.pdb
5jc8.pdb
5jca.pdb
5jcj.pdb
5jcq.pdb
5jcr.pdb
5jcw.pdb
5jcy.pdb
5jd7.pdb
5jd9.pdb
5jda.pdb
5jdi.pdb
5jdk.pdb
5jdt.pdb
5jdv.pdb
5je2.pdb
5je7.pdb
5jeg.pdb
5jeh.pdb
5jei.pdb
5jep.pdb
5jes.pdb
5jez.pdb
5jfd.pdb
5jfg.pdb
5jfn.pdb
5jfr.pdb
5jg3.pdb
5jg5.pdb
5jg6.pdb
5jgj.pdb
5jgk.pdb
5jgs.pdb
5jgt.pdb
5jhu.pdb
5ji8.pdb
5jid.pdb
5jig.pdb
5jih.pdb
5jii.pdb
5jik.pdb
5jim.pdb
5jip.pdb
5jiq.pdb
5jiw.pdb
5jix.pdb
5jiz.pdb
5jk4.pdb
5jl4.pdb
5jlg.pdb
5jmg.pdb
5jn8.pdb
5jnv.pdb
5jo5.pdb
5joo.pdb
5jqf.pdb
5jqt.pdb
5jr1.pdb
5jrd.pdb
5jri.pdb
5jrm.pdb
5jrr.pdb
5jrs.pdb
5jry.pdb
5js3.pdb
5jsh.pdb
5jsk.pdb
5jss.pdb
5jsu.pdb
5jsy.pdb
5jt1.pdb
5jt9.pdb
5ju9.pdb
5jue.pdb
5jug.pdb
5juh.pdb
5jv4.pdb
5jvi.pdb
5jvx.pdb
5jw8.pdb
5jw9.pdb
5jwm.pdb
5jwo.pdb
5jx9.pdb
5jxa.pdb
5jxm.pdb
5jxn.pdb
5jxz.pdb
5jy1.pdb
5jyb.pdb
5jyd.pdb
5jyq.pdb
5jzy.pdb
5k01.pdb
5k0a.pdb
5k0d.pdb
5k15.pdb
5k1k.pdb
5k1l.pdb
5k1m.pdb
5k1p.pdb
5k1u.pdb
5k21.pdb
5k2c.pdb
5k2d.pdb
5k3k.pdb
5k4w.pdb
5k4y.pdb
5k54.pdb
5k55.pdb
5k5k.pdb
5k6j.pdb
5k79.pdb
5k7a.pdb
5k7f.pdb
5k84.pdb
5k87.pdb
5k8j.pdb
5k8x.pdb
5k8z.pdb
5k90.pdb
5k91.pdb
5k92.pdb
5k99.pdb
5k9b.pdb
5k9c.pdb
5k9d.pdb
5k9m.pdb
5kar.pdb
5kas.pdb
5kau.pdb
5kav.pdb
5kaw.pdb
5kax.pdb
5kb2.pdb
5kb6.pdb
5kci.pdb
5kcn.pdb
5kcp.pdb
5kcz.pdb
5kd5.pdb
5kdb.pdb
5kdh.pdb
5kdp.pdb
5kdy.pdb
5ke0.pdb
5ke1.pdb
5kf0.pdb
5kgr.pdb
5kh3.pdb
5kh7.pdb
5khd.pdb
5kiv.pdb
5kj0.pdb
5kj6.pdb
5kj9.pdb
5kjc.pdb
5kjf.pdb
5kjv.pdb
5kjw.pdb
5kk4.pdb
5kka.pdb
5kkc.pdb
5kkk.pdb
5kle.pdb
5klf.pdb
5km0.pdb
5kn3.pdb
5ko4.pdb
5koe.pdb
5koi.pdb
5kol.pdb
5kon.pdb
5kpu.pdb
5kq6.pdb
5kqi.pdb
5kqt.pdb
5kr4.pdb
5krs.pdb
5krt.pdb
5ksg.pdb
5ksi.pdb
5ksn.pdb
5ktn.pdb
5ktr.pdb
5ku6.pdb
5kuk.pdb
5kvc.pdb
5kvi.pdb
5kvq.pdb
5kvs.pdb
5kwb.pdb
5kwe.pdb
5kwk.pdb
5kwm.pdb
5kxh.pdb
5kxu.pdb
5kxv.pdb
5ky0.pdb
5ky2.pdb
5ky3.pdb
5ky4.pdb
5ky5.pdb
5ky6.pdb
5ky7.pdb
5ky8.pdb
5ky9.pdb
5kzw.pdb
5kzx.pdb
5l05.pdb
5l0n.pdb
5l0r.pdb
5l0s.pdb
5l0t.pdb
5l0u.pdb
5l0v.pdb
5l11.pdb
5l12.pdb
5l23.pdb
5l2f.pdb
5l2v.pdb
5l2y.pdb
5l2z.pdb
5l30.pdb
5l3h.pdb
5l3i.pdb
5l3o.pdb
5l3s.pdb
5l3u.pdb
5l41.pdb
5l4f.pdb
5l4i.pdb
5l4j.pdb
5l4m.pdb
5l4q.pdb
5l4r.pdb
5l4s.pdb
5l4t.pdb
5l4x.pdb
5l6d.pdb
5l6e.pdb
5l7f.pdb
5l7p.pdb
5l7w.pdb
5l7y.pdb
5l83.pdb
5l87.pdb
5l8p.pdb
5l8v.pdb
5l9r.pdb
5l9v.pdb
5l9z.pdb
5la4.pdb
5lal.pdb
5lat.pdb
5lb6.pdb
5lbb.pdb
5lbc.pdb
5lbd.pdb
5lbe.pdb
5lbf.pdb
5lbi.pdb
5lbk.pdb
5lbp.pdb
5lcf.pdb
5lcp.pdb
5lcq.pdb
5lcr.pdb
5lct.pdb
5lcu.pdb
5lcx.pdb
5ld9.pdb
5lda.pdb
5ldg.pdb
5ldp.pdb
5le6.pdb
5le8.pdb
5le9.pdb
5ley.pdb
5lf1.pdb
5lf2.pdb
5lf4.pdb
5lf7.pdb
5lft.pdb
5lgr.pdb
5lh4.pdb
5lh9.pdb
5lhv.pdb
5lhw.pdb
5lhx.pdb
5lif.pdb
5ljb.pdb
5ljc.pdb
5ljd.pdb
5lje.pdb
5ljg.pdb
5ljh.pdb
5ljk.pdb
5ljq.pdb
5ljt.pdb
5lk9.pdb
5lkb.pdb
5lkc.pdb
5lkd.pdb
5lkg.pdb
5lkk.pdb
5lkv.pdb
5ll0.pdb
5ll8.pdb
5llb.pdb
5llk.pdb
5llz.pdb
5lm8.pdb
5lni.pdb
5lnj.pdb
5lo7.pdb
5loa.pdb
5lod.pdb
5lok.pdb
5loq.pdb
5lou.pdb
5lp9.pdb
5lpd.pdb
5lpm.pdb
5ls4.pdb
5ls7.pdb
5lsc.pdb
5lsv.pdb
5lu5.pdb
5lus.pdb
5lv3.pdb
5lv4.pdb
5lv5.pdb
5lvd.pdb
5lve.pdb
5lvg.pdb
5lvh.pdb
5lvi.pdb
5lvj.pdb
5lvl.pdb
5lvm.pdb
5lvn.pdb
5lvo.pdb
5lvs.pdb
5lw2.pdb
5lwd.pdb
5lwh.pdb
5lwo.pdb
5lwq.pdb
5lwr.pdb
5lws.pdb
5lwt.pdb
5lwu.pdb
5lwx.pdb
5lxr.pdb
5lxw.pdb
5lxx.pdb
5lxz.pdb
5ly0.pdb
5lyc.pdb
5lye.pdb
5lyi.pdb
5lyl.pdb
5lzg.pdb
5lzh.pdb
5lzj.pdb
5lzk.pdb
5m0b.pdb
5m0c.pdb
5m0l.pdb
5m0p.pdb
5m0u.pdb
5m1y.pdb
5m28.pdb
5m2c.pdb
5m2p.pdb
5m2r.pdb
5m2t.pdb
5m33.pdb
5m4z.pdb
5m5f.pdb
5m5k.pdb
5m67.pdb
5m69.pdb
5m6d.pdb
5m6v.pdb
5m6y.pdb
5m71.pdb
5m75.pdb
5m78.pdb
5m79.pdb
5m7a.pdb
5m7b.pdb
5m7w.pdb
5m9w.pdb
5ma3.pdb
5ma4.pdb
5ma5.pdb
5ma7.pdb
5ma9.pdb
5mad.pdb
5mar.pdb
5mas.pdb
5mau.pdb
5may.pdb
5mb0.pdb
5mb1.pdb
5mb2.pdb
5mb3.pdb
5mb4.pdb
5mb5.pdb
5mb6.pdb
5mb7.pdb
5mba.pdb
5mby.pdb
5mca.pdb
5mcb.pdb
5mdl.pdb
5me4.pdb
5med.pdb
5mej.pdb
5mew.pdb
5mf2.pdb
5mfa.pdb
5mfg.pdb
5mfr.pdb
5mfs.pdb
5mft.pdb
5mh0.pdb
5mh1.pdb
5mh6.pdb
5mhc.pdb
5mhi.pdb
5mhu.pdb
5mhv.pdb
5mhw.pdb
5mhx.pdb
5mhy.pdb
5mhz.pdb
5mi1.pdb
5mi2.pdb
5mi4.pdb
5mia.pdb
5mib.pdb
5mic.pdb
5mid.pdb
5mie.pdb
5mig.pdb
5mih.pdb
5miw.pdb
5mj3.pdb
5mjj.pdb
5mjt.pdb
5mk9.pdb
5mka.pdb
5mls.pdb
5mm6.pdb
5mm9.pdb
5mmd.pdb
5mn1.pdb
5mn4.pdb
5mna.pdb
5mnb.pdb
5mnc.pdb
5mne.pdb
5mnf.pdb
5mng.pdb
5mnh.pdb
5mnk.pdb
5mnl.pdb
5mnm.pdb
5mnn.pdb
5mno.pdb
5mnp.pdb
5mnq.pdb
5mnr.pdb
5moc.pdb
5mp6.pdb
5mpt.pdb
5mq1.pdb
5mq5.pdb
5mqi.pdb
5mr0.pdb
5mr1.pdb
5mr3.pdb
5mr5.pdb
5mrd.pdb
5mrk.pdb
5msa.pdb
5mt9.pdb
5mtt.pdb
5mtu.pdb
5mu9.pdb
5mua.pdb
5mwt.pdb
5mwx.pdb
5mx7.pdb
5mx9.pdb
5mxf.pdb
5mxh.pdb
5mxo.pdb
5mxx.pdb
5my5.pdb
5my8.pdb
5my9.pdb
5myo.pdb
5myy.pdb
5mzj.pdb
5mzl.pdb
5mzn.pdb
5mzw.pdb
5mzx.pdb
5mzy.pdb
5n00.pdb
5n01.pdb
5n02.pdb
5n0g.pdb
5n0j.pdb
5n0x.pdb
5n10.pdb
5n12.pdb
5n1d.pdb
5n1e.pdb
5n1f.pdb
5n1g.pdb
5n1h.pdb
5n1k.pdb
5n1l.pdb
5n1m.pdb
5n1n.pdb
5n1o.pdb
5n22.pdb
5n2c.pdb
5n2t.pdb
5n2x.pdb
5n2z.pdb
5n30.pdb
5n31.pdb
5n32.pdb
5n33.pdb
5n34.pdb
5n37.pdb
5n39.pdb
5n3a.pdb
5n3b.pdb
5n3c.pdb
5n3d.pdb
5n3e.pdb
5n3g.pdb
5n3h.pdb
5n3i.pdb
5n3j.pdb
5n3k.pdb
5n3l.pdb
5n3m.pdb
5n3n.pdb
5n3o.pdb
5n3p.pdb
5n3q.pdb
5n3r.pdb
5n3s.pdb
5n3t.pdb
5n3v.pdb
5n3y.pdb
5n40.pdb
5n4h.pdb
5n4t.pdb
5n5d.pdb
5n5g.pdb
5n5h.pdb
5n5r.pdb
5n5t.pdb
5n5w.pdb
5n6b.pdb
5n6f.pdb
5n75.pdb
5n7p.pdb
5n7q.pdb
5n7u.pdb
5n86.pdb
5n8j.pdb
5n91.pdb
5n9c.pdb
5n9m.pdb
5n9p.pdb
5naj.pdb
5nb3.pdb
5nb4.pdb
5nbf.pdb
5nbj.pdb
5nbx.pdb
5nc1.pdb
5ncf.pdb
5ncg.pdb
5nch.pdb
5nci.pdb
5ncj.pdb
5ncp.pdb
5nd0.pdb
5nde.pdb
5ndu.pdb
5ne2.pdb
5nea.pdb
5nee.pdb
5neg.pdb
5nf2.pdb
5nf3.pdb
5nf4.pdb
5nfb.pdb
5ngq.pdb
5nh5.pdb
5nhd.pdb
5nhe.pdb
5nhz.pdb
5ni0.pdb
5ni2.pdb
5ni4.pdb
5ni6.pdb
5nia.pdb
5nid.pdb
5nin.pdb
5nj1.pdb
5nj9.pdb
5nja.pdb
5njb.pdb
5njc.pdb
5njf.pdb
5nji.pdb
5njm.pdb
5njp.pdb
5njq.pdb
5njr.pdb
5njs.pdb
5nkt.pdb
5nkv.pdb
5nkw.pdb
5nl9.pdb
5nld.pdb
5nlh.pdb
5nln.pdb
5nlo.pdb
5nlp.pdb
5nly.pdb
5nlz.pdb
5nm2.pdb
5nm4.pdb
5nmh.pdb
5nmo.pdb
5nmv.pdb
5nn2.pdb
5nn3.pdb
5nn4.pdb
5nna.pdb
5np2.pdb
5np3.pdb
5np4.pdb
5np5.pdb
5nq0.pdb
5nq8.pdb
5nqq.pdb
5nqu.pdb
5nr1.pdb
5nr9.pdb
5nre.pdb
5nrh.pdb
5nri.pdb
5nrp.pdb
5ns9.pdb
5nsa.pdb
5nt0.pdb
5ntj.pdb
5nu3.pdb
5nuk.pdb
5nuv.pdb
5nvg.pdb
5nvm.pdb
5nvn.pdb
5nw3.pdb
5nwo.pdb
5nwp.pdb
5nxd.pdb
5nye.pdb
5nyk.pdb
5nyl.pdb
5nym.pdb
5nyn.pdb
5nyp.pdb
5nyq.pdb
5nyv.pdb
5nzj.pdb
5nzy.pdb
5o0e.pdb
5o0i.pdb
5o0m.pdb
5o15.pdb
5o1b.pdb
5o2a.pdb
5o2w.pdb
5o2x.pdb
5o3y.pdb
5o40.pdb
5o42.pdb
5o43.pdb
5o45.pdb
5o4k.pdb
5o5m.pdb
5o5w.pdb
5o6j.pdb
5o6n.pdb
5o6o.pdb
5o6t.pdb
5o6x.pdb
5o6z.pdb
5o72.pdb
5o77.pdb
5o7c.pdb
5o7e.pdb
5o7q.pdb
5o7u.pdb
5o7v.pdb
5o7w.pdb
5o86.pdb
5o8e.pdb
5o8i.pdb
5o97.pdb
5o99.pdb
5o9f.pdb
5o9x.pdb
5oav.pdb
5oaz.pdb
5ob0.pdb
5ob1.pdb
5ob2.pdb
5ob6.pdb
5obd.pdb
5obe.pdb
5oc7.pdb
5ody.pdb
5oe3.pdb
5oe4.pdb
5oe5.pdb
5oe6.pdb
5oem.pdb
5of9.pdb
5ofj.pdb
5ofk.pdb
5ofl.pdb
5ogx.pdb
5ohq.pdb
5oic.pdb
5oim.pdb
5oji.pdb
5ojw.pdb
5ojy.pdb
5ok4.pdb
5ol4.pdb
5ol9.pdb
5oln.pdb
5olu.pdb
5om2.pdb
5omk.pdb
5on1.pdb
5on5.pdb
5on8.pdb
5oog.pdb
5ooh.pdb
5op9.pdb
5opa.pdb
5opf.pdb
5oq9.pdb
5or3.pdb
5osw.pdb
5ote.pdb
5otf.pdb
5ouo.pdb
5ovc.pdb
5ovj.pdb
5ovk.pdb
5ovp.pdb
5ovv.pdb
5ow5.pdb
5owo.pdb
5owu.pdb
5ox6.pdb
5oxc.pdb
5oxi.pdb
5oyc.pdb
5oyq.pdb
5oyr.pdb
5oys.pdb
5oyt.pdb
5oyu.pdb
5oyv.pdb
5oyw.pdb
5oyx.pdb
5oyy.pdb
5oyz.pdb
5oz0.pdb
5oz1.pdb
5oz2.pdb
5oz3.pdb
5oz4.pdb
5oz5.pdb
5oz6.pdb
5oz7.pdb
5oz8.pdb
5oz9.pdb
5oza.pdb
5ozb.pdb
5ozc.pdb
5ozd.pdb
5oze.pdb
5ozf.pdb
5ozg.pdb
5ozh.pdb
5ozi.pdb
5ozj.pdb
5ozk.pdb
5ozl.pdb
5ozm.pdb
5ozn.pdb
5ozo.pdb
5ozp.pdb
5ozq.pdb
5ozr.pdb
5ozs.pdb
5ozt.pdb
5ozu.pdb
5ozv.pdb
5ozw.pdb
5ozx.pdb
5ozy.pdb
5ozz.pdb
5p00.pdb
5p01.pdb
5p02.pdb
5p03.pdb
5p04.pdb
5p05.pdb
5p06.pdb
5p07.pdb
5p08.pdb
5p09.pdb
5p0a.pdb
5p0b.pdb
5p0c.pdb
5p0d.pdb
5p0e.pdb
5p0f.pdb
5p0g.pdb
5p0h.pdb
5p0i.pdb
5p0j.pdb
5p0k.pdb
5p0l.pdb
5p0m.pdb
5p0n.pdb
5p0o.pdb
5p0p.pdb
5p0q.pdb
5p0r.pdb
5p0s.pdb
5p0t.pdb
5p0u.pdb
5p0v.pdb
5p0w.pdb
5p0x.pdb
5p0y.pdb
5p0z.pdb
5p10.pdb
5p11.pdb
5p12.pdb
5p13.pdb
5p14.pdb
5p15.pdb
5p16.pdb
5p17.pdb
5p18.pdb
5p19.pdb
5p1a.pdb
5p1b.pdb
5p1c.pdb
5p1d.pdb
5p1e.pdb
5p1f.pdb
5p1g.pdb
5p1h.pdb
5p1i.pdb
5p1j.pdb
5p1k.pdb
5p1l.pdb
5p1m.pdb
5p1n.pdb
5p1o.pdb
5p1p.pdb
5p1q.pdb
5p1r.pdb
5p1s.pdb
5p1t.pdb
5p1u.pdb
5p1v.pdb
5p1w.pdb
5p1x.pdb
5p1y.pdb
5p1z.pdb
5p20.pdb
5p22.pdb
5p23.pdb
5p24.pdb
5p25.pdb
5p26.pdb
5p27.pdb
5p28.pdb
5p29.pdb
5p2a.pdb
5p2b.pdb
5p2c.pdb
5p2d.pdb
5p2e.pdb
5p2f.pdb
5p2g.pdb
5p2h.pdb
5p2i.pdb
5p2j.pdb
5p2k.pdb
5p2l.pdb
5p2m.pdb
5p2n.pdb
5p2o.pdb
5p2q.pdb
5p2r.pdb
5p2s.pdb
5p2t.pdb
5p2u.pdb
5p2v.pdb
5p2w.pdb
5p2x.pdb
5p2y.pdb
5p2z.pdb
5p30.pdb
5p31.pdb
5p32.pdb
5p33.pdb
5p34.pdb
5p35.pdb
5p36.pdb
5p37.pdb
5p38.pdb
5p39.pdb
5p3a.pdb
5p3b.pdb
5p3c.pdb
5p3d.pdb
5p3e.pdb
5p3f.pdb
5p3g.pdb
5p3h.pdb
5p3i.pdb
5p3j.pdb
5p3k.pdb
5p3l.pdb
5p3m.pdb
5p3n.pdb
5p3o.pdb
5p3p.pdb
5p3q.pdb
5p3r.pdb
5p3s.pdb
5p3t.pdb
5p3u.pdb
5p3v.pdb
5p3w.pdb
5p3x.pdb
5p3y.pdb
5p3z.pdb
5p40.pdb
5p41.pdb
5p42.pdb
5p43.pdb
5p44.pdb
5p45.pdb
5p46.pdb
5p47.pdb
5p48.pdb
5p49.pdb
5p4a.pdb
5p4b.pdb
5p4c.pdb
5p4d.pdb
5p4e.pdb
5p4f.pdb
5p4g.pdb
5p4h.pdb
5p4i.pdb
5p4j.pdb
5p4k.pdb
5p4l.pdb
5p4m.pdb
5p4n.pdb
5p4o.pdb
5p4p.pdb
5p4q.pdb
5p4r.pdb
5p4s.pdb
5p4t.pdb
5p4u.pdb
5p4v.pdb
5p4w.pdb
5p4x.pdb
5p4y.pdb
5p4z.pdb
5p50.pdb
5p51.pdb
5p52.pdb
5p53.pdb
5p54.pdb
5p55.pdb
5p56.pdb
5p57.pdb
5p58.pdb
5p59.pdb
5p5a.pdb
5p5b.pdb
5p5c.pdb
5p5d.pdb
5p5e.pdb
5p5f.pdb
5p5g.pdb
5p5h.pdb
5p5i.pdb
5p5j.pdb
5p5k.pdb
5p5l.pdb
5p5m.pdb
5p5n.pdb
5p5o.pdb
5p5p.pdb
5p5q.pdb
5p5r.pdb
5p5s.pdb
5p5t.pdb
5p5u.pdb
5p5v.pdb
5p5w.pdb
5p5x.pdb
5p5y.pdb
5p5z.pdb
5p60.pdb
5p61.pdb
5p62.pdb
5p63.pdb
5p64.pdb
5p65.pdb
5p66.pdb
5p67.pdb
5p68.pdb
5p69.pdb
5p6a.pdb
5p6b.pdb
5p6c.pdb
5p6d.pdb
5p6e.pdb
5p6f.pdb
5p6g.pdb
5p6h.pdb
5p6i.pdb
5p6j.pdb
5p6k.pdb
5p6l.pdb
5p6m.pdb
5p6n.pdb
5p6o.pdb
5p6p.pdb
5p6q.pdb
5p6r.pdb
5p6s.pdb
5p6t.pdb
5p6u.pdb
5p6v.pdb
5p6w.pdb
5p6x.pdb
5p6y.pdb
5p6z.pdb
5p70.pdb
5p71.pdb
5p72.pdb
5p73.pdb
5p74.pdb
5p75.pdb
5p76.pdb
5p77.pdb
5p78.pdb
5p79.pdb
5p7a.pdb
5p7b.pdb
5p7c.pdb
5p7d.pdb
5p7e.pdb
5p7f.pdb
5p7g.pdb
5p7h.pdb
5p7i.pdb
5p7j.pdb
5p7k.pdb
5p7l.pdb
5p7m.pdb
5p7n.pdb
5p7o.pdb
5p7p.pdb
5p7q.pdb
5p7r.pdb
5p7s.pdb
5p7t.pdb
5p7u.pdb
5p7v.pdb
5p7w.pdb
5p7x.pdb
5p7y.pdb
5p7z.pdb
5p80.pdb
5p81.pdb
5p82.pdb
5p83.pdb
5p84.pdb
5p85.pdb
5p86.pdb
5p87.pdb
5p88.pdb
5p89.pdb
5p8a.pdb
5p8b.pdb
5p8c.pdb
5p8d.pdb
5p8e.pdb
5p8f.pdb
5p8g.pdb
5p8h.pdb
5p8i.pdb
5p8j.pdb
5p8k.pdb
5p8l.pdb
5p8m.pdb
5p8n.pdb
5p8o.pdb
5p8p.pdb
5p8q.pdb
5p8r.pdb
5p8s.pdb
5p8t.pdb
5p8u.pdb
5p8v.pdb
5pa0.pdb
5pab.pdb
5pao.pdb
5pas.pdb
5pb3.pdb
5pb6.pdb
5qa4.pdb
5qa5.pdb
5qa6.pdb
5qa7.pdb
5qa9.pdb
5qaa.pdb
5qac.pdb
5qad.pdb
5qah.pdb
5qai.pdb
5qaj.pdb
5qak.pdb
5qal.pdb
5qam.pdb
5qao.pdb
5qap.pdb
5qas.pdb
5qat.pdb
5qau.pdb
5qav.pdb
5qay.pdb
5qb0.pdb
5qb1.pdb
5qb2.pdb
5qb3.pdb
5qb4.pdb
5sga.pdb
5std.pdb
5sur.pdb
5sut.pdb
5suv.pdb
5sv2.pdb
5sv5.pdb
5sv8.pdb
5svz.pdb
5sw3.pdb
5swc.pdb
5sxg.pdb
5sxh.pdb
5sxo.pdb
5sxp.pdb
5sxs.pdb
5sym.pdb
5syt.pdb
5syz.pdb
5sz1.pdb
5sz3.pdb
5sz5.pdb
5sz6.pdb
5szb.pdb
5szc.pdb
5szv.pdb
5t0s.pdb
5t18.pdb
5t1g.pdb
5t2e.pdb
5t2k.pdb
5t2v.pdb
5t30.pdb
5t38.pdb
5t39.pdb
5t3f.pdb
5t3h.pdb
5t40.pdb
5t46.pdb
5t5v.pdb
5t5x.pdb
5t66.pdb
5t6j.pdb
5t6p.pdb
5t77.pdb
5t7d.pdb
5t7e.pdb
5t7j.pdb
5t7k.pdb
5t7n.pdb
5t88.pdb
5t8s.pdb
5t93.pdb
5t96.pdb
5t9y.pdb
5tb7.pdb
5tcb.pdb
5tck.pdb
5tcy.pdb
5tda.pdb
5tdb.pdb
5tdc.pdb
5tdd.pdb
5tde.pdb
5tdf.pdb
5tdz.pdb
5te0.pdb
5tee.pdb
5tey.pdb
5tf1.pdb
5tf5.pdb
5tg0.pdb
5tg4.pdb
5tgi.pdb
5th2.pdb
5th7.pdb
5thi.pdb
5thj.pdb
5thn.pdb
5ti1.pdb
5ti2.pdb
5ti3.pdb
5ti4.pdb
5ti6.pdb
5ti7.pdb
5tiw.pdb
5tjs.pdb
5tk2.pdb
5tk3.pdb
5tkc.pdb
5tkg.pdb
5tkh.pdb
5tkl.pdb
5tkn.pdb
5tks.pdb
5tl9.pdb
5tlb.pdb
5tle.pdb
5tlz.pdb
5tno.pdb
5tnt.pdb
5tnv.pdb
5tnw.pdb
5tnx.pdb
5to4.pdb
5tof.pdb
5top.pdb
5toy.pdb
5tp0.pdb
5tpi.pdb
5tpr.pdb
5tq1.pdb
5tqe.pdb
5tqf.pdb
5tqg.pdb
5tqj.pdb
5tqn.pdb
5tqo.pdb
5tqp.pdb
5tqs.pdb
5tr0.pdb
5tr9.pdb
5tso.pdb
5tsx.pdb
5ttc.pdb
5ttw.pdb
5tui.pdb
5tuk.pdb
5tul.pdb
5tvo.pdb
5tvv.pdb
5tvy.pdb
5tw0.pdb
5tw9.pdb
5twt.pdb
5tx4.pdb
5txr.pdb
5txs.pdb
5txu.pdb
5txw.pdb
5ty3.pdb
5ty6.pdb
5tyj.pdb
5tyk.pdb
5tyl.pdb
5tym.pdb
5tyn.pdb
5tyo.pdb
5typ.pdb
5tzd.pdb
5tzo.pdb
5tzp.pdb
5tzq.pdb
5u08.pdb
5u0d.pdb
5u0e.pdb
5u0g.pdb
5u0h.pdb
5u1a.pdb
5u1m.pdb
5u2i.pdb
5u2o.pdb
5u2p.pdb
5u3a.pdb
5u3d.pdb
5u3i.pdb
5u3n.pdb
5u3o.pdb
5u3q.pdb
5u3s.pdb
5u3t.pdb
5u3v.pdb
5u3w.pdb
5u3y.pdb
5u3z.pdb
5u40.pdb
5u41.pdb
5u42.pdb
5u43.pdb
5u45.pdb
5u46.pdb
5u4r.pdb
5u4x.pdb
5u5m.pdb
5u5u.pdb
5u5w.pdb
5u5x.pdb
5u5y.pdb
5u5z.pdb
5u60.pdb
5u61.pdb
5u64.pdb
5u6a.pdb
5u6i.pdb
5u6t.pdb
5u78.pdb
5u79.pdb
5u7a.pdb
5u7b.pdb
5u7c.pdb
5u7f.pdb
5u81.pdb
5u82.pdb
5u83.pdb
5u85.pdb
5u88.pdb
5u8k.pdb
5u8u.pdb
5u8v.pdb
5u8w.pdb
5u92.pdb
5u9p.pdb
5u9u.pdb
5u9z.pdb
5uam.pdb
5uaz.pdb
5ucb.pdb
5uck.pdb
5ucn.pdb
5ucp.pdb
5ucs.pdb
5ucu.pdb
5ucz.pdb
5ud0.pdb
5ud2.pdb
5ud3.pdb
5ud4.pdb
5ud9.pdb
5udn.pdb
5ue1.pdb
5ufy.pdb
5ug2.pdb
5ugd.pdb
5ugi.pdb
5uhr.pdb
5uhx.pdb
5uii.pdb
5uio.pdb
5uiz.pdb
5uj6.pdb
5ujc.pdb
5ujo.pdb
5uka.pdb
5ul8.pdb
5ult.pdb
5um0.pdb
5um1.pdb
5um2.pdb
5um3.pdb
5umr.pdb
5umu.pdb
5umv.pdb
5un3.pdb
5unj.pdb
5uov.pdb
5upb.pdb
5upp.pdb
5upz.pdb
5uq6.pdb
5uqa.pdb
5uqj.pdb
5uqk.pdb
5uql.pdb
5ur3.pdb
5ur4.pdb
5ur5.pdb
5ur6.pdb
5ura.pdb
5ut7.pdb
5ut8.pdb
5ut9.pdb
5uti.pdb
5utj.pdb
5uu7.pdb
5uu9.pdb
5uua.pdb
5uub.pdb
5uuc.pdb
5uud.pdb
5uue.pdb
5uuk.pdb
5uul.pdb
5uun.pdb
5uuo.pdb
5uup.pdb
5uvf.pdb
5uvg.pdb
5uvp.pdb
5uvq.pdb
5uxa.pdb
5uy6.pdb
5uyh.pdb
5uyj.pdb
5uzx.pdb
5v0m.pdb
5v0w.pdb
5v1m.pdb
5v1y.pdb
5v2c.pdb
5v2m.pdb
5v2y.pdb
5v2z.pdb
5v32.pdb
5v34.pdb
5v36.pdb
5v3c.pdb
5v3n.pdb
5v4d.pdb
5v4g.pdb
5v4h.pdb
5v4i.pdb
5v4r.pdb
5v4v.pdb
5v53.pdb
5v5h.pdb
5v5j.pdb
5v5y.pdb
5v67.pdb
5v6f.pdb
5v6i.pdb
5v6k.pdb
5v6s.pdb
5v6v.pdb
5v75.pdb
5v76.pdb
5v77.pdb
5v7m.pdb
5v86.pdb
5v88.pdb
5v89.pdb
5v8s.pdb
5v91.pdb
5v92.pdb
5v9j.pdb
5va8.pdb
5vbb.pdb
5vbe.pdb
5vbi.pdb
5vbm.pdb
5vbo.pdb
5vbp.pdb
5vbq.pdb
5vc3.pdb
5vc5.pdb
5vc6.pdb
5vck.pdb
5vcv.pdb
5vcy.pdb
5vcz.pdb
5vd1.pdb
5vd3.pdb
5vd6.pdb
5vd8.pdb
5vd9.pdb
5vdc.pdb
5vdn.pdb
5vef.pdb
5veg.pdb
5vei.pdb
5vej.pdb
5ven.pdb
5veo.pdb
5vf2.pdb
5vfa.pdb
5vfe.pdb
5vff.pdb
5vfz.pdb
5vg0.pdb
5vg7.pdb
5vgl.pdb
5vgs.pdb
5vgu.pdb
5vhg.pdb
5vi6.pdb
5viu.pdb
5viv.pdb
5vj3.pdb
5vjd.pdb
5vje.pdb
5vjf.pdb
5vjs.pdb
5vjt.pdb
5vka.pdb
5vkb.pdb
5vkd.pdb
5vko.pdb
5vkr.pdb
5vkt.pdb
5vle.pdb
5vlx.pdb
5vm2.pdb
5vml.pdb
5vmo.pdb
5vn4.pdb
5vn5.pdb
5voj.pdb
5vp9.pdb
5vpq.pdb
5vpw.pdb
5vq3.pdb
5vqe.pdb
5vqn.pdb
5vr0.pdb
5vrk.pdb
5vsn.pdb
5vt1.pdb
5vts.pdb
5vw2.pdb
5vw3.pdb
5vw4.pdb
5vw5.pdb
5vw6.pdb
5vw7.pdb
5vw8.pdb
5vw9.pdb
5vwa.pdb
5vwb.pdb
5vwc.pdb
5vwi.pdb
5vwn.pdb
5vxe.pdb
5vxf.pdb
5vxr.pdb
5vxv.pdb
5vyy.pdb
5vzo.pdb
5vzp.pdb
5vzv.pdb
5w0g.pdb
5w0h.pdb
5w16.pdb
5w1g.pdb
5w1n.pdb
5w1q.pdb
5w1y.pdb
5w2h.pdb
5w2w.pdb
5w3i.pdb
5w3q.pdb
5w3r.pdb
5w4a.pdb
5w4d.pdb
5w4h.pdb
5w4y.pdb
5w55.pdb
5w7b.pdb
5w7d.pdb
5w7e.pdb
5w7w.pdb
5w83.pdb
5w89.pdb
5w8f.pdb
5w8h.pdb
5w8k.pdb
5w8m.pdb
5w8o.pdb
5w8p.pdb
5w8q.pdb
5w8x.pdb
5wa5.pdb
5waa.pdb
5wbh.pdb
5wc4.pdb
5wc7.pdb
5wca.pdb
5wcd.pdb
5wcj.pdb
5wck.pdb
5wcm.pdb
5wcx.pdb
5wd6.pdb
5wdo.pdb
5wdp.pdb
5wdq.pdb
5wdr.pdb
5wec.pdb
5wex.pdb
5wf2.pdb
5wf9.pdb
5wfb.pdb
5wgi.pdb
5wgk.pdb
5wgl.pdb
5wgm.pdb
5wh8.pdb
5whw.pdb
5wjg.pdb
5wkr.pdb
5wl1.pdb
5wl6.pdb
5wl7.pdb
5wl8.pdb
5wlo.pdb
5wly.pdb
5wmf.pdb
5wn9.pdb
5wnn.pdb
5wnw.pdb
5wo1.pdb
5wo2.pdb
5wo3.pdb
5wop.pdb
5wou.pdb
5wp2.pdb
5wpb.pdb
5wpn.pdb
5wqc.pdb
5wqo.pdb
5wqq.pdb
5wqr.pdb
5ws7.pdb
5wse.pdb
5wsf.pdb
5wsk.pdb
5ww9.pdb
5wxf.pdb
5wxo.pdb
5wxp.pdb
5wxq.pdb
5wxr.pdb
5wzm.pdb
5wzo.pdb
5x4q.pdb
5x5j.pdb
5x5m.pdb
5x6s.pdb
5x8f.pdb
5x8g.pdb
5x9o.pdb
5xb8.pdb
5xdc.pdb
5xdd.pdb
5xdq.pdb
5xdz.pdb
5xev.pdb
5xg7.pdb
5xg8.pdb
5xgq.pdb
5xjn.pdb
5xjp.pdb
5xl0.pdb
5xle.pdb
5xlf.pdb
5xlg.pdb
5xlh.pdb
5xli.pdb
5xm5.pdb
5xm7.pdb
5xn9.pdb
5xp0.pdb
5xpf.pdb
5xpn.pdb
5xqp.pdb
5xqu.pdb
5xqv.pdb
5xr0.pdb
5xrr.pdb
5xs6.pdb
5xsa.pdb
5xsb.pdb
5xsm.pdb
5xsw.pdb
5xts.pdb
5xtv.pdb
5xu2.pdb
5xu7.pdb
5xu9.pdb
5xuf.pdb
5xvx.pdb
5xw0.pdb
5xw9.pdb
5xwc.pdb
5xwe.pdb
5xyj.pdb
5xzj.pdb
5y02.pdb
5y2r.pdb
5y5e.pdb
5y5h.pdb
5y5j.pdb
5y8j.pdb
5y8l.pdb
5y9a.pdb
5y9q.pdb
5yag.pdb
5yat.pdb
5yc0.pdb
5yde.pdb
5ydn.pdb
5yha.pdb
5yia.pdb
5yic.pdb
5yj6.pdb
5yj8.pdb
5yoj.pdb
5yt6.pdb
5yuf.pdb
5yxc.pdb
5z0c.pdb
5z25.pdb
5z2s.pdb
5z42.pdb
5z4g.pdb
5zeq.pdb
5zho.pdb
5zn8.pdb
5zrx.pdb
5zry.pdb
6a3h.pdb
6amg.pdb
6anj.pdb
6anm.pdb
6ann.pdb
6anz.pdb
6ao7.pdb
6aon.pdb
6aph.pdb
6apy.pdb
6aqp.pdb
6ar0.pdb
6ar2.pdb
6arc.pdb
6ard.pdb
6are.pdb
6arf.pdb
6arg.pdb
6ark.pdb
6arl.pdb
6arr.pdb
6at8.pdb
6au7.pdb
6au8.pdb
6auq.pdb
6aur.pdb
6aus.pdb
6aut.pdb
6auu.pdb
6auv.pdb
6auw.pdb
6aux.pdb
6auy.pdb
6auz.pdb
6av0.pdb
6av3.pdb
6av4.pdb
6av5.pdb
6av7.pdb
6avl.pdb
6avx.pdb
6b00.pdb
6b1k.pdb
6b2n.pdb
6b42.pdb
6b4d.pdb
6b4e.pdb
6b4n.pdb
6b4o.pdb
6b5m.pdb
6b5n.pdb
6b5r.pdb
6b5s.pdb
6b6n.pdb
6b6p.pdb
6b6q.pdb
6b6r.pdb
6b6s.pdb
6b6t.pdb
6b6u.pdb
6b7j.pdb
6b8b.pdb
6b8e.pdb
6b8f.pdb
6b8g.pdb
6b8t.pdb
6b8x.pdb
6b8z.pdb
6b90.pdb
6b95.pdb
6b9h.pdb
6bai.pdb
6bbd.pdb
6bbe.pdb
6bbl.pdb
6bca.pdb
6bcb.pdb
6bev.pdb
6bgd.pdb
6bh9.pdb
6bii.pdb
6bj9.pdb
6bja.pdb
6bjb.pdb
6bl5.pdb
6bla.pdb
6blk.pdb
6bma.pdb
6bmg.pdb
6bnc.pdb
6bnd.pdb
6bo0.pdb
6bo1.pdb
6bo2.pdb
6bp0.pdb
6bp1.pdb
6bpv.pdb
6bqb.pdb
6bqk.pdb
6br7.pdb
6bre.pdb
6bru.pdb
6bsu.pdb
6bt6.pdb
6bta.pdb
6btw.pdb
6bu3.pdb
6bu6.pdb
6bvc.pdb
6bw4.pdb
6bxd.pdb
6bxg.pdb
6bz2.pdb
6c02.pdb
6c0e.pdb
6c25.pdb
6c2i.pdb
6c42.pdb
6c49.pdb
6c4a.pdb
6c4l.pdb
6c4m.pdb
6c4n.pdb
6c7w.pdb
6c7x.pdb
6c9b.pdb
6c9e.pdb
6ca4.pdb
6cb5.pdb
6cc2.pdb
6cd0.pdb
6cd8.pdb
6cd9.pdb
6cda.pdb
6cdb.pdb
6cdc.pdb
6cdg.pdb
6cdj.pdb
6cdl.pdb
6cdq.pdb
6ceh.pdb
6cfq.pdb
6cgs.pdb
6cgu.pdb
6ch1.pdb
6cha.pdb
6cig.pdb
6cja.pdb
6cko.pdb
6cl6.pdb
6cnx.pdb
6cpb.pdb
6cpw.pdb
6csl.pdb
6csp.pdb
6csr.pdb
6cxx.pdb
6czx.pdb
6czy.pdb
6czz.pdb
6d0a.pdb
6d0g.pdb
6d0l.pdb
6d1l.pdb
6d1m.pdb
6d2v.pdb
6d3a.pdb
6d42.pdb
6d6j.pdb
6d7a.pdb
6d8j.pdb
6db6.pdb
6dg4.pdb
6dgm.pdb
6din.pdb
6djt.pdb
6dpt.pdb
6dpx.pdb
6dpy.pdb
6dpz.pdb
6dxn.pdb
6dxo.pdb
6ei1.pdb
6eim.pdb
6eio.pdb
6eiz.pdb
6ej7.pdb
6eja.pdb
6eke.pdb
6ekn.pdb
6elc.pdb
6elk.pdb
6elm.pdb
6eln.pdb
6elx.pdb
6en5.pdb
6en6.pdb
6enb.pdb
6enc.pdb
6eno.pdb
6ens.pdb
6eox.pdb
6eqe.pdb
6ero.pdb
6esz.pdb
6et0.pdb
6etk.pdb
6etl.pdb
6etm.pdb
6etn.pdb
6eto.pdb
6etp.pdb
6etq.pdb
6etr.pdb
6eut.pdb
6euz.pdb
6ew2.pdb
6ew4.pdb
6ew5.pdb
6ex7.pdb
6ex8.pdb
6exj.pdb
6exl.pdb
6exm.pdb
6exp.pdb
6ezv.pdb
6f09.pdb
6f1l.pdb
6f1m.pdb
6f1o.pdb
6f1p.pdb
6f1r.pdb
6f43.pdb
6f4b.pdb
6f4f.pdb
6f4k.pdb
6f4m.pdb
6f4o.pdb
6f4p.pdb
6f4q.pdb
6f4r.pdb
6f4s.pdb
6f4t.pdb
6f51.pdb
6f5z.pdb
6f60.pdb
6f66.pdb
6f68.pdb
6f69.pdb
6f6a.pdb
6f6c.pdb
6f6e.pdb
6f6f.pdb
6f6g.pdb
6f6h.pdb
6f6k.pdb
6f70.pdb
6f7u.pdb
6f91.pdb
6f9m.pdb
6f9r.pdb
6f9t.pdb
6f9u.pdb
6f9v.pdb
6f9x.pdb
6f9y.pdb
6f9z.pdb
6fa0.pdb
6faa.pdb
6fau.pdb
6fav.pdb
6faw.pdb
6fbb.pdb
6fbw.pdb
6fby.pdb
6fbz.pdb
6fc0.pdb
6fc1.pdb
6fc2.pdb
6fc3.pdb
6fcp.pdb
6fd1.pdb
6fdr.pdb
6fea.pdb
6ff5.pdb
6fgg.pdb
6fhq.pdb
6fi4.pdb
6fi5.pdb
6fig.pdb
6fih.pdb
6fj4.pdb
6flj.pdb
6flk.pdb
6fm6.pdb
6fm7.pdb
6fmb.pdb
6fmd.pdb
6fmu.pdb
6fmz.pdb
6fnq.pdb
6fnr.pdb
6fns.pdb
6fnt.pdb
6fnw.pdb
6fnx.pdb
6foa.pdb
6fs7.pdb
6fs8.pdb
6fsb.pdb
6fsg.pdb
6fsi.pdb
6fsj.pdb
6fsm.pdb
6ft1.pdb
6ftc.pdb
6fth.pdb
6ftp.pdb
6fuo.pdb
6fuq.pdb
6fve.pdb
6fvh.pdb
6fx2.pdb
6fx3.pdb
6fxb.pdb
6g0x.pdb
6g22.pdb
6g2l.pdb
6g2m.pdb
6g2n.pdb
6g35.pdb
6g44.pdb
6g47.pdb
6g58.pdb
6g5v.pdb
6g5y.pdb
6g74.pdb
6gfs.pdb
6gfx.pdb
6gid.pdb
6gii.pdb
6gno.pdb
6gnr.pdb
6gnw.pdb
6gon.pdb
6goo.pdb
6gr7.pdb
6grp.pdb
6gsv.pdb
6gsx.pdb
6gvp.pdb
6gvr.pdb
6ins.pdb
7fd1.pdb
7fdr.pdb
7ins.pdb
7pcy.pdb
7rsa.pdb
7tli.pdb
8a3h.pdb
8gss.pdb
9gss.pdb
9rsa.pdb
